<?xml version="1.0" encoding="UTF-8" standalone="no"?>
<!-- Created with Inkscape (http://www.inkscape.org/) -->

<svg
   xmlns:dc="http://purl.org/dc/elements/1.1/"
   xmlns:cc="http://creativecommons.org/ns#"
   xmlns:rdf="http://www.w3.org/1999/02/22-rdf-syntax-ns#"
   xmlns:svg="http://www.w3.org/2000/svg"
   xmlns="http://www.w3.org/2000/svg"
   xmlns:sodipodi="http://sodipodi.sourceforge.net/DTD/sodipodi-0.dtd"
   xmlns:inkscape="http://www.inkscape.org/namespaces/inkscape"
   width="512"
   height="512"
   viewBox="0 0 135.46666 135.46667"
   version="1.1"
   id="svg8"
   inkscape:version="0.92.3 (2405546, 2018-03-11)"
   sodipodi:docname="xfce4-panel-keepassxc.svg"
   inkscape:export-filename="/home/giagio/Icons/xfce4-terminal-root.png"
   inkscape:export-xdpi="96"
   inkscape:export-ydpi="96">
  <defs
     id="defs2">
    <filter
       inkscape:collect="always"
       style="color-interpolation-filters:sRGB"
       id="filter843"
       x="-0.036000001"
       width="1.072"
       y="-0.035999999"
       height="1.072">
      <feGaussianBlur
         inkscape:collect="always"
         stdDeviation="1.7636011"
         id="feGaussianBlur845" />
    </filter>
  </defs>
  <sodipodi:namedview
     id="base"
     pagecolor="#ffffff"
     bordercolor="#666666"
     borderopacity="1.0"
     inkscape:pageopacity="0.0"
     inkscape:pageshadow="2"
     inkscape:zoom="1.2640316"
     inkscape:cx="262.60707"
     inkscape:cy="256"
     inkscape:document-units="px"
     inkscape:current-layer="layer1"
     showgrid="false"
     units="px"
     inkscape:window-width="1366"
     inkscape:window-height="717"
     inkscape:window-x="0"
     inkscape:window-y="27"
     inkscape:window-maximized="1"
     showguides="false"
     inkscape:guide-bbox="true">
    <sodipodi:guide
       position="0,7.9375002"
       orientation="0,1"
       id="guide7121"
       inkscape:label=""
       inkscape:color="rgb(0,0,255)"
       inkscape:locked="false" />
    <sodipodi:guide
       position="0,127.52917"
       orientation="0,1"
       id="guide7123"
       inkscape:label=""
       inkscape:color="rgb(0,0,255)"
       inkscape:locked="false" />
    <sodipodi:guide
       position="7.9374996,0"
       orientation="1,0"
       id="guide7125"
       inkscape:label=""
       inkscape:color="rgb(0,0,255)"
       inkscape:locked="false" />
    <sodipodi:guide
       position="127.52916,0"
       orientation="1,0"
       id="guide7127"
       inkscape:label=""
       inkscape:color="rgb(0,0,255)"
       inkscape:locked="false" />
  </sodipodi:namedview>
  <metadata
     id="metadata5">
    <rdf:RDF>
      <cc:Work
         rdf:about="">
        <dc:format>image/svg+xml</dc:format>
        <dc:type
           rdf:resource="http://purl.org/dc/dcmitype/StillImage" />
        <dc:title />
      </cc:Work>
    </rdf:RDF>
  </metadata>
  <g
     inkscape:label="Layer 1"
     inkscape:groupmode="layer"
     id="layer1"
     transform="translate(0,-161.53332)">
    <rect
       rx="3.4565365"
       ry="3.4565365"
       y="170.47995"
       x="8.9466257"
       height="117.57341"
       width="117.5734"
       id="rect829"
       style="fill:#141414;fill-opacity:1;stroke:#141414;stroke-width:2.01826715;stroke-miterlimit:4;stroke-dasharray:none;stroke-opacity:1;filter:url(#filter843)" />
    <rect
       style="fill:#43a047;fill-opacity:1;stroke:#43a047;stroke-width:2.01826715;stroke-miterlimit:4;stroke-dasharray:none;stroke-opacity:1"
       id="rect10"
       width="117.5734"
       height="117.57341"
       x="8.9466257"
       y="170.47995"
       ry="3.4565365"
       rx="3.4565365" />
    <g
       id="g4131"
       transform="translate(1.4442264,155.22753)"
       style="opacity:0.41800005;fill:#000000;fill-opacity:1;stroke:#000000;stroke-opacity:1" />
    <circle
       style="opacity:1;fill:#e2e2e2;fill-opacity:1;fill-rule:nonzero;stroke:none;stroke-width:2.14341283;stroke-linecap:butt;stroke-linejoin:miter;stroke-miterlimit:4;stroke-dasharray:none;stroke-dashoffset:0;stroke-opacity:1"
       id="path4311"
       cx="213.5955"
       cy="88.274178"
       r="25.417818"
       transform="rotate(46.277088)" />
    <rect
       style="opacity:1;fill:#43a047;fill-opacity:1;fill-rule:nonzero;stroke:none;stroke-width:2.14341283;stroke-linecap:butt;stroke-linejoin:miter;stroke-miterlimit:4;stroke-dasharray:none;stroke-dashoffset:0;stroke-opacity:1"
       id="rect4317"
       width="19.854998"
       height="12.299744"
       x="203.668"
       y="71.07222"
       rx="7.1888742"
       ry="3.4232724"
       transform="rotate(46.277088)" />
    <path
       style="fill:#e2e2e2;fill-opacity:1;fill-rule:evenodd;stroke:#e2e2e2;stroke-width:3.42946076;stroke-linecap:round;stroke-linejoin:round;stroke-miterlimit:4;stroke-dasharray:none;stroke-opacity:1"
       d="m 61.912865,224.0275 -33.893382,32.41516 -0.0921,9.56177 11.239603,0.85587 5.071638,-4.85044 8.830373,0.31791 0.818109,-9.54558 9.561774,0.0921 0.952598,-10.1479 7.669305,-7.33482 z"
       id="path4321"
       inkscape:connector-curvature="0" />
  </g>
</svg>
