<?xml version="1.0" encoding="UTF-8" standalone="no"?>
<!-- Created with Inkscape (http://www.inkscape.org/) -->

<svg
   xmlns:dc="http://purl.org/dc/elements/1.1/"
   xmlns:cc="http://creativecommons.org/ns#"
   xmlns:rdf="http://www.w3.org/1999/02/22-rdf-syntax-ns#"
   xmlns:svg="http://www.w3.org/2000/svg"
   xmlns="http://www.w3.org/2000/svg"
   xmlns:sodipodi="http://sodipodi.sourceforge.net/DTD/sodipodi-0.dtd"
   xmlns:inkscape="http://www.inkscape.org/namespaces/inkscape"
   width="512"
   height="512"
   viewBox="0 0 135.46666 135.46667"
   version="1.1"
   id="svg8"
   inkscape:version="0.92.3 (2405546, 2018-03-11)"
   sodipodi:docname="mint-menu-alt.svg">
  <defs
     id="defs2" />
  <sodipodi:namedview
     id="base"
     pagecolor="#ffffff"
     bordercolor="#666666"
     borderopacity="1.0"
     inkscape:pageopacity="0.0"
     inkscape:pageshadow="2"
     inkscape:zoom="2.0871523"
     inkscape:cx="254.87036"
     inkscape:cy="257.49791"
     inkscape:document-units="px"
     inkscape:current-layer="layer1"
     showgrid="false"
     units="px"
     inkscape:window-width="1920"
     inkscape:window-height="1054"
     inkscape:window-x="0"
     inkscape:window-y="0"
     inkscape:window-maximized="1" />
  <metadata
     id="metadata5">
    <rdf:RDF>
      <cc:Work
         rdf:about="">
        <dc:format>image/svg+xml</dc:format>
        <dc:type
           rdf:resource="http://purl.org/dc/dcmitype/StillImage" />
        <dc:title></dc:title>
      </cc:Work>
    </rdf:RDF>
  </metadata>
  <g
     inkscape:label="Layer 1"
     inkscape:groupmode="layer"
     id="layer1"
     transform="translate(0,-161.53332)">
    <circle
       style="fill:#009902;fill-opacity:1;stroke:#0fc616;stroke-width:0.79374999;stroke-miterlimit:4;stroke-dasharray:none;stroke-opacity:1"
       id="path4732"
       cx="67.434448"
       cy="228.87033"
       r="54.74704" />
    <g
       aria-label="M"
       transform="matrix(0.7893818,0,0,0.55069324,32.192409,64.690286)"
       style="font-style:normal;font-variant:normal;font-weight:bold;font-stretch:normal;font-size:99.8944931px;line-height:1.25;font-family:Uroob;-inkscape-font-specification:'Uroob, Bold';font-variant-ligatures:normal;font-variant-caps:normal;font-variant-numeric:normal;font-feature-settings:normal;text-align:start;letter-spacing:0px;word-spacing:0px;writing-mode:lr-tb;text-anchor:start;fill:#373737;fill-opacity:1;stroke:none;stroke-width:2.49736214"
       id="text4697">
      <path
         d="m 39.269852,248.41803 q 0,-2.82904 4.682554,-2.53638 1.121862,0.0975 1.853511,0.0975 v 0.0488 h 1.024309 l 14.974419,33.89974 15.023195,-33.89974 h 0.536543 v -0.0488 h 4.097235 q 1.755958,0 2.633937,1.4633 0.292659,0.43899 0.292659,0.97553 v 59.89767 h -8.974896 v -38.58229 l -9.365108,22.24213 h -8.438354 l -9.365108,-20.19352 v 36.53368 h -8.974896 z"
         style="font-style:normal;font-variant:normal;font-weight:bold;font-stretch:normal;font-size:99.8944931px;font-family:Uroob;-inkscape-font-specification:'Uroob, Bold';font-variant-ligatures:normal;font-variant-caps:normal;font-variant-numeric:normal;font-feature-settings:normal;text-align:start;writing-mode:lr-tb;text-anchor:start;fill:#373737;fill-opacity:1;stroke-width:2.49736214"
         id="path4737"
         inkscape:connector-curvature="0" />
    </g>
    <g
       aria-label="L"
       transform="matrix(1.1363879,0,0,0.72279316,4.3583989,19.464785)"
       style="font-style:normal;font-weight:normal;font-size:53.19148636px;line-height:1.25;font-family:sans-serif;letter-spacing:0px;word-spacing:0px;fill:#f9f9f9;fill-opacity:1;stroke:none;stroke-width:1.3297869"
       id="text4742">
      <path
         d="m 39.991292,329.54837 c -8.061834,-10e-6 -12.092751,-3.51147 -12.092751,-10.53441 v -69.12815 h 11.282412 v 63.29882 c 0,1.66223 0.912277,1.73347 0.912277,1.73347 0.592626,0.15906 2.176255,0.11986 2.735209,0.12078 l 40.284493,0.0665 -13.048453,14.44303 z"
         style="font-style:normal;font-variant:normal;font-weight:bold;font-stretch:normal;font-size:127.65956116px;font-family:Uroob;-inkscape-font-specification:'Uroob, Bold';font-variant-ligatures:normal;font-variant-caps:normal;font-variant-numeric:normal;font-feature-settings:normal;text-align:start;writing-mode:lr-tb;text-anchor:start;fill:#f9f9f9;fill-opacity:1;stroke-width:1.3297869"
         id="path4744"
         inkscape:connector-curvature="0"
         sodipodi:nodetypes="ssccscsccs" />
    </g>
  </g>
</svg>
