<?xml version="1.0" encoding="UTF-8" standalone="no"?>
<!-- Created with Inkscape (http://www.inkscape.org/) -->

<svg
   xmlns:dc="http://purl.org/dc/elements/1.1/"
   xmlns:cc="http://creativecommons.org/ns#"
   xmlns:rdf="http://www.w3.org/1999/02/22-rdf-syntax-ns#"
   xmlns:svg="http://www.w3.org/2000/svg"
   xmlns="http://www.w3.org/2000/svg"
   xmlns:xlink="http://www.w3.org/1999/xlink"
   xmlns:sodipodi="http://sodipodi.sourceforge.net/DTD/sodipodi-0.dtd"
   xmlns:inkscape="http://www.inkscape.org/namespaces/inkscape"
   width="512"
   height="512"
   viewBox="0 0 135.46666 135.46667"
   version="1.1"
   id="svg8"
   inkscape:version="0.92.3 (2405546, 2018-03-11)"
   sodipodi:docname="plank-preferences.svg"
   inkscape:export-filename="/home/giagio/Icons/xfce4-terminal-root.png"
   inkscape:export-xdpi="96"
   inkscape:export-ydpi="96">
  <defs
     id="defs2">
    <linearGradient
       inkscape:collect="always"
       id="linearGradient967">
      <stop
         style="stop-color:#5c5c5c;stop-opacity:0.888"
         offset="0"
         id="stop963" />
      <stop
         style="stop-color:#cfcecd;stop-opacity:1"
         offset="1"
         id="stop965" />
    </linearGradient>
    <linearGradient
       inkscape:collect="always"
       xlink:href="#linearGradient967"
       id="linearGradient969"
       x1="69.036331"
       y1="267.8154"
       x2="69.041252"
       y2="286.01654"
       gradientUnits="userSpaceOnUse"
       gradientTransform="translate(2.84e-6)" />
    <filter
       inkscape:collect="always"
       style="color-interpolation-filters:sRGB"
       id="filter4766"
       x="-0.036000001"
       width="1.072"
       y="-0.035999999"
       height="1.072">
      <feGaussianBlur
         inkscape:collect="always"
         stdDeviation="1.7636011"
         id="feGaussianBlur4768" />
    </filter>
  </defs>
  <sodipodi:namedview
     id="base"
     pagecolor="#ffffff"
     bordercolor="#666666"
     borderopacity="1.0"
     inkscape:pageopacity="0.0"
     inkscape:pageshadow="2"
     inkscape:zoom="1.2646873"
     inkscape:cx="-1.9453043"
     inkscape:cy="255.99998"
     inkscape:document-units="px"
     inkscape:current-layer="layer1"
     showgrid="false"
     units="px"
     inkscape:window-width="1366"
     inkscape:window-height="717"
     inkscape:window-x="0"
     inkscape:window-y="27"
     inkscape:window-maximized="1"
     showguides="false"
     inkscape:guide-bbox="true">
    <sodipodi:guide
       position="0,7.9375002"
       orientation="0,1"
       id="guide7121"
       inkscape:label=""
       inkscape:color="rgb(0,0,255)"
       inkscape:locked="false" />
    <sodipodi:guide
       position="0,127.52917"
       orientation="0,1"
       id="guide7123"
       inkscape:label=""
       inkscape:color="rgb(0,0,255)"
       inkscape:locked="false" />
    <sodipodi:guide
       position="7.9374996,0"
       orientation="1,0"
       id="guide7125"
       inkscape:label=""
       inkscape:color="rgb(0,0,255)"
       inkscape:locked="false" />
    <sodipodi:guide
       position="127.52916,0"
       orientation="1,0"
       id="guide7127"
       inkscape:label=""
       inkscape:color="rgb(0,0,255)"
       inkscape:locked="false" />
  </sodipodi:namedview>
  <metadata
     id="metadata5">
    <rdf:RDF>
      <cc:Work
         rdf:about="">
        <dc:format>image/svg+xml</dc:format>
        <dc:type
           rdf:resource="http://purl.org/dc/dcmitype/StillImage" />
        <dc:title />
      </cc:Work>
    </rdf:RDF>
  </metadata>
  <g
     inkscape:label="Layer 1"
     inkscape:groupmode="layer"
     id="layer1"
     transform="translate(0,-161.53332)">
    <rect
       rx="3.116683"
       ry="3.116683"
       y="170.47995"
       x="8.9466257"
       height="117.57341"
       width="117.5734"
       id="rect828"
       style="fill:#141414;fill-opacity:1;stroke:#141414;stroke-width:2.01826715;stroke-miterlimit:4;stroke-dasharray:none;stroke-opacity:1;filter:url(#filter4766)" />
    <rect
       style="fill:#1e88e5;fill-opacity:1;stroke:#1e88e5;stroke-width:2.01826715;stroke-miterlimit:4;stroke-dasharray:none;stroke-opacity:1"
       id="rect10"
       width="117.5734"
       height="117.57341"
       x="8.9466257"
       y="170.47995"
       ry="3.116683"
       rx="3.116683" />
    <g
       id="g4131"
       transform="translate(1.4442264,155.22753)"
       style="opacity:0.41800005;fill:#000000;fill-opacity:1;stroke:#000000;stroke-opacity:1" />
    <path
       inkscape:connector-curvature="0"
       id="path14"
       style="fill:#fff8e1;fill-opacity:1;fill-rule:nonzero;stroke:none;stroke-width:0.03527778;stroke-opacity:1"
       d="m 70.344943,184.99555 c -0.474718,-0.96828 -1.467656,-1.63199 -2.612466,-1.63199 -1.144802,0 -2.138022,0.66371 -2.612458,1.63199 -1.174464,-0.82417 -1.944038,-2.18597 -1.944038,-3.72955 0,-2.51658 2.040198,-4.55651 4.556496,-4.55651 2.516306,0 4.556221,2.03993 4.556221,4.55651 0,1.54358 -0.769575,2.90538 -1.943755,3.72955 z m -4.964427,0.82832 c 0.06513,-0.47332 0.258008,-0.65095 0.651522,-0.65095 0.456148,0 0.5864,0.68033 0.5864,0.68033 0.19565,2.72138 0,6.4185 0,6.4185 0,0 0,0.53237 -0.5864,0.53237 -0.586399,0 -0.651522,-0.53237 -0.651522,-0.53237 -0.06513,-1.30138 -0.06513,-5.97482 0,-6.44788 z m 1.237922,48.49698 c 0,0 0,2.59555 -0.5864,2.59555 -0.586399,0 -0.651522,-2.59555 -0.651522,-2.59555 -0.06513,-6.34452 -0.06513,-29.12729 0,-31.43436 0.06513,-2.30706 0.258008,-3.17225 0.651522,-3.17225 0.456148,0 0.5864,3.31636 0.5864,3.31636 0.19565,13.26599 0,31.29025 0,31.29025 z m -1.353759,13.24631 c -0.26133,0.53374 -2.218118,-0.5584 -2.218118,-2.93171 0,-2.37303 1.877526,-3.9374 2.218951,-3.14066 0.299296,0.6978 -0.959687,1.53555 -1.078572,2.93143 -0.118611,1.39588 1.487609,2.30319 1.077739,3.14094 z m 38.189281,-30.26404 c 0,0 -0.23002,-1.60539 -2.48859,0.34918 -2.258569,1.95428 -8.610287,6.70062 -7.633147,7.53809 0.62464,0.53595 2.079554,0.75738 3.046718,0.84744 -0.09145,0.13885 -0.180127,0.28212 -0.274354,0.43149 -0.185673,0.31204 -0.424002,0.61688 -0.656785,0.95109 -0.241102,0.32757 -0.471111,0.68866 -0.751012,1.03424 -0.277127,0.34918 -0.565338,0.71277 -0.863801,1.08938 -0.307882,0.36803 -0.642096,0.73521 -0.975482,1.11986 -0.685607,0.75324 -1.432738,1.5253 -2.25192,2.2741 -0.811146,0.75654 -1.694068,1.48982 -2.617728,2.19815 -0.45559,0.36138 -0.947487,0.68589 -1.421371,1.03396 -0.4883,0.32977 -0.984078,0.65318 -1.482071,0.9716 -1.01151,0.61467 -2.034103,1.21021 -3.079972,1.72706 -1.034784,0.53539 -2.088973,0.9932 -3.111841,1.4233 -1.033127,0.40794 -8.130588,1.06805 -8.130588,-2.9101 0,-1.89249 0.223364,-3.88057 0.290427,-5.94101 0.03519,-1.03007 0.05374,-2.07761 0.06952,-3.13789 0.02302,-1.06028 0.02907,-2.13331 0.02993,-3.21521 0.01273,-2.16352 -0.01217,-4.3614 -0.01579,-6.559 -0.01666,-4.39577 -0.03323,-8.79126 -0.04878,-12.9124 -0.02412,-2.06042 -0.04714,-4.05212 -0.06898,-5.94073 -0.0039,-0.19149 -0.0079,-0.37718 -0.01107,-0.56645 h 7.845982 c 0.810871,0 1.413336,-0.75101 1.237363,-1.54247 l -0.261329,-1.17613 c -0.11473,-0.51739 -0.539282,-0.90841 -1.06444,-0.98075 l -7.851796,-1.0819 c -0.04626,-1.63863 -0.07478,-3.14149 -0.124706,-4.4739 -0.01775,-0.48969 -0.05766,-1.48928 -0.10143,-2.56009 2.225596,-1.09299 3.7581,-3.38121 3.7581,-6.02803 -8e-6,-3.7074 -3.005156,-6.71282 -6.71254,-6.71282 -3.707385,0 -6.712815,3.00542 -6.712815,6.71282 0,2.64682 1.532503,4.93504 3.7581,6.02803 -0.04376,1.07081 -0.0837,2.0704 -0.101431,2.56009 -0.04957,1.33241 -0.0784,2.83527 -0.124423,4.4739 l -7.852078,1.0819 c -0.524876,0.0724 -0.949428,0.46336 -1.06444,0.98075 l -0.26133,1.17613 c -0.175697,0.79146 0.4265,1.54247 1.237371,1.54247 h 7.846249 c -0.0039,0.18927 -0.0071,0.37496 -0.01139,0.56645 -0.0216,1.88861 -0.04462,3.88031 -0.06874,5.94073 -0.01556,4.12114 -0.03213,8.51663 -0.04902,12.9124 -0.0039,2.1976 -0.02852,4.39548 -0.01579,6.559 7.85e-4,1.0819 0.0071,2.15493 0.03024,3.21521 0.01556,1.06028 0.03433,2.10782 0.06952,3.13789 0.06677,2.06044 0.290153,4.04852 0.290153,5.94101 0,4.16437 -7.097186,3.31804 -8.130589,2.9101 -1.022592,-0.4301 -2.077056,-0.88791 -3.111841,-1.4233 -1.045593,-0.51685 -2.068462,-1.11239 -3.079971,-1.72706 -0.497718,-0.31842 -0.993496,-0.64183 -1.481788,-0.9716 -0.474168,-0.34807 -0.965782,-0.67258 -1.421379,-1.03396 -0.923661,-0.70833 -1.806583,-1.44161 -2.617728,-2.19815 -0.819458,-0.7488 -1.566589,-1.52086 -2.251921,-2.2741 -0.333656,-0.38465 -0.667869,-0.75183 -0.975484,-1.11986 -0.298187,-0.37661 -0.586116,-0.7402 -0.862411,-1.08938 -0.282673,-0.34558 -0.51185,-0.70667 -0.753226,-1.03424 -0.231676,-0.33421 -0.470562,-0.63905 -0.65651,-0.95109 -0.09256,-0.14937 -0.183733,-0.29264 -0.272414,-0.43149 0.966056,-0.09 2.420413,-0.3112 3.045886,-0.84744 0.977141,-0.83747 -5.374296,-5.58381 -7.633427,-7.53809 -2.258841,-1.95457 -2.487195,-0.34918 -2.487195,-0.34918 0.539283,2.83167 1.515041,5.46464 2.509095,7.63231 l -0.02246,0.0114 c 0,0 0.28932,0.58639 0.795632,1.61258 0.249413,0.51601 0.611332,1.11156 0.996544,1.81213 0.110567,0.20867 0.240819,0.41708 0.376885,0.63074 0.346962,0.57559 0.630743,1.01206 0.817524,1.29057 0.03519,0.0537 0.07203,0.10725 0.108634,0.16101 0.04517,0.066 0.0787,0.11417 0.100591,0.14549 l 0.03134,0.0452 c 0.28488,0.40294 0.581686,0.82279 0.889017,1.25732 0.318417,0.42622 0.665104,0.85382 1.013175,1.30083 0.714979,0.87765 1.500076,1.78163 2.366367,2.66511 0.857981,0.89179 1.796606,1.76307 2.784007,2.60886 0.488017,0.43038 1.012342,0.82251 1.522527,1.23903 0.523492,0.3974 1.056403,0.78814 1.59292,1.17307 1.087715,0.74686 2.194277,1.47153 3.324671,2.11059 1.120976,0.65817 2.263288,1.2321 3.376219,1.77167 1.122641,0.51711 2.217285,1.00124 3.278394,1.40058 1.056961,0.41182 2.079829,0.73632 3.01873,1.05586 3.042288,1.03506 5.009878,3.49537 6.003374,5.0653 0.364693,0.57613 1.204386,0.56976 1.574625,-0.003 1.040055,-1.60872 3.086625,-4.14136 6.101748,-5.06225 0.948603,-0.2896 1.962052,-0.64405 3.019005,-1.05586 1.061117,-0.39933 2.155761,-0.88346 3.278119,-1.40058 1.113215,-0.53957 2.255251,-1.11349 3.376502,-1.77166 1.130387,-0.63906 2.236673,-1.36374 3.324671,-2.1106 0.536517,-0.38492 1.069153,-0.77566 1.592637,-1.17307 0.510468,-0.41652 1.034793,-0.80865 1.522535,-1.23902 0.987392,-0.84579 1.926018,-1.71707 2.784272,-2.60886 0.866574,-0.88348 1.650839,-1.78746 2.365825,-2.66512 0.349178,-0.447 0.695583,-0.87461 1.014272,-1.30083 0.307623,-0.43453 0.604146,-0.85438 0.889586,-1.25732 0,0 0.06372,-0.0906 0.180131,-0.26077 l 0.04429,-0.0654 c 0.185676,-0.27961 0.482199,-0.7316 0.84246,-1.33297 0.133022,-0.20756 0.260497,-0.41041 0.365807,-0.61383 0.07207,-0.13163 0.144104,-0.25606 0.213388,-0.3805 l 0.01942,-0.0324 c 0.296523,-0.5246 0.565325,-0.98851 0.764866,-1.39921 0.50714,-1.0262 0.79534,-1.6126 0.79534,-1.6126 l -0.0221,-0.0111 c 0.99488,-2.16768 1.97036,-4.80093 2.51076,-7.63259" />
    <rect
       style="opacity:1;fill:url(#linearGradient969);fill-opacity:1;fill-rule:nonzero;stroke:#2d2d2d;stroke-width:0.42333335;stroke-linecap:round;stroke-linejoin:round;stroke-miterlimit:4;stroke-dasharray:none;stroke-dashoffset:65;stroke-opacity:1"
       id="rect961"
       width="108.37"
       height="15.272221"
       x="13.548326"
       y="267.50159"
       rx="2.9289374"
       ry="2.9289374" />
    <rect
       style="opacity:1;fill:#bbdefb;fill-opacity:1;fill-rule:nonzero;stroke:#2d2d2d;stroke-width:0.42333332;stroke-linecap:round;stroke-linejoin:round;stroke-miterlimit:4;stroke-dasharray:none;stroke-dashoffset:65;stroke-opacity:1"
       id="rect869"
       width="17.573513"
       height="17.573513"
       x="20.661417"
       y="257.04114"
       ry="2.9289322"
       rx="2.9289322" />
    <rect
       rx="2.9289322"
       ry="2.9289322"
       y="257.04114"
       x="46.184853"
       height="17.573513"
       width="17.573513"
       id="rect875"
       style="opacity:1;fill:#bbdefb;fill-opacity:1;fill-rule:nonzero;stroke:#2d2d2d;stroke-width:0.42333332;stroke-linecap:round;stroke-linejoin:round;stroke-miterlimit:4;stroke-dasharray:none;stroke-dashoffset:65;stroke-opacity:1" />
    <rect
       style="opacity:1;fill:#bbdefb;fill-opacity:1;fill-rule:nonzero;stroke:#2d2d2d;stroke-width:0.42333332;stroke-linecap:round;stroke-linejoin:round;stroke-miterlimit:4;stroke-dasharray:none;stroke-dashoffset:65;stroke-opacity:1"
       id="rect877"
       width="17.573513"
       height="17.573513"
       x="71.70829"
       y="257.04114"
       ry="2.9289322"
       rx="2.9289322" />
    <rect
       rx="2.9289322"
       ry="2.9289322"
       y="257.04114"
       x="97.231728"
       height="17.573513"
       width="17.573513"
       id="rect879"
       style="opacity:1;fill:#bbdefb;fill-opacity:1;fill-rule:nonzero;stroke:#2d2d2d;stroke-width:0.42333332;stroke-linecap:round;stroke-linejoin:round;stroke-miterlimit:4;stroke-dasharray:none;stroke-dashoffset:65;stroke-opacity:1" />
  </g>
</svg>
