<?xml version="1.0" encoding="UTF-8" standalone="no"?>
<!-- Created with Inkscape (http://www.inkscape.org/) -->

<svg
   xmlns:dc="http://purl.org/dc/elements/1.1/"
   xmlns:cc="http://creativecommons.org/ns#"
   xmlns:rdf="http://www.w3.org/1999/02/22-rdf-syntax-ns#"
   xmlns:svg="http://www.w3.org/2000/svg"
   xmlns="http://www.w3.org/2000/svg"
   xmlns:xlink="http://www.w3.org/1999/xlink"
   xmlns:sodipodi="http://sodipodi.sourceforge.net/DTD/sodipodi-0.dtd"
   xmlns:inkscape="http://www.inkscape.org/namespaces/inkscape"
   width="512"
   height="512"
   viewBox="0 0 135.46666 135.46667"
   version="1.1"
   id="svg8"
   inkscape:version="0.92.2 5c3e80d, 2017-08-06"
   sodipodi:docname="xfce4-panel-raspberry.svg"
   inkscape:export-filename="/home/giagio/Icons/xfce4-terminal-root.png"
   inkscape:export-xdpi="96"
   inkscape:export-ydpi="96">
  <defs
     id="defs2">
    <filter
       inkscape:collect="always"
       style="color-interpolation-filters:sRGB"
       id="filter836"
       x="-0.036000001"
       width="1.072"
       y="-0.035999999"
       height="1.072">
      <feGaussianBlur
         inkscape:collect="always"
         stdDeviation="1.7636011"
         id="feGaussianBlur838" />
    </filter>
  </defs>
  <sodipodi:namedview
     id="base"
     pagecolor="#ffffff"
     bordercolor="#666666"
     borderopacity="1.0"
     inkscape:pageopacity="0.0"
     inkscape:pageshadow="2"
     inkscape:zoom="0.8938053"
     inkscape:cx="256"
     inkscape:cy="256"
     inkscape:document-units="px"
     inkscape:current-layer="layer1"
     showgrid="false"
     units="px"
     inkscape:window-width="1366"
     inkscape:window-height="717"
     inkscape:window-x="0"
     inkscape:window-y="27"
     inkscape:window-maximized="1"
     showguides="false"
     inkscape:guide-bbox="true">
    <sodipodi:guide
       position="0,7.9375002"
       orientation="0,1"
       id="guide7121"
       inkscape:label=""
       inkscape:color="rgb(0,0,255)"
       inkscape:locked="false" />
    <sodipodi:guide
       position="0,127.52917"
       orientation="0,1"
       id="guide7123"
       inkscape:label=""
       inkscape:color="rgb(0,0,255)"
       inkscape:locked="false" />
    <sodipodi:guide
       position="7.9374996,0"
       orientation="1,0"
       id="guide7125"
       inkscape:label=""
       inkscape:color="rgb(0,0,255)"
       inkscape:locked="false" />
    <sodipodi:guide
       position="127.52916,0"
       orientation="1,0"
       id="guide7127"
       inkscape:label=""
       inkscape:color="rgb(0,0,255)"
       inkscape:locked="false" />
  </sodipodi:namedview>
  <metadata
     id="metadata5">
    <rdf:RDF>
      <cc:Work
         rdf:about="">
        <dc:format>image/svg+xml</dc:format>
        <dc:type
           rdf:resource="http://purl.org/dc/dcmitype/StillImage" />
        <dc:title />
      </cc:Work>
    </rdf:RDF>
  </metadata>
  <g
     inkscape:label="Layer 1"
     inkscape:groupmode="layer"
     id="layer1"
     transform="translate(0,-161.53332)">
    <rect
       rx="3.7351274"
       ry="3.7351274"
       y="170.47995"
       x="8.9466257"
       height="117.57341"
       width="117.5734"
       id="rect822"
       style="fill:#141414;fill-opacity:1;stroke:#141414;stroke-width:2.01826715;stroke-miterlimit:4;stroke-dasharray:none;stroke-opacity:1;filter:url(#filter836)" />
    <rect
       style="fill:#f0f0f0;fill-opacity:1;stroke:#373737;stroke-width:2.01826715;stroke-miterlimit:4;stroke-dasharray:none;stroke-opacity:1"
       id="rect10"
       width="117.5734"
       height="117.57341"
       x="8.9466257"
       y="170.47995"
       ry="3.7351274"
       rx="3.7351274" />
    <g
       id="g4131"
       transform="translate(1.4442264,155.22753)"
       style="opacity:0.41800005;fill:#000000;fill-opacity:1;stroke:#000000;stroke-opacity:1" />
    <image
       y="178.1467"
       x="21.828064"
       id="image7180"
       xlink:href="data:image/png;base64,iVBORw0KGgoAAAANSUhEUgAAAbYAAAIBCAYAAAAlLpogAADcR0lEQVR42ux9B7gkVdH2zTnnnHPY ezfnnHPOyy6byQhIFlCCggQlIygCAqICAkvOimBETOuSo/r5/YbPnL5Pz1915vTlbO/p7tPdp2d6 Zs59nnp2Ye/M9MxU13vqrbeqUlL0T9z9pIb8R39D2he1L+of/aN/4iJI6MCj/VD7of7RP/pHBw0d cLQPah/UP/pHB48o/6QJTAcb7YPa/7QP6h8dREIREMJkOtAkPohpH9T+p390IAkkaKSHzEIVdLTv aR+MlQ/qKKl/kjmYxDpoZFhYLIOODjbRA7JYAle0fU/WB7Xv6R8NZIqCiMrAYLZMRSb7ekEEnKQJ NjECsXTtg9H1Px1l9U88BhNVQSToQBGUqQo4SRFoogxk6doHwwd2Ogrrn3gCMj/Bw81NnCVh2T7M 6bn9BpzQAF0c+2HYfTBI/0soH9RAp3/iMYh4CR6qA0WQ5jXoeAk0cQdyUfBD7YOx98E0DXL6J57B THUQ8RI4ciwsNyCzej0vAUdlkAk0wITED70eqLQPRscH0zXI6Z+wg5kKIFMVQLwEi7yAzEvwURFo VABd1IJLjP1QFsiSyQdzAgC79LD7of7RYKYiiMgCmd/gYb7R82NsbgKP20CjIsDE24SLoPxQ+6Ba H8yMp8OW/tFgpvo07CWAyAaNAoEVBmzm15MNOF4DjVOQ8RNcwgxofsHMrw/68cNo+6BfP/Trg25Z BQ1y+kcpmMXqNOwHxNwEjKIomWzgcQo0foKMH5ALSxbn52Dl1g9lD1NO4BUWHyxyAX5+wC5uWQWN GskHaNE6DbsNIHbBw+4GLzZZSUBmfh03Accu0NgFmWiDXNiyM1lfdOOHdoepAo9+GDYfLPJw6AoK 6GLKKmgU0WCmOoDkSgQQmcAhGzBKBVamwMzPKRN4ZAKNlyBjFWD8Bpagszg32ZlfX1RxmLLzQzc+ GIT/lboAPz9+6BfoNMjpHyWAlhal03COxGnYawCxCx4ywaLcwio8mOh5ZAKQG8CTCTKqQM4PVZmm wBf9+KMTzejGD1X4YKlLH1Tlf7HyQRk/zEmNE+pco018AlqQYOYHyGQDiFXgkAkUlRZW5cHMzyET hNwEG6cgIwty0Q4qbk2WLfDrjyJflPVDN4coGbAKwv+c/NAO/Ox80IsfxoJVSNcAl/iAFg1qxw7M 8gMMIHaBwylQVFtYjQczP4dMEJIFPK9ApxrkVDSCqxYlqQAzL34oC2CVHvxQhf85+aEd8In8UOWB Kz+eqXONRrEHNS/ZWZBg5iaAuAExq8DhFChqBVbnw8zP5RSEZIKNbJApVgByQdU//E7Ed+uTfsCs 2MIXnfxQlQ+q9D9VPujHD518MQiQCzyL06iUuIDmBGYFAQYQ2eBhFyzqTdagyMzPaxeAZIKNLNDJ gJwVXekUUGQBLiNV7e4xWZ+0ys7s/NHpUOXWD+PVB2tdAJ5bP5Q5cBV4BDkNcEkMamGjdtwGkEqL ACIKHlZBQ3TjN3LWFJDxr2EXfJwAr9rhRG0OMHYgF80sTia4ZPgAM7/ZmZ0vevFDEYDFow/W2Ry6 ZNgFLweuWFLnGtxCDmoyWZpbQFMNZqUuA0i1RQBxCh52AaOZWYuktdqYzOON17MKOqJgYxdkZDI6 UWAplgQ5FQDnZuGlzHg1t4BmB2bFNmDmlJE5+WGDpB+68UG//sf7oKwf1kv6YbXLA5cXf3QDcl4B znf2plFLPai5FYWopHa8gplsADGfgq1ATCZoYCBoA+tkf4qs3cLGwFezBex0sE+AXcz+xP/eAv8+ lv2e1fNaBSNRsDEHGnOQsQM6NyBnRVW6pSllQc7tvrJshT5Z7CIzkwEysx82Svoh7wciPxkGf9os 8LMzwLZxfmZn5ufs5P6/FSBa+WGDgx/WOgCdbDbnNpPzC3CB0JMavYIBtVgAmhcwq7QJICIgcwIx UeAwbuoe+FjXsgDxZbAnwJ4BewjsFhYw1sPvTWABAK3LMPi3eWDXgP0M7O9gRGB/Z/+Oz7cZX5M9 T4fArIKPCPCcgowI6KwCi1uq0ivAuRmK62cyjYxPymZndr5oB2ROfmh1aDL7BPrZRrCbwH4K9jcL P/sH2M/BrgdbyPspZ+Ph39YxYLwZ7EHm7+j394B9CmwD/F6fzeHLjx/WSjILTpmcqkOXCoDT4BYy ULOie2QATUTtqAoeTgHECsicggcfOCbDR3oV2BsWQcJsvwd7Gew2sOPBlrO//1Xy8bwdArsCrmEO WDczI/BgQJkC/74IbAn8fSbYIAd6VmBnPlE3BgByxRJikzyXIOe01TnbJZjJ+qQqMLPyw2YbPxwA mwHf72L8nvH7BusVgNAs+PfLwA568DE8TN0JtgLsGLBbwX4A9jvJx7+FBza4hmkSBy87sHNz4FJ5 6LLzSVmAc0NPanCLAqi5qaWJTsduAa1QcfBwE0CsgMx88h3JtuDjPA/s1x6CBW//6/PxaH9ip+T1 YCeCPcCAFv//v9hrIHD+CuwFBEMWCM2BxgrovICcV4CTOTHLgFy2SzBTRTeafbLahy8e4Yfwvc1n IPUC+z7/wr5f/J7/CPYmy54+whgEBKU/KPAxv376G7ALTYDbKWAc2m0yO1lfVH3oKvQIcG6yN8/U pAa16ICaVZZmFUBk6UZZQFMJZGPZiRiDyQKWGU3F7IdRjCRk9h+XJ/EnWD2FDzRugM4O5JwCildK SGb7gJvt0U4CJRmf9OKPUkBmHKZYPewRG/pQZP8OoY8+Du9nNruP5jBGAe+tGWDjXPih20OXH4Ar sgE4O+FT1LI3DWxqqUcvWZqX07AbasfTSZhZL3xMOxk1+COw/2YAYGQ9/2Sn4v8JYcDwY8+y+l8P R2eOApuEVCsD+A4bkBMFFZVZXIFLkJPdIp2vmG6U9UezL45mn/NERhd3crXX1WBPJpi//YHdR//k sk28z/4f2I/BvgS2G95/v8cDl6w/2vmkV4BTnb1pYIshqDllaXkSWVqxi+zMjtqxAjPhSZjdON3w EZ3FCuYkSQ2Dy+1g14J9B+w9Vg/8IwP4nzOK83QWgM2BxRxU+FNzkDSl1bZmkeW7mFLjFdDs/NH4 rMbB53gq2P3sc/01C/a/Z5/7d8GuY/WsfySxT74K9jEGcN0umAUrkBNR57JZXLEEuOV5zN40uAUM bCpATTZLcwtoTqdhM5hZZWXGzdHNlIxIhbyUxMHDi2EAvo3RR+0WQcUuoIhOzG4pIZnFqbLrYNxS 4HZ0o1V21sqERl8A+632IVf2PRSvMGFMj4lZ6HIBcg0KDl3FPrK3QMFNg5ozsLkBNbe1NFnKUaZW 0SiRmeENMMw4/bkoX2bCiTlM5fUbHTh8CQI+Jggq5izOihZyC3B2ICdanCq7mFNGcWtXPxMdsA7z R/iczmSZr/Yb74epE9g9jCrQxfD3+WDTGZXbY8rmRP7YbMMqiHxSti7spfbmFtx01hZAtuYW1Jyy NJkamt1p2Co7G4C3uwbsHKYGex7sdY7q+Svj8tH+rIOFMnuY68/rkMji6n1QQm72d7lZTeSFAq+3 yc7auIb7r2sfUWZ/ZvfvP9j9/Ad2f6MK+BtgdzG1MtaMhxz8sUmSVbADODfZmxdw01mbD2CLFqjx gcTqROz2NNwOb3EX2H1gv9A3fswMDxCrLE7NbgDOTR1OZju4zI49rxS4HaChNH+Jx94xbWrsV6z1 YS9HWXplFXh/tBKYxBzcNKhFD9SsammygGYZPBigvaxv4FCp3fZxtBBf/5ABuDoL5ZrsTEAZk5kh KisIEQIaUzPu0LW0UBmqnPf7OHRVW1DmpS6pSQ1uUQY2laBmRT2aT8ZmikdEOYqCRz+8tTv0zRpK Qwn3GVyhv9uUxTmdmN30HzltBpfdNO3Uf2YlCDHeCy9MQoXtySnWY9G0xda+zChKJ4Az+6OZMrfK 3szUZBDgpoHNZ7bmFtRkqEeZLI2nHM2n4TFs6oK+ScNr2Cj+CTbWq88C4NpdUkJOQ5h5sBNZhc1A bKvpILaCEHPLCFPZYn33/7QPhNq+w1pW7Ghz3h9lszcnatItuHnK2nS25g7UsjyCmhX1yGdpZorn sBoaF0B6kw3UMnPSSHZBerxe/w8YVfxt1gN3JdhWrgnZDuDsaEq7nV2VqeJt006rYWT6zwx/7EuJ DBP+NBOGvMTe5/dTwjntw9ay89NJFvhZsrUQsMzNTJuLAM7si3z25kRNBgVuyZu1KaIgVYIaTz3W Ck7FQ3DZ21kA/BrYU2BPs+BxC/vvuLl5CsoySNP4QlLelkvS0lI9PUdWbhoZt62GTD+pgVS05SRK UMHBuJ9hk01kax5WDbZ2m5idtk7XuqyfjYXrvpwJZeL+eyhrySFTj28gE46uJdl53oAtNS3yPM3g 54XlmfH2GTzH4srXWZxBuxfss1i/ZxN3rOjJWgE16RfczH1unilJDWzuKEi/oFYtALVGuNQFrGb2 60Q6FaZnpJLWycVk7Y3dZNPtfWTWaU2kd1E5KW3McZ21Lbusnex7epjMP6+F1I0qcBd8UkOtWjtT Uklp1WBrtQ1ctPncbmFnk4PC8RSwD8L4Obr9fmv788m8c1vI3qeGyYqrOklWnjtGoKQhm/QsKCMz T20kG2/rI+s/10Pap5eQ9MzURMvqcMQXrqBaKsjeeBahWjG4OdXbkhfYogRq+Q6gViEANT6gILX4 uUQvtOeVZpLll3eQ414aS/Y+PZrs+PogDSijN1WT8hY5kMstzqDgeMw3xpDdjw6ReR9rkX5sWWM2 6ZhREmaAu4fRkyIlpVWDrd2CVJHZLY61a/BHH709rL6FgFLeLOcHpeAHc85uJrseGSL7nx9Dttzd T/LLM+R8qCmHDG+oIsuv6KD+u/ep0dSfV36mkxRUZCY6bYnj5m5j81ObBbU3M7hVBABuOmvzCGwi CpLnf5WCGlzirJTIwNPQO3ZGVirJKUz3BQyZ2WlkyafayR4ICDsPjCJ7nhgm+54ZTY5+cBRZfEkb 6ZxdSn/H7jn6lpbTUzY+ngLkA6PIuKNqHB8H3zSZdWoTWXVNF6nsyAvr5/w8a/K2E5rYDb017+tq EICY01DsdpMgZHRY6e+K1lx6OJp7VjNJS7fPlDIgkxqzuZpsvw8A6ZnRzH+GyajVlY5+3z6zhCy6 qI36Gvor+u3Oh8F/nxymIIdUuedMEwzvKyf/DZFhT+JCU/bmFdzyXYCbztokgM1PtmbVpyYLagb1 OJ/RUPFRKyvNIJN21pI113aSxZ9sJzNObiT9KypI4+hCklcmf1rNhxrElrv6yS7IuI5+aBQ1I0gg YK2/pYcMraskOUViaqiwOpNsv38QHhN5/E44ee97djRZfW0Xqe6xB6yK9lwamHbC40atqQzrZ/1D tpDSSUlptcLEvIVZdvN0u0DhODElMgw6dJ/TwPIKcjQADWZd1b3233tlZy7Nquh3/8jQiM/hgQop RaGYBMRKgwB664BiRL/c81QEzAyfxYxv6z0DpKgqyxVrUT9cQO+bGSc1kkVwmFtzXReZsrsu3mpz OBZtmQU1KVJMWoGbqM9Nadamgc0+W7Orq7kGNSbXfzfe6AjM1rrnl1FgQDoQA8Xux4bItq/0k2VA M2IBvmFMIVWY2T3P2K3VUCsbPRIkeNv9+BB93k2391LwyTCdZPMAYI+690NgMwyBEf+0O4HnQfDA x+5+LJIpzjmjmdbubN83vOc2qBHmlWRE87P+KRuu3M8BXI/kZPdWAeC1cP/fbsNDF/daU+E6XonW e84pyiBtU4sdGQHMvGZC5o3ZFvrejq+PIoU12Za/308BcJACE+8vCFJIJxaYgAmff2BlBdn4xd6I fz8+JPTTfc8Mkwlw0LNVWkLdrn64kIzfUUOWQn14GwAhXjM+L94/u+AaeheXeRZVxdh+mRrZVm4c qBpNohLZzI0HN+VZmwY2axWkE6gVSQhFeFBrhkt7PJ759ho4IWNQoOByIJI1IbBEAsEw2XRbL5l9 ehOtfWBdzPz4xnFFZO8Tw8KAMQJwLACsAdFJ88SikcdinQypIHxd82PwFI2PwdcWgSvWSGhQw8eC 7YdMb+ml7XCN9kA8tK6K1vZKm7Kj+Tn/jA23HeAArtcB5Aygs7IOCzDrZs/Zy14HJ/D/MFrvtaQ+ i2y4tZceeGzBDyg7pATxe6N+dwC/81GkoiNXqKSdcUoj9YddjwjA6UDkMNQ9r2zkMU1jC8lqyKCM A5udf+6Fx7ZOKTmyDswAGkVSG+E9GX6Mr0WzRbxueigbJPUuBVAhpc7bLcDNSVAimlAiS0kmL7AF kK1Z1dX45msZUDs21lkXypOp+Xie8ZCd7RVlXRhsgGbEf8ObH2lHvMmbJxSN1BEQ8PY+Odo2cIxk YgBiaNNPbKDPgSfpXQ5BB6lJrKUVVh9+Gh+Ek7g5U8Sgs+qaTlsBAQag/c+NpplpI2SkUfy+Xman 4kFm/RYgx68v4QGv0wRgZiDjwcx47gkpkV1oUXmPdYMFVMCBGQwCi6VwCDLmFVd1RGqy/PcH3+fw +qrDaXPIzLH2to8BoJWfoJ9uuqOP+tXU4+rJHvCrPQ4HrhFggzpx19yykTpcI1w7AunmO/uo36P/ Uz8VvD7+2+R9db7qcpF7ODUMYqhTOXGTLLjxE0qs6m06awsgWxNRkHZ1NSlQY5Lpg9EEsQbg9Mfv qKU9YEsubqMBf80N3dRWXd1F/9/MUxrIxD11lGasGSiQot2qoG6x68BQJPt5yD544I2MAQMl/wtA qo/gZKYSbY2drvE5hKdvUeABqgpfB+srRtsBvr6IWsJguRpqh3kWmVtZUxYIBwYjp+6HhoQn9QDt G6yXaIgp0ga5LK6fm2zCA52d9XKPMZ5jgD3vcEoUN1U3jS8iR3898t2iH1W0ZltmaiJQMzJ7rMsa lDX2OeJ/731a7uCE/kQPT+waZH0Ssy/M4tGf11zfTfY8HvFzvnYsfBy8Bip6a/vynWtycB/WQFtC 97xSMgHqcDNOYffw1eweBn9edU03WQK1uuknN9DDJgIsgl4U/fNN5kNewM0PJamBzQHY3GRrTnU1 fqKIoX4cmSQCl3VUtLOz1inFZAcowY57cSy9gTGwf2iRGxpvSAwaWCTHQLH1y/1kxZUdcKqsJy2T i0i+QBxSWJkBCrMBVwCFz421DqebX5Xhe8P30j6zlIK7UYcT10xGQztCu1DhVgOiFKyH7GTZ6C54 z61Towpu92Fdlu3cGjaBnBnoeLDrE4AYD2SD7HmGGKjdHTVQgywJxRu7WVaDwb5uMF+gSkQlbVsk +7KhBSfBwawNmIAtd/XZfs8qjYLiU5F76mhJUMT7BQ9JxbWZAnFJBqXdJ0E2h2rLrZDJ4ueC9yW9 P5+OUJp43/L3Md7Xx35rLK0ltsempWU/15rCg5tZLSkrJuEpSZmsLemBzW+2ZqYgpUGNLVq8OxZ0 QUldduQUiwX0B52zI7xhdzMpPgaNrff0k4WfaCV9S8pJIRTbsX6FzalOdYgw2C5W/5O5VgyeC85v Jekm6TgKEHgKEymmnZCttkyOKrhdzTK3sQzgeJAzA52djeIeM2w8V0pkNFZU3kvj2Aio8ZQySvBH ras6okVj7tktkZqazKHpyegdmvwYAlP/snJ6H2H/Gw4sWHBBKz2EGbXqEXZCAjARXDd+sY/WkGNE R95vWolj1QpgpZTk621uKEmprE0D2+HAJqOCNFOQxnQHfpCx0fCKE89fjRUXjvWmdTczcHN5I+5k J1MM7qjs2nRb34cijIcSyzCITtxde1gfE6UwHxs+IpBicK4fipoA4N+snjGemQFyY0xAx4PdkAnE hrnfHWM8Bzzv8SlRGlpcAxTcjvtHHXHQ2PVYpNWDz5ixP1EG1OLO2H2DVCaCGa1HPyVPsx8Barf2 keL67FjW2d7mhguYwc1o4ubHb8lQkjJZmwY2GxqS75PwSkGK6mo8qOGXPQUu60+xLPQWgSwa1Wey BXIrkMNTcSKCGrWHmTAA6hoFlZn0JL3H4jCANBAKSsqaoxZUfg9+tJZNZZ/Igdw4DugMsDMb/+/j uMeugOf9TbTUj1vu7gM2YMiSOkbVY2FVJumYWTLSCJ2IfmbQ2jsf8Z5hIquC4FjckB1rAcnfwI/m cmpdEbiJ2gBkwU0ma0t6YPObrTlRkLxYpJXJYTvhkpanhGCVR0ldFtn8pb64oGxiFnQg2Gy/d4AG Yad6Df77hi/0AKWUZTNXMIf2Ryn6Dn8M/jQTJfnMJnFAN4EDLJFN4H53EutV+76K68LJH6U2VBg2 JxvNzjJ10aO+NuAr6Ce6YXaHatIoHqqcVjRtYMKkbqbEbWfxr9kEbk6UJK+S9JK1JS6w+aQhc3xS kI2CbA23Ca/3KgBpn1ZKeheWkdqBPFLZnUcn5ZfW55AioBdR2owT9NEKga8vqc0GZ88lFZ15dBJH 07gCqI1VkDFba8jk/bWg4moFSXK/O1ViMoIbfD5S1NCDkfrQiis7QZknBq+xQKkturBV5YDcO9h0 kqnMpnBAZ4Cd2fh/n8JA7WY1oJYCtckWqqy1aqrGfkGRqtEqaGv/dPLPURTYsCY85Zg6en/3L62g 9zve93j/YxzA+jrGBSNGFEBbC8aNEogfGEcwntT259GaeefMMlrX9OgH25kwqdeh3uaVksxJejrS Aw0pq4T0QkF2seWLq7xmbDV9eVSJZ8iJUXKOSsejvjpAT7eonkLbBn/ffu8gHTWEv08L6o9/qKoa aRTVQUO5ofAEG8NFijScAH/Cd8YBrdkCvXypquptJ7PMbQZr5J5uAjuRTWM2HR5/TEpksK2/7Q0A WvPOaSInfHssmXNWk/B3cPzavkSslYUA3AyxiaFqxvsd73t6KIM4gPFg2z0fxgg0jBsYP3Ya7Tj4 OHiMj4ZxzNi2sDpbnwdKUiZr03SkD2AzKyHtsjUpCpJ9yfhlz4ZL+7PXANIxq5QqFBGUdh6IODVS NbTmxWwnO+nSusSBUdISZG1qBAEodBi7peqItT1rb+qmSrj9VHXZrCpzex98CleJzAabxUBuJgd2 ZuP/fWFKZB+c70xt7tlNFLRQ4bjh8z1Uns//DjZP00xN+2J0xSlGjHhYECMeicQIGkcORIANe1h9 +MLfwaeWMMXtgAncZChJp6wtVzJrS1pg80NDWmVrVirIDsY397IUHReI+lrOiNM3ZOkcbbGhL1FQ 0jbtwzYAHHq7h+tzQhCY9dFGVb1G94JfzWOFe7Q5DOisDP99LjzuThUU5AxoCh7JxNi2BpziYfx7 y8TiCMOgGYLwMg3PoD82+fWF91jddpibkGPU2+xUkk5Zm1c6UgObhWiE71uTzdaEFCQ7vQwyYLvP 16DYwnQ6TSMe+seStqgP3w0KH0oaI0X9RRe2HSGY2P/sGKh31qsAtv8FOwl8awHYfM7mCcz4t2NV UJATdtYdMbIKaTGspVEFbm0WpcDMbRLaQtRPB76KQjJsDPfpD48wpe1o1loiS0nKZG3maSRmOlID W5SyNYOC7OYmPoxiTbDH+w0oHbNKPPWiaYueYXsATo7A2ZTCQ8iByIxDbNJVAG4/Z5TkImYLbWwx /P6P/L5mz4JS2hIhavlAynVoTSXdu4e/o/0hxNka+GD3gjIVPngGU9wawwNGcRNwRCrJxgCztqQC tjQPwGaeMiJSQjpla/1GtsZ6iSbB5f3U75isZZ9uj9rYIG0eM7dHh2xHLRk1D6QqFU0lWcYAbomV we9d7ve1avvzR0QHVvUdfN+6nSTkhy+IH7ijLs3/XMnXWd3W6Kscw2Vt/S6yNrNC0jyNJM9PnS0Z gc2shrSjIY2+NSNbq3PI1gaMbI2dZnBy+kt+g0vDcCHUbYZ1QT5OJkzYjVbCBtt8/0smfwu+haq0 FcyWC2wD/N5/+XkdnLCPPXuODf7aL8MPbKZ6qA97mSltJwuytgGLrE2kkOT72uzoSF4dqYHNAtis 6mtONKSXbG08XNq5qpoil17aobO2BCne43QTBWKSr4KPrWa2ymwqBCNzz27Wsv0EATXsu1Q4LPkS 1k4ySUHWZkdHeq6zJTKw2QlHnOprsqIRYW2NnWKwIfZNVcDWNq2Yyv/1jZoY4DawvMKvT/wFfAyn rK/jbC37czf8+x991dUWlWtFboIY1j4755SqnDzyPhMoTZaotbkRkbipsyU9sMnW10Q0pFk0wvet CZWQXLb2EZVjbHA4Lw6NtVpdry2+xiNtv3+QlPqf+YfqtI3MNhiG09f9PG9xTRZt6tV1s8RQ7aKy OlOwnsmnncuyNlGtzayQlBGRiOhIzwKSZAc2c33NCw3ZK8jWsLb2kOoZbeO21ehTdKKcokGhtvii Nr9LInEY7Yms3mbYcX4GA+C25vnntUgv7tQWfnZg4q7aIOZFPmlTa7MbteWFjtTA5gBssvU1JzWk ecrIADutjGb9HZPhst5R7Uy4f2nng5GJ9EEKIHZqMUDU5Nddc31TRA+Dvx3FbBv899f9PF/79BIt 24/ixP9AhTe4UQBiRWV7bhDA9gs2AGAKy9r4vjZ+GokhIvFKR5rrbBrYHIDNrr5mVkPa0ZC8aGQs txrkL6qdCU/Tyz4doIgEboQdQJFt+8rAyMJOPXE9QJoIaOVNt/eSnKJ0P37xZ5a1Hc2ytf/x+lxZ eelkw+d7qXpTfz/BTasxFqTifYaUdFDghmtuUOLvY9Cxnf0D/G2zSUQy1jSNRIaOFKkjRXU2DWwO ikg39TV+ir8bGnI7GxSq3KFGra4Mjo7EG+yBUWTtdd1k9qlNlJLaclf/yIp6PSopmGHK44/2TRV9 hQlGfCkhx2yp1irIAMEMM/TIhP4WMuvURrLm2i6y44HgsjaME6M3VgW5vuYYNox7Msva/NKRbups id2k7UHqbwdssvU1c+8aT0NOhMva42nILJysGqCBtwREBThMF55LuF9tx9cHgwMZthBx6z0DZPZH m0gHqDG755VRifr2+wZH1tgn6kLImOyCg8+1qCbLT4D5FWZtOMPP63MUVGRGBCM6Q1dGM+J9gvcL siALP9FKehaWkfapxWTmKY10SwcV5xwICkxH0cb6csHOPIwrGF+K67JpvMHdeh795mQGbLyIxExH yqgj+TqbV2BL08AmBjY39TVLNSSbNnK014xt0p46OkR3/ed7yOpru8nST7bTE978jzVTW/jxFhoI g66D4Y2x9+lhCqLTT2okFa25pLAyi/QtKad06E52IrSbtqFNPmubdkKD38WPL7L1Np6eY/K+Oi1M UnAoxJFq+Dni/bkcesf6oa2jqCqLlDfnkKnHN9B7F++roA+G+PpIcy4CQDViB8YRjCerr+mm8QVX 10w7DvzOe3/b8WwKiZmOFKkjRc3a5ikkZgGJBjYPwGYnHDH3rznV14YNGpKl5Wvg0v7qdfAxTqcw QAMpDGpPMXsyuhNIIgA3mi7YxD1bhVWRzKIMbtTxO2rJ2hu76c1Md8fp077HrC1S28QlkQHSRpaG 3+lR9w7qeqqPrJvS9VCbXPe5bjJhZy0pb41kSrgYeNoJjZTix9+JNtNhjh1oGFf2Mlo0ryTTT43t KAZsZnWkTJ3NALZqSQGJBjYTsGW6ADa+MVskHLGrr41j6TiqhGbBpb3rNdDg6JsI3TcUojoBA7gH BunJM788Y0TQgnQGLtdEemWfUY/TWZzregg9PccA2Cbv1dmaZ6oR/H0b0Pa4CqZxbOHILMa8kgwy +Zh6ynjQDO7hcF07Dlbn1y15pL8Xsd2A0wXqSLs6m5OARFbyr4HNBbCJGrNFe9fM9bXx7IvFtHwG XNqjfoINZkNhLOQj2OKNiqtaxu+oIblFH67AyC/LJH1LKyJU5cORYK2bfOVP/fiZFlRmRhXU8koz aWDW35P8sGsEM9xYjxsd+ldU0PrkCONSkE77Tbd9pT8CaCHMgjGuYMnDp+88y9YizWaLbZ3qbCIB Sa2FgEQDmwdgE/WwWSkirYQjlvU19gXPhEs722/QmXNmU2hVakg74rXhfqdBUGriZBT+2qu688iU Y+vpv+97elhncZJZ27ijaqIKbMMbq3S2JlE7M7IzVAkjY1Hdm3fE5nQEOVpGeDa8Bzq8Nqy3KZgb eTEDtjmCOptoCkmnS2WkVS9bcjRpe5g6Yga2IhfA1i4AtmGuf20y45vxi16EM9X8OE9mThpZckl7 qCXYu1ixfM313UJqIwcyOlSD4el296MRbl/XcuzHH2WpH38kHtOWnabHtEnUzrCGvOIzHVQ4hRsP zJ9jy6RiEHp1RTK5EC8Fxjiy7LIOkp2X7td3fs2GbS9gm9zt6mxmAYkfyX/y9LL5bM52I/VvNSki rYQj0xnvPBcu7zq/wQedMOzgZjSD4pDmxZe0kZq+fGFzee1APq3FIeVGxTF6M7hw1Fbn7JKoAFsr SM/1Elvxpmn0z+33Rmpn9aMKhBlONbASCy9spdmc42qfkIBaTmGGCt/5Itv5ZwDbLK6fzU5A4qSM dJL8a2BTDGxWiki+MdsQjhjANo+tD/mlX0fCzG1khciBcFM2GCix/jD95AZoDxDXi4qqs8jozdU0 W9gbA6VnuCexRw4H0QA27E3UwHY43YgHiw1f6CVjt9aQ4lqxShVrydieYYgwwn5PUvoRpP5Z/jM1 tN+wiSNL2Jb2eazOJisgMZSRGtiiCGyiHja3isjp7Iuex+jIy1RMIUG11SRUr8UBlWcIR1AlOWrt kfW3EcAGKgxnJS67vCPSMvCUbvym7x9aK0obg5X+F9dm0RaDZJ8mQ9W+eLh6DHeWdZDu+WWWVHB6 ZioZWFlB62xhUzpaUal4nVOPq4cmbCV+g3HsWohrK9n29kWcgIRv1HZSRpol/7K9bBrYXAKbVXO2 k9RfqIhkX/R89sUvg8t8W1VAGoQbC0+K8TDPjyrIsP52XRetQ9i9r/qhAjLvYy00qIdVTRZNEcno TdWBAtuoNZVJLRqh9TP0M/g7ZjONYwopXW71eTWNLySrru6KG6UvxgcUeA2tq1Q9+HgdA7ZlJmBz o4y0mhmpgS1AYBP1sMlI/SdZANsmuMzfqwxKDaMLqdowXlaL0BoE3Gjzzm1xzESwsRVpHqMOl4wy dDq89upOOmItCFDDehGKecJeFwrysIX1Mxw44DT5vrguC9TJzXQaULxssI80X/eRJuiHVew7f4J4 tosJR3hgs1NGWkn+NbCFHNiOkPqzLxq/8MVgpwUyLQLqV4svbosfAQbWIzCg3DdIh+0iDek0DWP8 0TVk852RKSy7kklowlYHGdMrVBsuOMVJGMlE+xrqXZy2MXF3reNszgygHbEVwjhgxUurCsaDpZe2 02WxAWX753PAtlgDW/IBGyqGFsMlfjIoOglP3iuv6aIn/HjaHo3F7DU3dNMJK07vEeXVozdUURn8 yGzKJKEjkS4Mwm9wfmGy0JCGwhH7y8aAYCm/1FkViLQkle/HGWOA9OOaG7tV1dOs7GoGbMsZsPGS /6lMGSnqZRM1aWtgiyGwWU0dMTdnT+aAbS4HbFd5Eoukp9K5kU6/N3ZrdVwGKYOeRDm1MX/Stu0h P50MrqoEJWUvFdAkOsAh7bXoomDUkfPPA4l6gi8TRf/A+2LDrb1kaG0VnQjiuOGgPJPM+EgjBcN4 oR3NhyGcU+k4jxY+C2wo9+g/N9sA2zQHYOvUwBafwDZNAGxXeAW28dtryJyzmulW48qOPDhtpkNf WxoprMgg1T35pBcn7YOiMF5pOqR3DPVk/7JyqWkIWdD60L+sgrYKJDLAYWaLtBk/skyF4QFh0x19 CVu7NDI0nF6PCsbsXDmJe++i8g/Vjgfil25d8ZlO0re0nFT35tNyRXZ+GskrSafxo21aMZl9RhOZ tKvWD7DdCHFtNQO2JTbANlZi+ogGNo8jtYKkImWAbQlc4se9BiHcrLwRTpzHfmssVW9hQXjTHb1k 2z39NPDh+guqjnwwMebvYW2gsjNXurdvBOAStNkbs9rGcYVKga0Omo33JOBnZdTQsAcNAU12ekt5 Wy7tG9z7dALUcR8cxTZtRBSRGCcwXmy5q4/+27EvjKGis7xSX4elT2tgC9esyJgAG9gxcJn/57nQ 35hDMxo67R+cFUGASuETsKGZNrvCDYjzEp3EJSMZHASwgRWV9ACQaCpKFNuM2652diS2ESRSfc1Q OW66rY9ul8eMVGqcGIhDsOaG0/f3JiIte2DUYfEC6/C4SLa8NddXHxvEs1M9AluQNTY9BDlA8Yiw xoZOgP0fvuT9wwV0mkcySN+NplIs3uMoI+nsFuoGw+uryBZDRZkAfXAYcBdc0KIU2HCCTby0icj4 yVaga0dvqnJF2db255OVn+1Mmn5JvBdwTmvzeN/Z/39DPNsiCWxO4hEVqkg93d8B2IodGrQ9qyLR AeAyH/YbkDrnlFGxRbIs88TiPb5X3OyMdQL5NSwZ0CZQS7Z9lcm043iyBtJKSLWmZ6oZigx3BVXN xXNd0phqcxT0oaFsP79MHtAwu8fH7DowKi7FIZ4b0SFb61lYrsKHnmUN2m5UkTJy/yoTsNmN1EqO tTUCcHPaoM1P95eZFWmePOK2j20Z62XzPVYLC9wGJZks444wiOFWYlzi6Oazwj4lbPRGapNmKAfi WUCSrkg4kkZrLnGZ+R9gG6gPRDa5F7vcNl4PrAe2mGCrSbKMEcP3ifQ+UvVq2otSz7cANrd9bPzk EZlZkblugS0lEX4klZFWi0ad1tZYjdSymjzCA9siBmw4DPm7SnqQQD1Id5sl0cgpBHPMXnC/m9uV G5UduSBvb4mryRE8sGMNqLxZTaN2SX022X7vYNw1ZhvT8xd8vJXu+XM1QByytMl76ykVlyxZGg9q WHdURGP/GKcoccDm1KBtHqklMyvSDGx2i0YTVziiCNhkFo2ap/tbDUEWzopkjnASXOrfVTjZwLJI 5rYricCNZm/PRrI3HCnm9jNrAnUhSqHjSv0G2QnWVmt6CpQEJ5R873xoKG7k7FTpCN/Xqmu6SMvE Ik8K0A+ztCSbg6kW1P4J8etssI0mYJOZFel2ur/VolENbB6ArUhi0ajd2hrRdH8e2HBo6Fq41C+o EgH0Li6nWUiyzVKk2Ru8Z9x0gD1tbjck9MHnhn1ccUFJ4bBrCFK1/YqArROA7UD4gc2goLfc2U+n pLjtucrISqONyngoSLZ5mAhqmJkOrFQ6tebLTDSyAeOYxBBkp7U1TRrYwgNsLRaLRkX72Iy1NQvZ eocVYGvQMeByv63K4brml9GbN9kWdiIgITChclK01NRRYFKSQYER5yWGWiHIMjZsxlfhLxXt4c/Y UAmKPZtTjqmne8/cvseqrrwPFY9JtpIHM1w89PUuqVAJaq9A3NrOAdsa09oa0T62sSZgc7NolFdE amBzMX0kx0bybwCbIfkXAVsn+6L6nDZoM2BbwgMb2B6/8n/ekKLZft9AXM2LVKmcxCCIS0sxG3Mf 6HPJogvbKG0TRqUgBuYd9w2S0gY1A21xMC72MoWxPmvs41t8STsFJ9fCBrChdVVULJRMtTR+TiTW Y3G6iEJQ+zXEqxPBjmLLRQ1gW2FaNOpmg3aLC2DjFZEa2AIeq2UGtiETsImatFew3o/1rAB7Flz2 H1Q5YFVXLtn8pf7EbDSV7Gda+ql2z8s5O2aVkI1f6A3dKR9pZtxu4KbdwVZIkZ1KNt4WLlWkUTvF 68Kls54AGxSSiy9qS9o9fnggwH6+2v48laCGK2ouBDsabBuLW+tZHFth08NmBjarqSMNgh62Mj11 JPwT/vkm7eWs4LqOOchWuOwfqWy8LanPoQs99z2dfKdVYwcVZiPd87wFRxw4jfTkzhD1OGEWuQro VmV72VJTyIqrOqHuNBSajHvXI6PIVFC75hZ7G/PUObuETuZJhKZzb34/TNbe1E3KmpWvOPo52722 gwO2dS4HIOuVNQECm1WTtkjyX+pS8t9vs2x0jkAZuZYpi7bBZX+gemp7Zk4qXYoYD9u1g6ox7IVg OfOURpJd4K33C+tZy6/sDMV4LgzWM09tVOojU49viPlILWN1EdbCage81Q+x2Xr6iQ0RdfBjyblt He9z3DqflZemGtQMGnIfV1+zUkQ6Sf17PUr9nXrYkhbYVEv+/Sgjl7KCq1FnOxou+3fewCvNcoU9 nnqxKTkZNyPzgotIU3cPqen1FjRxs8LQukpau9wbwwwYga0bBEIqA1bHzJLITM4YZhg77h8kozdW eZ4wjzW4ERn/gVFJ6+t4n+MhDsVQdvHCo6/8EeLUcRbCkVgrIhN/6ohCYPOjjHQjIEGeeodXYKuB jALrSTPgJD9xdx0Zt60WKLR6Mu/cZjqlIhkL51Y0FwoJ/PTy4ABq3ImGvVTRzt6wVoRjo3D1iEpg w0Wb274yEPUeSJqlwee4BHy3rMU7bYby/6MfGNR+zvk5UrHzIXObtK+exoMJu+rIdAC8ZZe2k7qB Aj/AdiyjIWWFIxMVCkfcKCKTBthkJf9WykivAhK7Kf/LWeEV0/ktfqjIzrllZP+zY8gx3xhDT/UY MPAUvuuRIX2zm4UlkCHg4F8/e80wmB71tehmb/haGKwCoJjInDOiOwgZfXM7qDtxUazMzj3hODCg lmef3kS/z2Tr3ZQ5NOBnTOMA2DHPj6HWs6jcLxW521Rfcxp+PEFyXY1b4YgrRWQyApsbAYloGLLX mZF8nQ0dZCP2h/gJTq1TSqjUPVnraW43C+Mw4Zpe76qx0gZQ3l3cFrXNAXQX25jCQICtbjA/0t5w IAoHi2cie/b8iBuQelx7Y3ekNnhA+7NT28QuaMLvmFmqQjxiVV+zG6UVc+FIsgKbk4AkqNFah9XZ 4LLv8xugcLTU1ns0/Sjd8wbUJG4X9j4EFnql1laSHQ8Eq5zE0zeCgdfsRsYWXdgaaAZqfD5YS/Oj 6uxZUBb4551IPo7MQvOEIhU+8ijrX1NZX7MbpeU01T/5gM2jMjLWdbbzVQSosuZssu7mnoRaHhk0 ZTPjI420p8v7aKpcsurqrkBmEGIfHU6P8Cp8cTMcGqeaqO77QjEHfi5rru8Ghan3DBkXgaIQilLs mnqUYiU23NpLKtrUyP4hPl1m6l+LRn1NVjiS9MAWpjqbuZ8N62zvKBEElGWCyKE16Ya9elZNotT8 M52kpC7bR7NzGpm8v55SeipHmu1/bjQVBQUJaobhpvL9z6o7EKHsHinUadBSgHJ8r9dVVJ1Fll/e Qb8nTT06HySw3r7kk22kQJ3Q6Jesh22roH/NzdZsmfqaFo5EEdhk62xWK2zsJv2vZP1sSEfeoCpI IW2FSxRxMHI8L5KMpjhjy119pMnnVuG2qcV06oMKMQYW/7GHDkEzGsCGWREqbFVk+/h5bgNaHKe4 +KPXC8jmO/qStuHay0FiChywvLZOWNhtJhpSNPh4DkdDWq2qcdrBJlNf08DmU0AiW2cz+tnaLfrZ 7AYim+lInEDymspg1TatBAJ2v6YmJSd7IO03sMLf0Fhcaoo1MTrSyWOGsQcot41AJRVUZEYF1FK4 jePrb+n2PI5tJ+sbxAyrpCHb17X0LSmjwofdT+h6WrQOEgJ7B+fZStCQ5sHH4ywGH7vpX9P1NUUC Ej91tjaJgchWsv8RdSTYmXD5f1PpnIVVWXQpYximZ8RLSwDWc9LTvZ96sal70p46yJjdT8LAOhJm KeUtOVEFNb5fb+MXe12LSXax5Z04iT8908dnl5ZCaV38HHbqlhXnfkC4r1GhW1ybpdoXcO/aJ5ga 0g0NaTcfUmX/mgY2CwGJFzpSxdzIOQI60phCgrW2q8H+rTpgYSYS6b/StQqZaSWLoU5pN8VBbnZh KdkOjdWyKj58XZz1V9qUHRNQ+3DWaBZZfV1EECPbjoATRPxORsmB/sIFF7Qk/RQR2Uk02A+IQwcC UMz+B+xmNvRYhoZUJfP32r+W9MBmV2ez6mezmxvpRvYvQ0duYrMjbw3mNJ5NFkL2RlezPKZPw7aB g4JMD+1Z8/OZl7fmOipVjZM3fjdeBwCrthxogsamcKdMH2uBG77QS6o683xTuKuv69a0udRKn0iW VhZcVn+3YOixVxpSlczfdX0t2YHNXGfzMjdSdj+bkzpyIzsdbYe38aWgghZmEkg3aWrSAdxwRNHd faR+2N/WagSrBee3HpmJHIicvHF3Fu4PC7JXzasNrq6kmcE+c6bPFKU4Ziy/zB8Y1/bnk81f6ovp 3Mq4oB7hft10e5/ymaEm+yqrq+2yaMoW0ZDTHWhItzL/Io6GlK2vJT6wBVhnU0FHWqkjDTpyMzsl Hc3A7V+B0E3AyW+/dzDpNgt7mZqOzdzt0/0V5sHzoHZUNzLuDOlJpPAwSytvzQkdoB3WH9mUQ+af 10JrhkbtC2twU4+v91WLRGuZVEyO/vqo5B7WLbtoFg5A5c2B0dT/B/Y1NsV/t4CGXKOIhmwS0JAq 6msa2HzU2WTpyB4PdORqfkcbOy3tgrfynicqqTCdFpT5LAA3AWDdCIP0wk+00sHAut4md1JGCqhv aZmSWieq/VA52Dy+KNSAZjYc67XssnbazI0Zpt/n61lQSp9L0+JytV/8E5eodswqpQrWVFOLD9K5 uUXpXr+PX0G8OQZsb0A0pBeZvwY2xXSkF9m/n2ZtfkfbBnZKOoplbW96GhSbn04m760D2XgfHZm0 4PwWOiED5f9IsemxRO4Vk/iZjd1S7T9bhmbw1DgCtCPFJf6zhuH1VXTJqR7W7X5UFt6/uL0D72e8 rxfBIRUnjUw7toHWRj1+J+8zYEMacqckDTnLhoY0Txtxkvm7qa9JKSI1sAVPRzo1ay8ViUjYShvP 27VxLt/4HTVk/3NjyP7nx9BeLR1I/NBBEeXi5H31cQtKYbAJO+tobVHT4P6k/ng/72fT+3Egg8/G 7EMmGtK8osYNDek0bcRt/5qMIjI5wC3V+kcW2NzSkVbN2oOmZm3z7EirnjZDRPK430DSPLGYbLmz TyvOFI7hmnp8owYpD4b7AvVkfnXKXZx00zZVSWP28xwNae5dW21DQ5qHHruprznNhzQLRzwBW6LP i5StswVFR7rtadvMpP/XKGvUBtqCLsrUNQ0l4Db9xMa4phSjbdh4vV/PfFRS88X7eOGFShuzb7EQ jaw1ragR0ZDG0GO7aSPNLvrXeOGIEmBLBnCTqbN5pSNFsyOdRCROWdtx8Fb+pCq49C4qp1t2/Yx8 0hYBt/0U3Bo0aMmA2j4NaiqGHGOWhlvPceGtwkPV3yDOnOYgGllqQUPaDT2Wqa+JhCOBAFvCAJyC OpvbZm2ZnjaziEQma3ta9ZitWac1UTWaFpH4BzccwaXByx7U9DQR/6IRbLeYfWZTEOOzXmTZmpNo xIqGtBp6LFtf8wJsGV6BLe4BTjEdKZod6UVEwi8glZX+fxTezj9UB5z6oQKy/MoOOslAb9/2B25T 9mtwsxKK6Jqavz5KpB1XfraTNI4NZIv6v3AfJMvW7EQjiy2askU0pFnmbx6jJSMcMUv97YDNM7jF JcA5AJsfdaRolY2MiMRpEold1nZvEIEnNS2FdM8rI+s+101vIA1w3udLjttWo8GMM9yYve9pvRfQ 6+gs9Kn1t/TQ8kFaempQ39MjJom/SDSy1LQp26yGtJL5O9XX3Cgi7eT+voAtkcDNLx0pKyJxI/23 y9qQGtgJb+cnQQWhzJw02jyMNxJOuNcA534yBPYX9S4q06AG1jW3hE4T0ZJ+DxkabsD+Qg8dZ+Zn SauEvQZx5ViTxF8kGhH1rk2xoSFlpvmbhSOqgM0zuMUVwCmgI2VEJLKTSGTnR1qN2Toe3tLbQQYk vJH6lpaTtTd00/FJtAanaSTpJm5UrFX35Sc1qFV05EE9bUjPInWR8dPGa7jfkDlBYUh2fuALZrEh +3SLbI0XjYh618wrasw0pEjmbyUcMSsivQJbugpgixtwU0RHehWRGNJ/2fmRVlnbSF8b2Enwtl4N OjjhRuX2GSVkKY5QgoCtT95yWdtO+BMn+iczsOFGhB0P6Dmksj6DB4Bll3eQzjmlJDMrNRrf0VsQ R85ifWsiib+daGSGCxpSBthKfQBbIFlb3ACcQmBzK/23ytpGe6i1jUwjQfoA3tb3ojYjcHQBnfCu ayUONBJQb6uu7qQTX5IZ2HBu4fIrOvRgY4lJNjjYuHl8YTS/nx9D/DgVbL9pir9Z4r/SpneNpyHH OMj8mx2EI07AlmsBbE5ZW+Jnbx7oSKueNreTSEQN2+asza7WJuprO4qdsHZj4TfwzC0rjYzdWkOl 2lqu7bwodOzWal1jY7Mg9aQbZwoSwW3Cjlpa447C9/I0xI0TWF1NlK1tFEwakaUhzTJ/vn+t0Wbi iBWw8XJ/fqSWU9aWPOCmmI602tMm07Atk7WZ+9rMMyRHJv/jiQve3uf8NnCjMrKgPIPW1zIy8e+Z pLo7j4zeUEWXbdI9WRrUHE/fuC0BV7xoYEuhvVaYjegs3xnc8P5af3MPGbOpilT35pGCikx6H2bl pNL7Eu9Pn9/HX8HugHhxIg58sMnWDIm/WTQiS0M61decgK3IAdhkszYRuCWeqMQFsHkRkajM2vi+ NvM0En7y/zYja2MnrwtQ4eQH2FonF5GVn+kgW7/cR4766kBkqzOV/+s6idTcPghOuApIg9qHNu9j LXTYsfYPSXn/05Ft5Xj/4X24CnrX2qcV+QU2rKddirV5FJ9xq2mcsjVe4i9DQ8rW16yArVjQoG1V Z5PJ2pRnb4lER7qV/rvN2oYlsjZ+8r95X9tO5qD7mWLySX+n7Gwy9fgGsuP+Qdp0rPdkuVC1QT2p cVyhBjTO6kYVRNpGdLYvNwMSwe3ZyEb16Sc1kpIG3+uBvonDHcBO5ihIUba22STx50UjfO/aNK4p e5yFzD8IYJPJ2tyAW+L0u/mkI2WytnKPCkm+r22KYPI/v6/NLP/fwRx0L3PYc1Mim3B93RC4sBDr aus/30N7s4ytyTr4WIw7gs8H1aP8UldtEVt0URudbKP9xLpFBO8vtI239pLx22voAVPBZ/9viAef BPsIoyBlsjVe4s+LRqxoSHN9zS2wWfWxFXB0pChrswO3wLO3RKAjVWZtTn1txgxJY/I/v6/NSv5/ lImSPBHe6q9VNm23TSumlBLSI0iVaJA7cjAtZra1A/kayASGtdpIu4j2lcOW1j4VGZV11NcGyPzz W0n7zBKSladUQPI7iAdnCLI1fiakXbZmFo2IaEhRfa3TpIj0AmyyWZsZ3KKWvSWiiMRv1uY0Q1KU tZnl/+sFlCTSC/vhbT4fRIAqrMqko30WfLyVbLunP3LKNFbgJDHVtE9P+He0KfvrIpP9k5iqxtrZ XnYwxOn8WI/tW1JOCquzgvrcv8tAjReM7OVmQoqyNbPEf54EDakC2EQCElHWpgrc0hMK3HxkbdlR zNomScj/19pQkpfBW/1PkIEqH1STnbNLyayPNtGV9Lsfjcy1w+kJyZTNYd/aBqBrcwrTNYDZWHZ+ Oll3U3dSbZKgWdmTkfFYmNFv/GIvmXNGM+maW0oKKjOj0EuYeh0nGDmW2469U6CENLI1s8SfF40Y NCQv8xf1rxk0JN/DJgtsxRayfzOwuQG3jIQHN4dr9EJHelVIGlmbeV8bv2XbTkhiR0nug7d6MFpB C1sEagfzyZjN1WTJp9ohmxugQopdCQ5w+P52PQwUZL+mIGUpyZ0PJf6YLQPQMCvDuivWqutBRJOd F9XDz5ustiYSjOzgZkLKZmtmGtKQ+TvV18zAVmuaFWklIJHJ2pxqblEBt3ilI0XSf7dZm9Pkf9GW bbP832qOpBUleQm81f+NRQDDbK51SjHZeFtfwgYxY+Bx9wI98NiNdcxig5ET9NCD72vzl/pJ2/Ri eh/E6HNG0chnbAQj/ExIc7ZmSPxFohGehjTX1/wAm1PW5hfcMpMC3AIQkfjJ2vgt2yL5v1lIIk1J wlu9P1YBLAuoJ0pRJmC7AAW1p4fJ8PpKDVYebGBlOT0UJCK44UFu0x19JLcoI5af8eMmCtJNtsZL /HnRiB0N6QRsTRbA5kRH+gG3rKQDNwk6Ukb6L5O1WU3+d2raFglJjDmSbinJb0X7xsLJG6uv607I OYEYuPB9jVpToUHKh/UvL6eN/7sS8OCD/rH2xp5YDcL+ASfvtxOMyGZrhmjETENaCUfsgK1eUGfj 6UhZStIMbrkewC1DNbglWtYmO41EpZDEqrdNREnisORvBn1DpWekksqOXDJpTx2VLyciqFHhw4Oj oPiv6UcVhpsjsBE54QQlD0bADYeGT9lfT6o6c0l6ZlSGYqMK8jQLClIk7zemjIiyNbNoZLJFfc0J 2FotgM2JjnSiJDW4BSQiscraRJP//QhJ7CaSGL1txpBkftwWr5I8JiWyffufyinH7FQyZmM1nXOH 6q9jXhiTcHU17L9CSf/aG7upAEKDkjqrhKC/+rou2gqQaCtu8D445ptj6HtD5ey4LTUkO5iloVhL fxju81McKEg+W1vPzYQ0Z2tm0QhPQ/L1NUM4MglefwvYx8Fux0HLbPPIT5mI7UdgL+E1gl0LdjLY PBb/vIBbgQtwy1YAbglLR3qZRmIn//ciJLHrbTOP2zL2to1QkszRP41qKdU3Fkrdm8YXkSnH1JM1 13fTEyvWoKj8H9WRj7Lm3APx13uEPUeofJy8r05186w2bgjAxF21tNGdzpWMQz9B/zZoanwP2HiN e/lwWe/U4+pJ88QiklMUiCryPbivr2WgJupZsxKM8DMhRdmaIRqZJsjW8NA9C177bLAnfAyEwIXJ d4MdxWKhE7jZ1dy81N2SFtzSLRSSdn1tQQhJ7CjJJRaU5DZ+AwBzdHR4PC19FacSBBGkcA9ZWXMO 6VlYRm9oXJ646fY+CnbGkFfMfoxGVaShqEFAwJ6w3Y8Nx3xCxU4GaHhNiy9pI9W9Ws4fDavqyiML L2wlex6PjJiK9Yok9EP0WfRL9AXDV43BBHhwo0PCWZ1wM4hGcAfdtBMa6CCDspYckp4eGAX5P2AP smWhp3KgZlCQop41s2DEmDJiztbMopERYIPX3Aj2FbDfKn4/CHKXgg0K6m0y4JYfFnBL1KzNr5DE biKJF0ryaJ6SZI6PN8A5jBr4fdABCzM6HObaOKaQ9C6pIEPrKsnUY+vJvHNbyaJPtpMll7aTFVe2 k1VXd5C1N0UyPgwa0Qa4XazJHPvTENCaxuuBxrEw9JNFF7XSTJl+H1EWmFDq+ZlIxrXuc93UL9E/ 0U8Xg7+i306DQ9sQqGLRn5vGFpLSxuxoKSH/gIPO4f69EOx0VlOzoyCtBCNO2Rrfu4aH6pVMZf3P gN8fAuanWUz0C265LsEtKbK2NImszav8X0ZI4tTbJhqSbLW3zUxJnsBOeHhDfIw57C9iHdDSUnGp KYhQOvPI+B01ZOuX+wOvu/ADaDfd3ks3G9ToDC00Dd1TjmuAfsjeqA3iRn/b9tUBMmFnLamC18+E GnJaOAZb/xero13MsrQzOFBzoiDNghGnbG0W17s2BV73SpYhylzn35AeBXsF7EWwb7A/fwz2S7B/ yTaYg211AW4FYQK3RMraVApJuhyEJHxvm9txWwYleSKTBZ/GTn7nMDogNIFt1TVdQEsNB5KZGXQS TodYcEErbRzOztc1tDAa1jbbp5eQ+ee10Kk2IzNKH1U/oxRX7KwBkVDIPoMP4P78OG7uADsb7Ex2 z5opSH5slrlnzRCM8PL+ZYLxWXy2tlqiXejfDMSuB9vDHjvKNFbLkP33we/MANsNdjPYzyXe+y0s AbACN5leN5nNALLglrRZmxshidVEkiB72/ayG+B4Rl+cwsDtDPgo7grLzYzz9LDepiJw0RFHTzAx CwSuzV/qI/POaSHd88tIYWWmBo84Mtzs3jWnlMw5q5k2QiMQGSIlVdkc+kjv4vIwve/7kFnBwycH ajwFyY/N4nvWRIIRoxnbnK3xEn8EH1RS/8rmmn4DdivYGhanerkGbUPy3y4AtyZuEkkzPh7sHpbp Wb3Wt7nam1tRiSpw01mbByGJQUm2SCwkFQlJnMZtbTNvAOCytpPZyQ9vFlQ5vR/7sUultL/Jy6xJ qk577MPhsxjwkFrCov6Eo2tJA9Rv9MDiBBmsXJBO6ocKgLaupSIlzL5HDjBPDlNRhxc1LgXIBwfp wScMFCTcl59g2ZpBQX5UQEFa9awZghGzvJ/P1g5ryIbXxEPuXyyu5y8si5rL4tKAafII38tmZG1G T5uxm40HN9rbxjK5u22GtyM1OTmK4OabkoxHYEskIclhWRvYDSkKFpV6sfLWHDL79KaRFgGzpJrK qg1pNQQfPK1TlRpTqNGmcBCe4HJUXAkydlsNaRpXqLOyZMnmKjJJIwg5xmytIQs/3krW39Iz0iyN /oF+QgHv8Q9bUHYe+NC3jpgwA787FzLDivbcWL2n/8D9+AULCvIjAgrSTjDCN2NbZWuz4TXPtBGI YK1sHTtkD1kAm5G1dVpkbZbgxgBuvQ1F+QHYRJ/gJrMZQGdtCuT/XoUkkxyEJI5729gNYc7azmRq yajSS1P21pEd9w3SVgCUe9N+oCc/NKSHcDUODUQPjCJb7+onq6/vIksvBXn18aBQ21BNmieAOg1a DTKzda1MW0SIVNqUQw83Q+urafsJbp9Av9lyZz/Z8UAE2CiIPW7yN5T3gx9iczWyB9OgR7Mo+gek p+B+PI9RkGeZKMiTBRSkSDBilveLsjUqGoHXOx7sryKABbuR28FmBWy9pqzNDbgZsyTRuhk9KfpM 3gDrlRjBFQpwixdgUyUkcbuQVGYiidOQZDdZG1KSz0frBsZxXEU1WaQEglBFWw7IvQtI+7QSqKWU UeucVUZaJxWT+sE8Ug69QcX12SS/NBN65nTw1uZNfZtXmkH9CP2pbiAP/KuI+pnhcyhWQT+saM+h flkM/hmlsViGvcRAjc/WPirRs2YWjPDyfrtsbb1Fo/U/wM5ioDZWAGz8EGRz1sZTkiJwaxaAm5G9 1cLrXmbx2bzAkgFRv5sbcPNCScYXsPnI2lQJSfiJJM2KJ5KIsrbdNlkbOvK5OCU8VrSkNtMqoNR0 0plVSKbmVZKjilvJmZUD5MKqIXJ1zThye+NU8pWmmeTLTTPInY3TyR2N08gX6ieTa+HfLoHfOa2y n2wvaSPz8qvJmNwyUp6epT/T8BpmR8/A/Xe+g2DkeAfBiEjeb5WtzWMjsESg9hEWa0TANkoiaxOB m0hQYkVNftzic7qGm1ISFLglRdYWLSFJkPJ/mazto+xGOpvdWLeGocct2awuI5fMAiA6raKP3NYw hXyjbSH5Sedy8nb3GvJez1ryQc86avj3d3rW0P+Phn9Hexf+P/7b+9zv4f97vXsV+Xb7YvI1AMGL q0EhWtxCOrJ0I3pI7Fdwv30J7AJTtuZFMMLL+83Z2mK+IRte9zoLGf85LMbwwDaTSftvYI+7js1/ NOwaZlcz+6zJPgP2SUZ7znTI3gxwu9Li+lbajOHyAm5WlKTO2nwISWTl/26zNplam6iv7Sx2Y+EN diF8NA+wPrd/6gCk3sD7SU92EdlT2kHubJhGXu5YSt4BoEJgegcA6Y3u1eTVrlXk510rfdkhsNfh ud5mz/0+PPdPO1eQeyHjO6W8j4zPLSc5qVo1GmXDg+MBXA7M+tWssrWPSEwYEcn7rbI1BLatFgrI m1hsMQPbCoXvGyX+TzFBijl7azCpJh8UPP4gi5eyO91k621Ks7Z4ALZ4ydpEtTZeIWnV13ayKWs7 hwHbBUxyfFMAM+KSPjNDMENgOdi5kmZXCGSvdfsHMVlDwESgw9d+A173ydZ55CLI5ibmVpA0/R0F OevxZZahfZJNFLkwytnaPFZuOKJvjNu/Zga25QGUJ3A7waU22Vs9a+5+V/DYs1n8lAE3P5RkfANb gPJ/PwtJvWZtTn1t/DSS401Z2xnsxsIb7PyUyBTvf+iApMYm51WQy2vGkh9AZoaA8jbQhyoyMhUZ 3ZuQ0UVAbjW5DwB3a0krKdN1OVX2V7ifHgC7HOwysE+xTO3CGGRruxmo8Nf3ZxYnJkcR2Ay7yKaZ uwH+fbso22Xx0Qnc3FKSbrK2hAA2Wfl/VgyyNru+NttN26YZkryIBPnt13RAUmNYN7sDxB4IHkgF vt4dezCzAzms1yHIvdi+iJxQ3k2K0nRPoAJxCNbSvgx2qSlb+3iUsrUFLFsTtfV8nsWSSTEANjw4 L7QQlhjg9oTgcaex2Flh2sZttdMtqllbSph+AqYk3WZtMgpJvq+Nn0bCr7WxmyF5hIiE9ZL8WQcj /zYbAA0Vi0j5oYjjUEjBzMreYFncc20LaAaXnap7BRXY91jWdhGj+s+36Vuzy9bcKiHx0LsOXv9P puv5LfsdO2BbYQNsTzIxyY3MbuAM/xvX3bzq8Jl81UY1icC2WJBlvsJiZqVCSlIma0tLpqwtI+Cs jZ9GMkowjUQ0Q9JO+r9LICI5NSUylVsHH78zL0FxeH3dhLgFNLNFMs215EDzbLK4oE5/x2oGHF/L 0ZAyfWt7PfStLeaBDV73CsG13MbtX/MCbCdyLQB8GwDf5zbAVJH/Z6MMHbRp6EZwe1agkFzgsI3b jpJ0IyTRWZuHWpu5r81uGolohqSdiIQfs2VHR+KU/4M64PicppKWQU6t6CU/Bon++wkAaGZ7m7UU 3NEwlQzmlOjv3J/9Ce672zgaUrSWxm7QsZspI4Zo5Numa/gnA8YpPoDtdAZsVuA2AnCoAk2x3haw wG5aCfz7PsHjrmJx046SVJG1JTWwec3anKaRyIhI3NKRvDoST1L/Fcabvyg9k7RnFpAp+VVkbkEt WV5YD43KLWR/aSdYB9kHthMal7cUNZP1hY3032cA/debVUQq0rNJbhQl7ONAMv9w8xzyi951UVU3 xqIGF2kXWE6VnanRmlSTkkqKQczSlplPRueUkangE/PAJ5bCd47fO/65GGwBZJToK9M4P8ADR2o4 wQ3ptQctRCNWMyF3WMyENE/wNwMbrqP5o4DOm2oDbAa4OQHbkKl52wC3w7I3+N1TbD6LdQ7bAfrh d/6fgNatVZS1WdXaPItIUsL2E1DWlu+QtcnSkf0SdKRdTxtfZ/tsivVE76haKQQtlJpjsPxM3Xjy VWgmfgHEC9igjLUeFDS8T5uP7e0toP9+Bj1a3wflIUrYb6ybSI4v64Z6Vw2V2acGEHBRYGGILhIV 0MyGApgP4PP+IjSSN2eqXdKaBwcSpHNXFTWScyoHyfX1E8nXm2aBmGUx9QdUkiI9+q7g+3+XNa/j vxt+8Bw0umNrxRW148iu0nY4/FSR2ozcMAHcCxY0pOwEf9G+NbNo5DSLvjW/wHYGB2xmcDsse4Pf 3WHzGaywmTPZzLK2R0yPQaAe4rK2yhhkbUkLbDk+6UinlTZ26silXJ1tHV9nYwXff8XqZk4HG8gu IceUddEpGxi0DLECTsxA2stoUD7kMqPAx2DWhMHNmNiB9a4fdiwjD2GdCE72Kt5DbUYOpeV+0ZPY WZqdocrzO+1LyMy8Kt+fZ392MbkODiJPt84nB7tWjExReY8dWBBMX0WT8AneD9CP0J8MX3gL/ht9 4WsAdqdW9JFJcKDCrC7G4PZdFzSkW9HIPCbmML/m8ZLAttIB2Ia5kVuWAIf1OBtadqrDEGXc43a+ 4LFrWUJQxVGSsllboHRkShh/FIKbXzrSTh1ptavNXGc7TPYPb+9zjNeO7iBasDFAI50GdagHmmfR 4IOBJjL2aXWgNSl8bgxyGChf6VxGqgGU/LwXnL/4PKgF8fqTEdAMOwiGoPMagMgOyIb8fKY3Qmb2 276N9EASZH+f4Qtvs7YGfL3nWheQT1WPoa0ZMZzC8pJk79oWl71rcwUy/z+z3xcBmxncnIBtNDdP ctgEbiMAl2K91Phl1tJkuyEAfm+D4LFnspgZZNbmiY5MCetPQHSkV3WkmzrbPKspJPC2bon2DVuZ kU2OArn4/UAnvd61aiSDikVzMga0V+C03pCR5/n9rCpsoJRYMlGPMtQkZkRnV/R7pnsvqBqidGKs GtTfZ375eMtcclJ5D2lVTLFK2jcVTPFfLAA288Djt9lgBxlgW2UDbKewODTaDuDg9/balD3OlVl/ A783LeXIrduXM5Yrlllb0gJbjuI6m2gJqWgKyWECEjag9D/Rukk7sgroNPrvdCwZmbRxKMaTNjBw nl81yvN72l3WSec5Ir2lAc0MEKsoLXsNtDp4Ee5sAhFQrDPgQywDxetAdetN9ZNoFhdlcHtOUF87 2mN9zaAizb1kP2TlCx7YJnPAxoObHbDdBnYC2EkCO5HRhw/alD2+zUBQZrcb0pn/bXr8jSxeWmVt Mn1tGtgcwM2sjnRbZzMvIZXZ0zZOYrwWOubF0aqpIaDhFHnMaj6gkzZWhybwvt612rNU/VgQiSBt +lrXKg1kNobgdlfjNFLmcmIJqmCR3n0zJP6C3zOt98L13A514Gl5ldEEt6d9yvxHZkPi3+H53hEI VkTANkkAbqsDmjzyPRaz+gUrcMzrbzAG9rKh7Pxz3GrscuOyNlmFpFs6MjHqbAqzNqslpDICEqfx WmZlpAjYTk8Rb8lVaiit/ljVIJWCfxBCQQWC0p0QcNNS3C+PPBGoKaSqXtWgJglu68ldIKzJTXOX uZ1dOUB+2bs+dC0O6DsIuJ+vn0xGRa+H73EVwhH8b3iu9wRZoQFsU22AbWIAwPYHsE9Z7HYzLy7l szbcsv26oMG8XpC1qaYjPU0hSTZgM9fZzKts7JSRormRVpJ/BLY9KVGYzr+huJl8E2TVH4RUIXiI KfgWQY+T2/e2Bnrk8OSuQc0luEFP3w1A5WW6GMVVDocj9KO3Qkj1Gj18qNj8CBx0oiQy+ZrPocdG xmbOdL7F4sVUiaxtjWJgwzrZA6weKLO41AC3fkHmeSu3x02UtfEiEj90pBaQxBjY+IxtpcScNl/W BrTj7XAyf5+daMNMj11VM9Z1tjaUU0p3l+mamndwuwRoaTefOTZcvx/ig8Rr3REB1APQOjIBGvOj MED5sz6BDWtshwTN2XbANilAYDMM62WruJYAJ0pytKBJ+0YHYCt3qY5MjjqbA7iFAdgsqUi49EcD zdKg2I8rWGKhZHNHQa4hT7TMIyVp7tawYG8TKuTepad0DVJesxwEgeOhX9HNZ38WNGYjKIb5vb3D 6q1nVfaT/LRAs7c/snFbXqT+85gq8rsCVeRsizqbGdzsgO1OMByefrrJ8P99DOxmsDdt3tt3mBDO MWuD350F9nfT46/gl5N6oCNFdTYNbAqBrcInsB0mHkmJrGQPZtQViAKuqhlHAS3smQydQAHU0TBk Xm7f5+kgXQ97cI0HM5rlsRHazed/GfSVvR/yPkEENvSRR1rm0Ow+QHB7k6kjvQLbQ6bn+wt73DSL rI0Ht7U2wPZRJjDh2wP45m60qSmRrdlW720bR0nyWRtfa+vC3xM89iwWJ62ArcJHnU0DW5TEI1Jy fya/DWRBKM5uRAoGb+awD/k11ItzC2pcv8/u7CKapSXrRBH12c0aCP5zXU34yALaGHsf34uDjBmz emwPWKFoqo2FPeuRikRgu1bwfCc5ANtkCWA7x6L3zQxuSIf+j8VzXC9Ta4Pfu0Tw2PXcYlK7OpuT 7N+vMlIDm+I+NnODNtbVfhHEjYUz9r7bvoQGmniRne+HvjMv7xUbdH/Zs16DktJ623pyanmvuxou NEl/t30x7S2Lh/112OB9SkVvkEOXr5MEtoWmBu2TBc91C4sZPB0pAjdZYJtokb1RcEOVp8VzPMXR kYMChaQBbOas7w9MY9DoQkBS4hPYMjSweetj8zJ5ZGSkFlzuY0HcUCsK6qCYvzIuAsxBpl77UsM0 kuFB2o8Cky83TdeTRQKghVHxmJ/qbi7jlLyqEeAI+3t8lVGTVwCN6sX3ZKTybNSWXR+buUF7Ljvw /t70XD8xAdtUBcBmmbnZlEd+YpovKaIjx8Pv/U4wX7OZ27Zd71NAolzynyjA5nbCv+xILdGsyCN2 sqGTBQFqm0Ek8kbXqrhRBiL4fg8yy0aPY7PK0rPI9zqW0DFRGpDUU5LzPFDDKwsbaAtAPFDDhxhb cHnNGDrsO4B78kVu8ogZ2EQjtQw68gXT8/yL9cbxwCYCNztgO9cC2I4ANyYoET3HG4x9sqQj4XdO FTzuCgGwuRWQJCewScj9VcyKNBSRZmCzWzY62jTdf0lKAHvVji5ppyOkXo8TUEPwxT6j6fnep81P zq2kz3NIA1Eg2wBQFOLle9kFvvhenEx+McDt0qrhoGjJK7mRWqsddrEZwHap4HnutsjaprgAtkky 4Aa/u8fiOd5nj7EDtpdMj8HrWcItI1UBbHmpinvZtCLSpyKSzWNTevOshlPy22xdSLyo7zCzXJBf 4+t97yppS/qp/YFt4QZ/ur95lufvZl9pZFbnq3EEbpdUDQUBbL9mQ5Gl62xMtv8H0/P8DwNEUdZm mB2wfUzQ9yakJOF3N1s8z2/YZhKh7J897t+CjQBtCoCtUANb7IQjnQLhyEh9Dfcqqb5xZudXw8l4 Zdxkaq+yuX7bAZT8vvcdxS2hl5nH8xaAl9oXUbrX6/eDG9Tx+4mHjPoQE818wsfgbRt7wEWdzcja 7hf1ogmyNh7c1vkANh7cllmM9vsnu16RgKRXQKEabQatHLA1amCLXX2tIID6GtbWfqLyhsGer590 rgj1JBEzqGGgO7GiV8n7X1fUqIEtwO8KxT090E7h5zu6AIDil3HSY3iITWA5Gxq5FQPbv9jWbR7Y ltvV2TDLE7QC/Z01f5uBbaoksE2WBLZpNuWSPSJgw7U4gt99l/27BrYY1dcCH6UFl3meypsFZ/U9 1TqPTlWIl0CJdM+ZCoPGDMhW40H9Ga/A9nMKbMW+viNUHF5XO4F+9/Fz+FpLp/UoBrefsKyNr7NZ 0ZFG1iYqW7zC5syKwG2DzetfYDGGy6rO9rLV+hsBsKHK+9eC3z3btF1bA1uC9a/NxNOLqpsEi9w3 1k2Mm/oSigiwMfZkRZmaYQ0ZueRHnct0c3ZAAR7bRvqy/U/Iz0tNJ19smBo302GQhsW5owFMKPm0 DR0pytrWC2ptaHcwYDOD23Icmoy70zh7idkxLjK28ewg/iKzb3H2FXZYN2psuHH7eQsg7xEAm66x JQoNCZd4lcobBFezxAuoYe0PlYsqamqiPravNM6goKnBSP1hBCd0NCnaTo2TTG5DcIsTv8V2hydb 5lFmRKHPvmFaOGpWR5pFJJi1XWHxXJ+yoSSn2DRxO2Zr3BSSsczGcBu3+T42XCh6u+Da/hdsHbef TQNbAMAW68HHs1TK+3FLMNbU4kFKjYD2Olzn2sLGwMYXLSiopcCmJf/qR0/d1jBFqQQeG75vrptE d8CF/fs6aGyaqB2n2mcvYnSkbNY2Bx7zTQvwOE8AbFNtgG2SC2Ab6wRsOGLL4j1+1rRRu0VxH1vi A1uIpo0I1ZBwiRequilw6v1zbQuoFDv8zdcRQcvSgrrAd2FdUTNWi0gUGzICq4rUH0hwruSV8H19 EAdqSWNx6WK1PvyKRbM239N2WNaGv4s9ZILnQqHIpTbA5jVbE4HaYcAGr/tFmzmZ3S6ATXaTtgY2 xTRkuQ2wtZpoyH4TDYkS/5+ruikuqh6mp8iwD5p9G2gcpLEwuwwa1OjA56wCchBqIrrWpu5Q8nzb QrodIojvC7PA80EtGQ8DulGchOPF/LQ9mOzfEBdOdyMiwayNLSL+o8Vz3sW2hbjJ1ryC2mybDQA/ Z8/Z6QBsfneyJf7kEcU0pF225jTN36AhR6b5q+xbm5lfRW+yMDe8HmQn3JfaF5OxwS92PMwigVIP Q1aRpWB9aXEUMu1PVg/FRc0NAfh8tf1tz0uKSOZzwDabDUj+i5XqEmyvy2zNCdQOAzb2+u9bvP7b DFyNZaMdFopIv0OQkxrY7GhI1aIR0dBjQzTynIobISc1jTzSPIdOcgg7qH2jdQHpyiqMKqihVUKR /wVoKNbyf3/2SwCaq2vHR+U7w/mMV1WPCT24vQpMANa0R+eUqXrv2I+2jwHbShkRCVs2ivX6kwRD kkf65cC+xgQqykANnnMr2JM27+cQu8YuQbZmBWx8fS2ItTXxO93fJw0ZdO/a6pQjt8h6sm0hHx2F oIbTRJ5tmU86MguiDmqGzQXq8504Gi0WRiXgoy1zSYVaJaBjze3amvGhbwXAQxsqcDPgkKnovd/l UkQymxn2sO3CDMnmuf+M007A9jPl5CSXoDaaDZTADO1Zm6ZvtG8w8Ow2AVubQuFIcu1jiyIN6UU0 coOKG6AUuH3k+MM8XQSFG4+2zCHNHqf0q7StcAh4k7UYaLByp2DFnsCeGGTb2QAW19WOD33NDQ+X 64uVNW7/ik3+txORHEFHMmCbycZePSXxOq+D3cOapTew55lsArXJTH25Bex8BopOuyJxJuRN7EDf 4zJbq1UMbFnJAGyqaEg/opHJcHlvqrgBTirvDjVVgzf7V5pmkKqM7JiDmmHLC+qhwXZ53ExlCUPP GmbcKwobYvadZULmdjGIoz4AcAtrHRlFUQeaZ5NMdVnbxZIiEh7YZjFgw2HE0/E5LKZ+EIsWgd+x 2IQ1uR+B/Yxlf38QDDC2soNgO82bsy1EI7L1NVnhCA9somwtaYBNpWhEZtIIikZ2g/3Hr+OjKu2F 9oWhzD6Mieg31U2kzbdhATXDxuSW0QbbD3rX6R43hykb73avJceWdobie/tIRR+l/cJKJ78L4LYQ eicVvd/nXE4iOQLYGNWI2dtdjIIM8vv5BWsMHy0Baq2SNKSb+pqM1D++gc0jDWnuXQtKNPIlFY60 qbgFMqLwZR3G3MdPV4+mJ+2wgRpP415RO5YGIy0qEa+mwUPTlqKWUH1vm4qaaRYZRvodfenOxmmq Gtd/B/Fiq80kEllgM/rXcN3NrWC/VPydYMvSJYyy7ONAzaAgzUpImWwtyPpaUgGbmYYMatIITsZ+ xzc1k5pKvt40i9IfYTvhI211RuVAaAHNbMsK68kzrfNpDUcLSyL1NDyYPA2fSbR6DV0LgSAr+lnX CnogORgqpiICuOPUtbNcxNGRVnvaZICNl/hjvex0sIfA3nNBMRqGWwVexZmUjHIcxa2n6ROAmpts TYaGdBqlpVTqHw/AppqGtBONmLM1QzSyV4XDT8urpCfqQyFSPhpZz+bi5rgBNcOKgdY9HWiuV0Ag gXXBZGzmxveM7/3FtkVkf1knKQwhhczbdADdH3Yso4e7gyETS+G0G0Xv8wnJPW1ugG0Sp4BEdeMm sHNR7MHADocZfx/sh2DfY21J9+IoLFRCstcfxS0S7RdkarIUJJ+tidSQXmhIr4rIhAQ2N6KRSgGw NbMvrcNGNDKBnXIUjYlaGyq583fbl5Cp0Cgeb6DGW2tmPogUhshPQFzyAc3gVidBHW01BTRUPZ4D mXZlenbcfF9DOSXkBVAFo/8dDNEB4WX4LOsyclVt2N4s6Gkz19kMAYkZ2AwaUtSzNkEg6TfPfeSH Gg+aNmPzWVqvh0yt0UW25kRDyjRmJ7RwxI6GFPWuqRKNGFuyf6qi2fh7HUtDE3QRAB6B/qbOGPao qbaOrAJyXtUgBWsM+mHKjlVnaN+D93hKeS9pVjSpP9rWBtf9GPhfmA56+LnuLu1QM2IsNfUclrWJ 6MgFFpJ/K2AT9avJgpoI0PoEQhEZUDMoSLvamptpI3kJD2wB0JAq1tNMYOqkv/h19NWFjaG4iWlg BFC7oW4CFWIkCqjxVgOn7j0QoB4EGTfWTvBzj+ceuEOMMsbAi7TrBZCd1qvJLGJq1fAe7m2eRbdx h+EAgs3sdzVOV/X+brWgI+2AbToHbFMEFKS5AdsO1HhAs8rSugVCETOotQhAjVdC+snWklY44peG 9CsawS3Zp6hwdFwi+l6Mge0tNsEDd7+lJiCgpQg2PU+FuualoPTEhnicYIK1FAS7eJhC/wYDZbxu zG6OLesiDZl5CfUdYU3Q2AwQ6xopKoORzm5RkwV/07SnzVxnM5SRZmCb5gBsdqAmSzuK6mlOoGZF QbrJ1mRFI0lRX3NDQyoVjTAa8gu+T6bpOeT7QEPGct8agirSV3MKahIe0KyEJgsL6sina8ZQNeUb rEYV6a+KHdAdYs3UCLaYMSCQfcDA91sgCLmmbjyZD2rCHHUNxKG03aXtdLt3rNc34Wd/VEmrivf0 LpsKslpQZ+OVkU7AZtCQZgrSGGRsl6k5ZWmdAkm/F1ALKlvzREPGG7DZ0ZD5FjSk1aQRO9GIMRdy Ips28h2/Tr4CaMhYZWuH2CTz+6HNoD2B6ml+LD8tnYzLKSfHlXWT2xumkhfbF9FMFoMaAgsq9hDs 8ASPdoh9jiq+C3y+NxiIGQD2Q6AXUaZ/T9MMAN6xZAcE+fEgPU9UqtjKMLvGzDqWM1TxoHNrwxQV 7+cfED/2O9CRvOTfDGxusjUrUJMBtHYBqDVLgJosBemmtqaEhgwNsAVIQ1YIaEhp0Qhb4/4rv05+ QdWomNysGJwRUC8GKg43HWtQExvu5RqbU0Z2lLRRYLm3aSb5dvtiSku9yihcHOWFNOYHzA7/+1r6 Ob/L/uTNyMAMMcvPOleQb8Fz3w0NwWdV9tMWkHqgF/X3E7G6zFxya/0U+nnFoi6Kr4kHnWI1e+su lKyzyQKbKFuLJqiZ62p2FGTQ2VpcA5tXGlKFaAQdaz1bG+FrAeN9ECijSbGghBrrMj+FILopDvvT wgF22aQxI4+MySkls4G+XQQN4auKmsg6+DzXFDexvzeRfSUd5Fw4uFxZO458vn4SuRnshvqJ5FoQ 51wB/+9cUGnuKWknq+F3sUEZlZslSZaJebHtcMh4Gej7aAuuDjGB1RB87wrex+2szmbQkU7ANsMC 2OyyNaOuZgVqsoBmpX4UZWrVUcjWkgLYnGhIu961avZluBKNIMfNVjz4O4GC8gtv0GgWxjGbeLZt ARmt5ubUpi1m/Ym31E+m4HaoK5r3z1qyuVjJSDJc/7KOk/2b62xegM2OgnSS8cuAWqNPUBMJRgo8 ikYyvIBaKIBNMQ2pTDTCuvsv9+vcM/KqotZPRec9Qj3tDqgR1CSAHFyb2gx0ILuYLCisI9uLW4Ee HyJXgzDlBlDromIX/7yeGf4ds80Tyrvp77dBbTZWQ7GR8Ti1rJfSutESX+HB8BNqtmu/hayPiY50 A2xmGlKUrcmCmkyW1mjqU3MCNVUUpKYhFdCQUqIRtj7ibr/OjUKAaNTXDEHCxyoH6UzK8Mq7Myno NsBpHKXrjfBnExj+P6xrpGsQUmIIRHOBQr2oepjcA71Z3wFF7CHaq7X2sLqgneHvoU8hpf1s6wIq qsApJ8uLGqK6uBRtF9C5b8ABMRpDlPE9f1lNP9tfII7stpD9L7SpsfGKSKdszTzv0a43zUn1aK6n mdWPVqDmhYJ0m62lx3u25peGtOtdkxGNTGQnphls3pov5z4fgCZoYMMg9OOO5WQt1HHC1CQ9HgQZ uCT0E5Ad3NY4FZSZM2mAxNaHH4MwwzAMnD+A//c8KOIeAvXml0BYgSdm3DI+ObeCVGbkaLCStN7s Inq4eQ6oaEN5+U5PpH/RUHh6UXIioLzLgSKKa66CrG4RtFBEq2aIr/VKx7LAd/LhIfFbICBR8L7+ A3HkdEZHrrYQkHgFNnO2ZtWbJpul1TtkaSL60QuoBZqtJQINKTNCS3Y9jVk0gs41MyWysM+Xc38B TrnvBjTN36AeETD6gGaKdZ/YFFD4faS8l552EagiDcYRBeG7TEaP/+81FmRfY3J6+vfuiAw+okBc M/I4DKg4Igs/x31lnWRUTokGMJOlgWGv2+dAuHKwa8VIG8GhgBW371Ml6BryAvTbXQb9gXPza6CV IljKEunUZ+BwFOTqJ8MnB7KV+NonTHU2keSfBzajh42vr/E0pB0FaUU9OtGObrI0GVDzS0F6ztZi Dmw+VtQ4jdAS9a65Eo0wB1ucIr/FVmhIqz3UPDuQvWH4nG9BcDkPMpvcGDXvZsPrToMa4qdqIpM9 3mRNzwhMCFSqer/o4kyWLSAYfg2AfCdQvE1xOidRpc3Or6bbzlEFi5l7LDZVGwcY/N6xHw8VjXmp 6QGyATm0joyHuqBEWe/S7eONKq73Cg7YVjEBiSyw8fU1c7YmArUuFxNE3GZpQYGa0mwtpsDmcF1+ aUhz75pr0Qhzsg1wqX/z49QVGdnkJaBsVO4LO8QGGCOQzFe39dflsOFCcnpFPx3z9BYLam9EaXoH quPeZhQbTra/DPrO+mOcrcbCBiFzvQnaCt6itdW1oRgRxs+0RN9YU9RIx5oFMi4N6sgnlffQPsN3 AmBE8D1sAYBWcK03mQQkhjJykWn6CA9skzlg42nIIdPqGTMF6TTAuFEhoHkBtRwJUItPYJMAtTQX C0XdikbabUQjBg05na2R2AmX+79+nLodAOBnjNpQlaXhSfIzUNuojkHdaTi7FOoqY2lNDJdavhXj 6fl4WkdQxb69a0HhN5id+DQlTiM5H3rjDFl6WGdevsUySKTJF4GyMqjPY0JuOXkUQBSzN5XZKvr3 MWom/d/JRmutFSgjeWCbZQK2iRywiWhIKwrSbtVMWEBNREFmJiqoucnWRDSkMtEIowaOSXG/pfYw Gw9A8Dot2Pu74QyK7ymgeXBzdCwECddDwzHSgAgkr3aFa6Hnq+y6DgLgomqvPEEboKfnV4H4Zj4N uq91xcdSVcym0FAQNBxQXyUOUv44UPL4mbynCOzRn84BVkLB9T3AgM0sIOEl/wawzTAB23gO2EQ0 pFW2xtOPsn1pToDmFdRyXYBa/AGbJKgF2btmJxoZz4tGmFLpRL9OPQ0UfX6K+MbuLaQd95Z1UKl8 NAMp7pBDoPgZCBLCCGhHfF5dH35eq9TUR0Jjqwob6AHpnRgPCfZKURqAc2pFL8kKqCaMY9GwJQGB 1G9dG6/3cmBGFFzXkxBLNloISHjJ/yyuj22yQDgyLJD422Vrov1pMn1pslmaH1ALhIKMOrBJXlOQ opFWF6IRzNbmwWWf6tepUSXmla5DyvGnACi4TDIWw3A3FrfQ6fJhWCfijbJdQy6GHq5YNRartE1F TfSA9EacbwZ/jal472mcQbqABQjq81oItecnWiP05CEfwHYd1DAVXM+zEE82CepshoCE72Wbwcn9 JwqEI3x9jachzdma07ZrVVlakKAW7mzNBahFQzTSLSEaQQebD5d+pl+nXgyNrHh6POQyS0OqCbdb j8sti3oQxQWWSDu+xyTj8bycEwPbw81zSH9O/IpLcAfbO2yPXqJsAUfQwH60jWrGVllOWsFaNB4Q vfgxPu5GaJ9QcC3fZMBmrrNZ9bJN41SRVsBm1Nd4GtKcrfkFtRIJ6tEvqCV0tpYmka0FIRoZFohG DBpyAVz62X6deqkLYDPomoOdK8lpFX2B9wOJbDnQXS+1R7K0QwkURHFWJ07RjzdQOwlou3jMmGVb BCKbJ4ZJZoDtKkhJYzO5W59GYLu5YbKKa3gB4skWQZ1tqY3kn5f7ixSRfH2NpyH5bI2nIGsFU/kr FVGPQYBauIEtitmaCtHICA2J3LeKjA3n7DnNicS61btsSzLuBouFsi8LJNm4Wsfr6TbMdpBSk/ie VlD5ebyA2n5oRn8/Rn1p0cuqI9TkbVAXqwxwRBeuBUIW4m2mKj4kCWw3qcnYvsWAja+z8QISq162 SSZV5LAA2Iz6WrsFsDktBq3wST1qUFOYrXmZNNIlKRqZwzhvPEmd4tepZ0Hz8lsW4hGjFwsDLxa8 F+THpietGqjHOwBQf0FPtIkbRDFDwM98k5rtyIEaLhl9o2t1QtGPTj1jj7fOI11ZRYF+rtjMfmfD NFqDRTHU6zaHOMwmPwMtJApe93eosDbV2UQCElEvmxdg42lIJ1Ard0E9iuppMpL+wEEtasCmANTc ikYqOWBzvZ6G612by05QS+BtXKBi/M87bIyUMTbqPZad4Y62Y6B+0pNdFLMAOhZqeCgffz+GG4uj vXgV2y8WgqgnrKCWn5pO64Lv9KxJiu+Ez5C+A5ThZAD1oD/jmXDgvKZ2PKUorbJivE8/VTNG1Ws+ BDFls6nOJhKQiHrZnIDNEI7w9TVRtmZeDFpuQT3K1tOCALXwZmsuQNZrtqZ8PQ3Xu2Zka0vhrfzQ r0MXpWeSzwNP//2OJVQyjwVznOe3AFRbsZ5iP6ughvwE+r4QZA8mUQDFQwZusY5GAPViZ0DvFNJz yQRqH1LGa+isy8VR6tWsAvrz41VDFNg+YBmcMSfyV73r6QBzRa/1N2wfcqiz8cpIcy+bH2Cz26Fm NRrLbT0tZqAWFWBTBGp+Jf4NEhL/w9bT8KIRNiPyPNU3EMqbcU1LGILnYqj9RRq/1yRdAKU0MLzv 78BhoyFkO+twioYxGDoZvxdjGAFS4rjHMFqf+yioa3+qejT5LvjETzqX00Molg+mqhUcPcnoSJk6 m6iXbbQNsBmKSHN9zUxDWq2bkWm6Tk5QU0BBWmVrThJ/p2zNLBoZYzFpZB7juzFbO5ioI5nWgYAC 6bg3Ekwk4mVLMooWgppl6GWgNA7Mfqd7bVJ/L8aB64egZB0V5RmglRnZpDWrkI7Ca80qUP38/wK7 nmVtRj+bXZ1NJPkfcgFsZhqy0oGC9Kt8tJoo4hbU4jJbS1OYrZVJZmt2Ev8jRCPwVs5PVFBbA3L+ t2lP1OqkD57GPMCTy3tC8d3gdXzQs05/L4yWRIDHnWgBAEys7TmIM0cL+tlEdTaR5N+YPCKiIr0A W5CglqFBTa62JsrWeIl/kwuJPz9pxKAh18PbeS0RQW0e1PVQvKJB7fBmeFQeBjXDUNZwl95BNplD fy8fghsKOJ4EcVNVesItmv0V2LkcHelUZxsnALZero/NDbAZNKQ5Wwuq8ToQUAsjsFlRkCqyNZmG bEPiP5XP1tgIrXcSEdSmQL0C6wZvalATqt+wfzA1ht/PzXWTKDWqvw9xKwC2o2TFaOdggIbU5LUc HelUZzMEJHbA1iIJbDwNqXruY9KDmiwFKTM+SzZbE0r84W1cA/bPRAS1fugNehnUmG/1rNGB0mbi y0qgaWPx/YzJUbMBIqEpY1CJfrJmdKKuIrrHREfa1dmGHQQkdsBWIQA2Mw1pR0G6WT1jB2hJCWrm KSNulJBesjUcdnx/otbUytKzgMqZR3uEDuoAaTs0+RmgvGIxMPmzteOSpo/Qz+EDM9r1xU2JCm5P M1rSio6cICkgcZuxFUdp9YwVoLkGtbAAW5pPCtKub81vtrYa3sJ3E3kpJTah/kIHTen9W+uKohs4 mzPzqbz8tW6drcn0H77SuYx0gmIxQe/XV9jYLSs60mjUNtfZrICtXiGw+Z3Sn1Cg5iVbs5P3q8jW jIbsrfAW3k1kUNtV2q5Vdm5624Cqvb9pVlTl/8eVdemDh8t66NeaZkBrRHqi3rfvQWzaxbI2no6c aKIjnQQkjaYGbbfAZpetqQC11FCCmo+p/TIUpGiCv2zfmky2djRc/q8TGdRQ5XeIjpDSmYDbbc+z ozRuKx0A9OvNsyig6s/eXYvGGWo2W4fV/h/EqN0K6Ug3wCabrXmd/ZgUoOZGMCKaCWnuW3PM1uDS 94D9NpFBDdVjOIfyXa2y80RHXqtm8K2zqAck/q9q0Yhrw88sDC0aAdt/Qbw6ykYdadXPZgVs/OQR Xu6vAtgSA9R87lhzKxhRlq3BZR8D9sdEBjW0faWdmoL0MSQZB+NGY2P5Sboh29fA5Gi2aCA9jcPK 6zJzo01LbjA1a5vVkWY60qnOxjdoewE2KxoyMFBLJArSad+aAWyNklNGxsNl70wGUGvPKiA/AjGC bsL2l7VtDnCzM1oqBMqvQq1I05DeVZLvdq8liwqCX/W0HWrVj7TMoa/7g46l5JLq0dGchvI6m1Ay zaJZW0RH8nU2ER1ZbmrQdgtsbrdfhx/UJIBNZrqIiIK0E4x4nQlpZGvr4LL/O9FBDU+vN9frRl8V IhKc2RhkQzAOX0aFn1ZD+htk/WjLXJIboJBkB4Aa1vRwA4ZBgWKWjd/daeW9tJ0mCvf2j1l/m5OI RIaOFNXZRH1sKoEt3IAWMAXpJBgRbce22rfGZ2s4+/Ht4IUAkSWGZ0NR+wroS9oLdGB2lCclzILX R/HDIR30fGcDOKEFd9UFNt4MBCrv6mxNyVSS3QA+QXxHRWmZ5LvtS4TTehDgEPC+0baQrI1Oi8hj kiISK3VkraDOJhKQeAG2+AY1F9maKgrSSd5vbMe22rc2E3tDgna6GflV5F6glfBUh86OGdMve9eT uxunRQ3c0hm19Y4OlsoC5rEgxQ/q+zqR1td0Zq1ixc2L7YtIWZr6zGlHSTu0F6xzbOynm7bhMFuZ nh30fX6VKWvzIiJxqrPFHNjCBmqpPilIGcGIVTO2cN8aXPKjQTpaCZzocIcTOjcWsw8JxgCdBRlc WhT6opYU1NEbTAc7VbL/tXQ+YVDf17V1E/T3pVD+fwrQgqpXCD3VOp/e2zIZPh6Enm9bQOYAaxLg ff4PsL2CrM0QkfTZiEhk6Ehznc0vsIUb0Hxka24pSCvBiIy8/7BsDS73ymCHCleSJ1vmUfCyWgqJ Do+Z2ykVvYGCmrHHSwsR1E79R6FATYb6qfJwQ9DakB5IrW4iCS4IrVCYMY3LLafP64bWRxB8Cx5z Qll3kPf7+2wxqWzWZtWs7SZrCxzYwgpqbjZiy1KQnuX9eKphk7MDEWjg3ixUHcoACQbIV+HPoQB7 blYXNmrBSAB1NqR15xSob9bGberfg9qNbp5XSx0frbDW5rUV41UUl8Bh99KaMUGKj57xmbWZm7Vl 6MjAgC0llj8xoiBlBCNmef8CtusogGJyBrkOKCSkPtyo2Yy1KEFQkgi0X6G1NQ1sQQTLHSVtyr+z UWwqzKu6MVupQvJA8xySleIfTPA+/Wqj93r1IUaP3lY/hZQHV3f7pEXWZif9F/W0+aUjfQFbvIFa tAUjAxwF+WwQjtSRVQh03yxPc/1weeTPOleQpsx85dc1ASiTN11SJtpk+9nWkosDWJWCNPbb3Zo2 Vp5hw2c6S0GNC+nnl4GG9tuKgQejR1vnkvbMQHre/oRtTA5Zm8yILb90pGdgS4n1T5QoyGILClJa MAKXel4QoIYn7G8DdeSn2I9Bcmtxq/Jru6pGrzwJcm7knQFMt1hIpf46ww5iQPKN0Mfp9/uZCgcP VYdF/J5faltEBrOLgwC3F31kbdUOWZssHSnqY0sYYHOzjsaJghRNGLGa3s8LRhbCpf5OtfOMg14m FBFgkDvoK0iuJfcAvQEfkLJra8rMo1NGdJNvcKIE7FPKV7yjDQ84WhEZjODnx3A/NPgce7WlpFXZ qLOD7ID0IoBbRzDTSs7xmbXZiUis6EjfwJYs2ZoKwcgTqp1mam4FAMcyKhLxu6TzVXbTIRipur69 ZZ165UmgcyNXke+B2q5c8XSJE0Elq8U+wdHHfnfqnVs5qJQFOcgyt2ehHaBR4f3P7JdsxY2qrE0F HZlwwCabrRV4EIxYzoOEyzxVNagN5ZZGQK17jZLN04fYqKZZivpckB67RzdkB54BYK2lXrEA4NTK fk0fB0hHXuNzO0MQPYYH2bU9Bi1CVepbSG43zZD0m7UVmbI2GToyYYDNT7Zm1bMmMw/SLBiZDJf5 jtpBwoXkpfbFygv8SG/sKe1QJmb5WdcKrawLeD3KT0H00614Y/N+6HPSGVtw9PE3gT4u9Egfo0T/ YVBXvhWQuAf7Xj9fP5lOClLZuA1xcDM3Q9Kqr80qa3Mj/c+Je2BTnK25oSD5bM1JMPJp1T1GT0Dz LFIHBwOgSbC/RcV1IkDqlSfBK+2QjhwPlLRKH1sHfYe6xhacIShNz6vy9N1gk/f3FSginSalYJ+c 4qztKZvJ/26yNivpvxc6Mu6AzU225kYwUuVSMDILt82qco5MOEV9sWEKbbAMamr8PY3Tffez4eO/ DM+jacjggQ0nSUzzGCTtZovq7y7Y/sOzKwc8fTcDoF78ecA9hgiamFnOVjt+638hHm61mPyvKmvL VZW1xTuwqRaMmLO1W1QGnNMq+ihVECRN8rwClV2dXnkSxYxtNRmfpzZjwwzwDd17GGiz9gPQc+qF 7ptTUEsffygKWeVL7YtIbYbSxaUPOWRtnR6zNjsRScIBm6pszSwYsZsHyU8YQXn/n1Q5xSLm0EGf 1FCMUJfur3g8H671Hd3gG5Ua28/gz37FPUhD0EJyCJ5bA1uwtdE2D/L6FUWNURP24HaHm+omquyT /BvExdWc/N9t1lblImvzRUfqbM1a3v//2/sOcK2qK+3LvVxu771wKxe4Ih2kIwIC0uGCJYiIvUWN PbFFM9EYoyaWmEnTUWNii8kYe4vRjCUTsTEXUBBRk38yk/rP5J9MyvnXOncfst3uc87e5+xTvu9b +3nWgwUu33fKfvd617vedaupjaYZTk0vucxdMp0BDNq+keHmfF1QP47qazGpIreNWml1Djcr0e4v qibhT8SBs+5w5p3uvTmqqjPWd+t9A+0JQtwpadoW57XpKiQjEZGkHdhMZmtK8n4ckw4f8ZemHgac pRTHwzzoFLZDcus4ToW8IWN0+Dcs9+8uLLMBk6jkaOtsZwQQaGyF5vk4WzHwMP0ClCcMTuL+DbJZ Lk3b/R7O/ypZW5lm1pZxwGYiW1OV94+R+EF+1uQcs7321Ol4NhlUwyGVGPTzVuWPsF4Abn4XjTyJ pUEb2z6qCwqNAls93MOX4OfSPYz2Pbup5SDte3NcVU/sPYaokryscYLJZ+wa2CdnejRtO1O248ra Uj9Q1I+GFPvWTLv34+ljOnzEt0w8AFWwYaGYY3eM9Sp84QYq2gN/Zuyp2k40Vmyy8QcDihC8oiS/ wHaheJuALdJ793DXQrh3evdmc1VX7DQ/vssYk8yNtnqDm7QdZdYWSkSSaTSkyWxN5t5/gqkNBueq RamCdOtlOyNED8uC8mb7pSXhQWa4WMiiAJqAH+paaLcS0HWOjkZ+FZTD7ZoWVuug3pVE/Rr3hW9B 47ahZ+yvEFsNZW01IbO2jAE2XRoyTLbWL2RrU+Hj3WPi5qNkHusncdNB+ABfHIJ22FjVQcKR2O7V Bus8aAGJYmLEzRHYNlF8tJ6N9aspmlnQsoq2RCYvYMaG1PekklqTNluzIszaMo+ODOA04iYaMZqt QcwzNUT0isaJCZ3MNlifb5ocqteOfAbju1frQf4dBbAdW91rK+LoOkcHbHsA2BZqNtevqkxuGj3+ vdeDkM3QM/YO7pcKWVuYvjY3EUnGA5vpbK3bo7aG2donTdz09uGltsHxzgSoINwsr2meGvizX9cy nU76sdpp1UUCbJMhk0C6jCjlKCX/Aza1qHNf1lcmx4jgBBBsAzE03uZvWLYJmbU1GMrakqcjA9KQ fqIRnb41qRKSiUZ+YGJT+VRdf2LjXhDYvhgC2L7RNpOALa4aDUjym807sTN1a6GtuCQBSbQZ0Oaa 3owBNqdN4ZKG8SbpyDmSrE23r002iFQmIskqYBNpSDfRiNcQUb++NTxtHGLCF7ISNhQcHpnUhhI2 Y7ujbTb1sMXUX/RU96FWqeEho3zc3j6bPCMjBomTa0dnFLA5w21xnzJERx7MsjYdNxIH2JyszUv6 H4qOzCYaUttlhGVr55rYTDbaD+5AonWbq0M4/N/TPs82U6aNK9rAw8Od0AgfFajZA0dBHUtCoGj7 w86p79essbUnPlIIGZkVIGIx8Iz9BfbOLSxrc9xIgjr/m6Ajk6uzBQA2E6IRL09IPGUcBB/t+yY2 k9sg49mbMLBdFzBjGw79VGjuupt8ImOhsb7YMjVSYJtd2mBL/qnOFl3GdpGmqvXQ8lY7ix5MGNhu bJlusll7rkLW1sv24aAiknTTkYZpSBXRiOe8NeZUjcNE3w57kzugp+X1vlWJWhnhQ3trwIe2GBp7 H+1eHLmnJcUQsB1Z1RkpsNXkj7BeJAeSSDO2szQztplw2NiV8GED/350pqkzY+X2Q6aOnO0yZVsU kXQpiEj86MiMBDZdGlJFNNIrSPydeWtTWfq8AT7an8JLrHsSp34wW/xW68zAwPYY1H0I2CIWjkBP EY4FaissjRTYML7WNoPEQCmqsfUVlltv9SXv7IPPxKoQDkVcbGd1tjkGpP+6dGR66mwh62t+ohEe 2GQSfzFbQ2CbAR/r0rA3GEdDfGfk3MSFFwhsXw2YseVDPNAx3x6vQxtXlPW19fazEjWoYSymEUSR Zt3H1ozSuh8NbIL2rjHJA9tXzNCRf4A9dC3L2kTpv5eIRJWO1FVHxg9smvU1XRqykaMhVUQjU9jp YqaJ+lov9Ia8mYKTGNbYrg2hirwN5P576YQf+Un/9NoxsQBb4bB86587D6HDSkTgcGR1t6aP53Dr iRSwIvj3P9uzxCoZVmDiOTsT9tH5miKS2OjItNbXTNCQowUacr9ohNXX/i3szT0qAXNTt1PkFU2T An+PW4i6irwxGyXXBg1pM+bZzMYG7TUB6LzvtCfP7OABfDscxMeMqDTxjN3I6EhHRDKd7a9B/CP9 6Egv2X9qgU2XhqyR9K75+ULyopEZbFL2b8Le3C9BlrQvBYCAn+G8hnEhnEemEbBFGJg5/ahroTUC Mqm4gK1i2HDraTtLoKzN7OzDddasAM4xX0rJO2awzvYg9gELIhLRiSQsHalSZ8sIYFOR+YemISE2 Yz9GmBuLm9RjXelQEyKwnVTTF/i7XNo4IRUAnc005Nbq3thAzYlNlLUZFwC9BgrozgD2VKfA+5kO dmeDdXHDgSaer5cYsM0XRCRB6Ei/Zm1Znc1TQJI24YisvqbblO3Zu8ZoyPPD3tgxRZWpmWGGoHRc iI3zyJhH1+dSIAWJ8nuD04zVazv24WsRjbIxWKN6ErLg4gCZN/pLpuHwiCKmO8yYBOyBvXSxBh2p o450q7OlR0ASQDjiVl/zaspWUUM6NORs5IfD3thl0HT5XkrAAF+YT1R2hmrqfZuaeiPL1i43O8lY s9bWSdm4SVAIqGxFpeqeFMw8dMDZAC3+H7CXroZY4EJH6jZrO96RfnW2VAObinBExRvSrSnbi4ac Y0IRidRCWka9YEEbX5wwc+Swx2onTdCORDQyMUbRiBjloMh7vncZGSMbOqTgaKog92HsiIr9Ao5k jbjXWa+MWm41F4Q24v4j7KWfEOhIvll7oo/jv+k6W6qALUj/mm5T9kdoSEyb4WM9F3bDQG/GNJyE B5mrwEGQdQX9LsUg/33CrheS0MB0oR5pn2EJgZoTZ9cnN3ki23rYttQEo/wbhxfbvWw7E+5lc4D1 gOLq0CNsYC89CWKhR7O2l3ekSp0tvQKSgMKRIPU1mTfkR5qyWbqMg0W3hd0s0Mw2DS7q+KKgpdeo wnDzlmh0jekDx1o7SzqouDZRUMOozh9hPd+zjNxlQgICHiLHFVUFrHfC4bF7USoOj+gLO6O03sSz dT7sp4s4OlLmHRlE9q8iIMkKYFOpr8lk/vud/Bmw4alifliPSGyAfaRrUSo2CnQzQHFCTUhxwgkp UW1lz+l+g3Vj60GJg5oTW1Ng/ZbJgWDwELRsoGl40Htwl+1StD4VpYvlZS0mnqurmIBEVfavUmfT EZAko4zUkPqrCEfc6ms6Mn8EtoPho30Q5oaWQd3ixwnOXxOLwY93L7aKQroJjC+qtmtsO6jOZkQW jo2wo800whqJUng+Hge6maY4BK+vXdoYbljnVU2TU9P3epymLZhL3Az76aEG62xGBSRpVEQGqa/1 qNTXMG2Gj/bLUJOKCwqZg3ryIGBqxhcC4+Pk8m/GAb4/uMggylhXOZIUkiHes8XlzaGu//EAJmnI mvEzfEpz9I5LfI0BW5A6m1s/m5eAJKuALWh9bbysvmZianZLQZH1r73LEy8EO6evzxraRL8Aghii q8Jn0HjoaR5enDpgQwr9gY4FQEVR1qZL96PwoyHkyJcFZU12xjyYAppcd/SOS9wK++kSVmcL0s8W VECSemATFZGi44iKcES1f20OS5cR2H4d5oaiUOMNEGzsSAWwbbAGoPnTxMZ3KPDue4mqCqVQfS+g l2BcMauk3t5cqbVD7/BoYkhne2GZ7VyyM3HT9AHr9LqxJp6nW9CeUEFAMi6kgCSQ5D9NUn9d42NR OOJbX8O0GT7a78Lc0ImgdBtkyrdklVpDMTG8dHc/HTnkVEHgFoziGbBubp2eWlBz4jygoUj+r35Y 2QNZ+JwQ7TR8nfOpFLj8I7CdWmdk0gQaIS/zEZCMDyggCaKMTB2wqSoiVRuzxwvA5tTXENgWwUf7 fZgbOqWkzqYhkwY2pEheBkq0zqBd0yfhgadNLxgF+TI0vmKze9qBrQDi622zbNp5O907bwNroG0f 7FwQSg3Jxx0pUEba3rJmgO3LDNi8BCSyqdpBlZFZB2wyRWQQ4YgDbL8Nc0P7oZclDRNxMbPCuVvD DbrGdwJd8kYK6JJM63FCSni9IUo4jsD2EMzOaQ6fP9W/SXP+mldc1jA+8To20uWbqox8p+s4YFvo YYjspoxUGWGT8cDmJ/UPZXzM0uQFDNj+M9TmP7zU2jZqZeLiEXxAb2mdYXzTuwnotH2UtWmpzC4w ozKLNfCAtg0OMeQ4421gXZNfaG7iAoBk0u8WiocOKW008X0+D/vpYUxAoquM7OSUkSqSf1kvW6qB zZSVlpIiEvlg+Gj/HuaGNsJp92cpUEXihnpy7WjjG96B0NM2mAJfu0wBtVvhcJGfYaDmBG5wjqcl 3c+PxodjN9rUvMnrfVBJrU1bDyZYM8R9a2JJeEcc2EvReWS5hzIyjOTfq5dN1qT9MfeRTAc2LUUk ps1h+9gcY9ldCW4GWN9DunByRAa72EJA0n9/t3dseq4pKMxIUHNiVXmbvdnuInD7yL19FKhafNeN UsD5I6x/sXtgk7nWCGr/Cq0LbeFrwX+BvfQUH2ALKvn362XLeGAzLvVnwPZ+qOL7sGHW96GgnKR6 0LbSArFCbcjeGvestNh6CV5AOsm701RvQp31QEOK1KTjqKouAjeuZor3d7YBJaQsvgXCnaRqm3iP n+5ZAgro0HX538JeerQAbKqekWGBrSgXgE30iDxQ8Ij8iNSfAdubYR/Om1sPStQ0GNVaP0ThiCG1 ltw/cpT1YT9lbbJTL17/gRAz8NIYy8tb7PaRXAc3VAV/rmlSZNf5HKjHJsWGYCZ6T8d8E99jH+yl axmwLQ0BbO2aTdpu7iMZA2yR9LAxYHsq7I39dMOBidoT4YkPJdtRbnQ4zuY+eAnI9f+joIbF92Nq erMK1Jw4oqrTfrbS4KqTlNL4JaifN0bEhGBshANRUu8UClduaJlm4ntsY4NGHWBbHLJJm4CN62HT BTY8VSyBj/adsDd2g+27tyFR0cKlDeMj3+h6R5Rbr4IClDwk19hOM7jpH1/bl5Wg5sSJ8P1yEdzw +yLFf0hZc6TXd2qCAhLcNwy5jjzOgG0FB2yyJu1JLk3aMveRBpcm7awBNtF1pM4F2FRc/T/Sw8aA 7dqwN3Z2WUOi6ibMFjdWxUOFrQUQx40ul1WSeJ+Rlj23rj+rQW2/YS+AG9JWudLPOMiymRPNuN57 RhMbOhq3ifogq7HNMjOL7S7YS9coANtkDWBrDAFsBWkFthJFYAvlOsKA7ZywN3YkqIpwwGcSp1oH YMYWxTcWBWsOH/ZvzNkxNHiQwObaYTkAak7gtOg9QM3lgoAI62pXRVhXE+NudCCJWXy2y+nLM+NU dB0Bmxlg07XTmuoGbBBb4OP9McyNHQGqoh91LUxEGYmnrie7F9s1sLheRFRRfb1tRs61AOCmjpv7 KRH0C2ZCHA6sAM6WezeLJwJ8CM/03SPn2VOu47qu59T3x/4u4eidfzIw4grib7CHnssB2zICtnQA 22r4eL8Ie4OvbJqYSJ0NC8/XmykA6w1YhRf/LngxcgXc7ENL3xprQ1VnToKaE5OLa237LZwzl210 NH6n74JAqj5CsYgs5kJj/O6YDwv43p5phkr/FeyhR1HGlj5gW46qntDy6IrWRNRNCKZHQt9REptc LTSY/gB6+N7P8jYApB5fgTrIvIh6mTItqoG+uqZ5CoD9uqzI3tDgAOlHHEdTZrgJW9WrM85hxYNs Egi6Chn4/C/DHrpeUTwSF7DlE7ANAdsPw97gFqizvRqzZySemNGRvW9ERWKbHH7vH0APHW4Mg1lY T8PvdQdkpj2gCCVQ+/iwTKTg8RrtylDVJL6veHC5OOGa6TdjbNTGvst7ITOFDdjEZ/8nF2Dj5f66 qsimbFVFxiYeYcB2lYmH83bYAON0EbAbLEfCAxphY7ZKVMIp9zqgQzF7zBZ6arctlFhrfQromoKE r2+aA2tR6KGI4imktzKpLQA3eLzHcagf/WK93TI0EBsNudVM7yXW1z7DARs1aIeQ+9ealPuzm3Fs WAEJxtExu3XjMMsTUvBSOnE6iCpQXJHJfW47WJb2k56l1sFljQReioGswXXNU623AOD2pbwdBMEX 62lPdR1qzUvJPa4GWv+nMdjW4XfHyd3thaUmPvdvYO88RgC2JQkCWwE1aA85jyxhoxZWwUfcHvZG 48OyLab5ZQ4NOSpBGlIWaypG2n0572cYNen0Lm0fvdq6qnmy3V+U5HWsyC+0WuEzjC4st7qHl1ot IGhAUQO6YLRC4L+jN2jhsHRlk2PgeUQx0yCrTQ6mCOAGWasGzk+8qH6cDSZpunafi0GA9p7tUjTT 1Gd+BfbOjS7AxpsgH0QmyDFbajFgWwkf8R4TNzsu30jse7kL+l/SeHpHgL++eZpN5+3JgPleSEmh EALFA+OKqmK9Vo0AXjiVYW1lh3Vu/QHWjfD83Aty8+cgY8Sa7ZtwUHodfn0VDgvoxP5ziFdZ4JTu h6C+ic/cuSAZX1HZbo0GYBEFEDhGJ+760ST4TjgfEGtv79kAl+xE8/ftOuA6u5Z1YMz3WDVmltRH bvSAwL6ios3UZ76FAds6H2CTufvrjK3JeXf/Hom7v8wEeT4HbMsYsF1s4mYvKmuORSmGdNlRCakh VWMhiAseQWk4fNbdKaMn8fSOvTy44T0CAoiFEVsn7VeSggIOnxEUKzzQcTCA1cr9Td94WkcQGKr9 rLNpI7Tu2ukSCBp4eHiPfY/3WDbyTPcSG+xWV7THLl0XY0ZpvQ0mDrjg542DpkRw2MOuzY97lliX NI63JkY01slU4FgcPNBERUfitX8Cel5LzSg//wD75okQGxiwreIGjS7SHDTa5TJotE5j0CiNreHH 1jjABnEE9mSENwvOtx+eKJu18cHHGpAh14BIozS/wK4DPtl9qL1x42aT5Ol9l62CG1LxfQ+ENxsg U8LPGLU8fhWAzI2t0+35W3jwwU0eAQwByiRdh6CBIIIbOgqZ0MQXVZ3YBIyA2hp+9lbAbKTOdqzB gw6O+HHA+O/XIDyQ4T3df23hOUO17oaqDhA3Zc6MvGuhThkVHYnX5ejqHlOf9XnYM49kwLaW7aGH sT016ATtVp8J2uUcsBXn0gRtHtjGugAbP0GbB7Y18DEfM3HTTwMRxQcRcuX44F/eODGjxAVIj2G/ 3UOQHe1lm1pc/po7mWEx/p1I5X2xZYo1AzbaKL/vMHtCcp09pPV5OIS8Z2dkAzYdNhgrkK/bn5ni Zo/0Jk6CWA50VBI9W1gTxNYJ9By9vHGCdR9krT+Hz4SfDQUd+Dn3Z67w3xCsEKwHGXjhIQD/Hf/7 O9x3Q2oeqVkEcayfYSvC8GGZp2Y9rLzVflYHI6Bjn4HM1eA9vwaTAQHYlrE99RCWPMxhe+50tgdP ZHtyP9ujR7E9u9Onh62KYUDOAlsX64vggW08u6hTJcC2mN2MFQzYLjfTcFloPd+7NDJ1II5KObSs JSPVc2g/dmh5i3VV02Q7i9u9n6JaZ+zkjj/nbZa1IJhs61tp2wdtre61RppRg7lGFQgSPlHdZdOM b7PvlhZ/RefaONnc03D9z6wbm1gW50Qz/P2L4ZnYUtNjnQz36Hxosbi5bYbd/I9gtYPRaHuYEfMb UHd8Cf47MiN3t8+1x0YtKm+2GhIW/JihqovsLNv0HLwPzEn8Mf4dleQQh0MMMNcREdj45uxpbA+e IPSwOcCm2pydscBWKABbqSD5VwW2PgHYJjFgO4gVM+cxOeoi1nexnBU/kY78pYmbjzO6orCbwpPq z+Clbki4dmKqB2pOaaOd1TzWtdg+uSMI7LNP7QP2aXw3ax94257o7NSWhv79HRZOLcWhOl8HIPtJ 7zLrVhAv4EyxqMHMBjQ4zJxc2wf1nKX7Kba0q0LtuhdkSShKuRLuQWdhWaqejwKI+uFF1oSiamsB ANdCAL/pkAV3gEq0Dp7/OP0c44yvgIjJJB2J79BTcIipMJetPQx75ScYsMXpOpLxwFbkA2wy95EO rpfNAbYDXIBN1suGN2c9fNQHTG3aj0I9wXStDU/at7XPzrqXGTO5FjhxzyptsA6v7LSugHrMHW2z rQehTvI4vJQIVC9Dfepf4TT7U/jnZwFAnoD//nD3IsiOFtgDE9GceAHUkboAyMpjqqsUQvM2iniQ 5nHo1Uzr3cMDwwc2TbvSOhYypnxqSM8adeQgM3JYWm6M4fkra8o+ykPqH7SHTcd1JOuALaitll+T 9iqm7jkLPu6fTTwEq6GOYVr6jz8Pe8Vy5SWHh8MqgkMC1gYagOZrKyi2nU5Q2YUTDRAQk9qIV8L9 fRDoMswus2H46i6WLWMbybiUSuJzIbA+i/fAhIsRPps3QQZo8PPtgD3yaE444igidaT+pnrYlAyQ 0wJsIzyALdJeNlYE3QAf9zUzVMow63sd8+2amKl+q4dBfIHKS9oAkos2qAl9rXWmfcjIxhEuTttA mlxtci2WQIYV1mIL6XrsdzRMxd8Ie+QmiXAkrCJSVeqfEcDGg1uhYpN2lJJ/LIIOwMe93tSDMBuo tT2GeneQ6joc5On04ie74aBk//2Em47jyN7wecM6ZSa0lWQdUwGH4jtB8BSU8Rlklnto82fwc70H ++NWrr7mJhzhFZGicERHEekm9Zf1sKUW2ExK/nWVkUtZ8XM144yPRuWPqQcCC/Nh5f+YreFA0Wwt mKc9UDp+AcjIsWa6OwemSDubI05Kvx/o1pHDS+k5SMB/E82lgygkURR0fctU05/pVtgbN7P6mq5w ZIJEOKKiiFSR+ns2Z8cNbFFL/v0EJLwy8iMCEiyKwkf+tklHARSSBKWtBplcF0UV9MInMZqn2Bbs ZONwTVVqEgU72BtGz0O8cTyoq3UVklibQ6u1crN9ih/Avng8V19zs9JSFY5EqYjMCGALo4wMIiBZ y7jjY+Bjf2jqwZhaUmv34wQZ64GU0OcyrCE7W2JicfV+CX+uAZooGd8FoP5J6HvLp+citiiCejrO vFP1XMW62jZQt44pqjT9Wb7JnPw3CY4jMistXjgyxccj0k04EkYRGR+wGVRGyuayqbr8T/YQkCzj BCQDrKftZpMPx0lQjNd1vccs77sd82z1H73o8cb04lq7x+vdMQM5DWq8gws+vyicqSgopGckRjcS FSPpHaOHLMVWVrSb/gzvM1/IY4T6mo7jyIFCfc3LSsuocCTtwGZaQCKz1lrBiqHr2c3bBB/7HZMP CY70UD39DzIaaB4IUOgFj9m8FxqBtzGrp+0Eah+JD4GSvQ2EDUV02IpN/o9UONbNtvuUK86p64/i M9zAnEaO1qyvhXUc8RKOZCSwRWWtpepAso5xyEeiJ5ppB+8fdAz1PvltmFjT+TIA4TB6uWONqcU1 Q6A2lkDNy6LpqsZJ9LxIAq29JgGFvRT6HFEVPaWo2poFTddhnF2a4Wc+2bVYWm8bZHvFldGUK16C ffA4iC0CDZmW+lrqgS2IgETXgWQiu9hudbbDhDrbESxre83kw9IBDzjWbbwoLszqvjdyHjQmkwoy 7poa0o8Eaipy8g12zS2Xnxecp4dOIdjzh9Mbvt8x5G+5k9GC9vghVvvCydX3QV/rRQ3j7HE+BZrG An2F5bYIDa+7I2LCX1G5ei0cgCMwKsDRNOcxib9DQx4h0JBOfU23fy2K+lpB7PW1kJJ/PweSMHU2 1342lnLjzbwUPv5fTD40Y6G4+0rv8o+dwNDe6BfwoD7dvQQagUliHWd0jyi3XoIeNQI19RE5e+Fw tiGHnHCGVLIl1qm1o617AKRehnfYmTXHTyQYFCYSOAbUe9hYHQQ6NHlGf1EdD0d03PlMw3gbNBHQ 8Odc1jhBGyQV4y6mhJTRkGsYDRmkfy1MfS1dwhFNYFMRkJgeYSPrZ9vIUm/sa3vW9IMzobjKfrid UR1IJ+BYkc/Cg9qSsON6rgWednECAN4LAjW9Rm7ctOeWNWb9M9ILB58rgO7DjN4elTPWAbGAg1Dh z+Mh9uHOhdY4oCt1PsscoDg3QyvApOiGp+6Efe8kjoY82oWGXCqhIU0YH4v1NVXhSCqATdVaK8p+ Nj/Z/5GMWz4dvsKvozDR3Qo0xnW2iW+f1ZUyh/VciS3VPTkv6Q9sHgBZyouQ6bZkwdiYPJexOp+D eiKOy3mfDak1bWyONOWy9Iyi+iPsd5dBnCChITdIaMig/pDtAg2ZefW1EMDG19lU+9ncDJFVfCNF 2b9DR25mVlt/IyDIvpP4a30rjc/AyikxSX/29VrWFxTZ8+pwPhoC2s4xayPsExx69qZAv2sKvvu3 WLbmRUOakPnz/pAqxscZC2w6dTYvQ+Sgsn9+8OjH6EhMyeFrPJ5pL2gJCFCQm6/IL0xkanKaoxAk 698ZOdf4FIZcrLdtH706isbgROYEohjkhZ5lLEOL58CD1CQOf61PdtbiU7DPncL61o6TNGWLNORi joZUmb+mI/N3619TFo4kDWy6/WwVinW2ILJ/LzoSb/IpaAaaal9DoDcnAvd+eu0Ye9PGuWVP9iyx Z5jhwEGcOvyt9lnWndAbg/98dfNkeyDneOD5K/Nzq/H2NBABYLZB4BQ+sE58U+v0jH4epkBT/kNQ 8/oggcnn25lx8TfbZifl7oJ1tTMgTmbZ2laPpmwTNKSOzD9QfS0WYAsgIDEl+w9KR4rqyM0sNf8s fJX/SeOLubai3faJQ7nxUIF7YP+kaWfqNP63vWxC9bv25OmhQMuv5+GU+vmmSbYFWGGWN+C2F5ba tQ2iIM21AODzlameksdAnRWzzr0JZu+DbIba8vLWuL//b2FfuwTiVB8acrWPGlKHhtSZv6ZCQ6YK 2HTqbF6yf5N05FLRFJmnIzFFN2mSbCL6gQJCdwJbcjw22Jgc/DNvs2GTWE/A2W+fbjjQOqikLiuB 7ULoJ3qfsjXjnpLYo5kwnaYVpUA9XtM0OVba0Y+SfAT61Urj62H9E+xpOGftdAUacpVLU7YJGjKo zL8gUVALUWcLaq8loyO93P691JFHsKztGJainwBf54k0vJgHFQ/ZP+n6UHqfHNfamxT+TDyFf7Nt VloK20YC1ad4zShbi8Bya+xGyPonZ8Rz0Am9ovd1HGzT0Wmar4fv3RFVXXFdh22wn30S4jSOhjyW MVRe3pALQ9KQTYZoyFQDm1+dLUk60vGOPIplbceym4/1tjeTfDFXVLTZdNruMesjpUfes6nKtdYX YMNqK8z8xnF0idhH8v7IhCT4a9qFJFOBifgpUO9pFA5hiQCdh4ZF03gtxoMsWzuVy9a2CCNqVGjI aRwNOS5mNWTGAZsqHVkbIR25TiIiOY49BOciP53Ei7kK6mnvjlkfW5F7B6vbodvCKTWjQWiSmQpL bG7Fg8AggVCkXpJXNqXXS3IysA8/w8kNKVXDYo0c++Y6YuhrhT3sKwzYTvbpXVul4Q0Zpik7a4At KB2po47sCdCsfZhbTxuXtZ0MX+vV2CkUeODRAeGdBKg0BFLcuJ4EheXaysyyU0KHkbvhJLyX5P2R O5Jg03ZtwYjUPQNLyputbYzl2J5qlemAdXhV5MOF/xv2sE8riEbWuNCQYb0hI6MhYwW2AHW2sHSk X7O24x05w8U7coWXiASzNvhK98f5YuJstjtBpr8v4c0ZNwYECLSiGldUlSEmxzU2MA/m4CTsJOpE R8VXJ1KKk6G9AwemvpMBtVWkSGNon9itKBoRe9f8RtT0CyNqOl2ytchoyDQBW1A60q9Z2/GOlPW0 TWZZ2wzFnraPiUggro33xNmSGvunQda/9GbfamtNZXvqge0iUHmSdVZcdaL11r0d86My6NWeRH0V UKNRO4iYznqx/Sbi3tKnNUQjbr1rJkbU+HlDppeG1AQ2LzpSxTvSydpkdOQYYZRNWBHJWTjiIa6X 9JbWGakreGMWhJ6Bn4pm0KExBxakT98hJWRshx7MjiZHZ9SrFFVAh94OrELalI+qPpzzSiM1mP56 SNGIKg05UnFEjcwbMv00ZMA6m6p3pFtPmzjKxqSIxJH+vxVfU/FKu7icRjUcnohvaJlm1aWwtoKN w9gjRKKReEUkZ9SOSdTv8V4m589UOhd7SSO6Pv8De9fFIUQjYu9akEnZNVGIRtIIbGHoyKgc/32z NvhaD8Txop5YMyrVVJozgPI5aNKdW5quUSZfbJ6SeF0y18KpwSYxBR6FKw8AqGUy9YwZ24Odh1iw EUZxjfYwGjKoaCQuCy2vpuz0AFtAOrJQg440KSJRlf5fE8fLegdsEpmg6MP6Cv66HPrs0gBq5dCa 8OPuJURDxl4nWmsPb63JjzeDR7Pvu6G+l+n1VKwHovq5KZqRQE+EEI3oDhQ13btWkDpQM0hHmhSR +Bkj+0n/T4Ov9ZsoX1YsIr/Quyxj3DLetv0p11pHVXYmDmzYLMw3D1PER0+jB+nEovjqbJgd3tgy PSvMrR3/zYNK6qPoX7vJsGjEZO9aUUbRkIboSNMiEjcnEi3pP3ytl6N2Hg86sTfJEzs2kZ+aYJ3F rq8BLbonQncWCm86cmmMpr44Q+2DLFK+In1+pPm2iT+guUQMopGOCEUjGQ1sJkUkQZxIlKX/URsj b67uycga0ZCoZMA6r2FcYsB2HNQmyUIruY35lJq+/dlUlPd5cVmLneFkU2aO1++zTcaHuL4uoSF1 RSNBe9fCikY8achEgS0COlLXGFnmRDKRpdbTWaqtK/2/EL7W/0bXgzUuY2sGjmJyU1V3IsB2ecME 6l9LcGO+GoQ7UQPbzNIG643Rq2OfoxZHvfpO8wKcuyU0pIpoJOm5a+nN1gxkbWGdSNyk/xPD+kfC 13o7MuNeqBtk8qTnIRp1rTULNqC4gQ2VeY6ghSJuKnI9iJ5mR3p/RxWWW6/0Ls9KuhkzUOy/HDHM 2BibP8NedZkLDeklGknD3LWsBjaT0n8/EYmq9N8WkURpr3Vv58EZ/+Li50dH9a4YJwSUDMu3J4eT IjK5jfnR7sUmN+aPNmCDqOqhroUZfejzcyBB0Vi5OdPxPYyG9OpdE0UjOobH3QZFI8N1RCNpBzaT TiRBpP9uIhKVrO1y+Gp/Nf3yFuPm3LU44zfn7UxM8CRsdB0xgVsjSKVfhNP8rjGkiEwqU3/RlvxH Yw11XfPUrFBAekn+fwbPb2uBMcn/DwUaUta7tkLR8Hg8JxrpC2l4nPnZWkxZm4r0f1QA/0gv6T/S kftMv7wtw0vsMRs7s2BzdsDtWegr64lhLEcd9FC9AFni25SxJbYx/xye3fYC871YR1Z12jW8bHaT wfr0m1A7HGvGaPyvsEd9XqAhozA8HulheByJ00imAJuu9L9UQfqvIyKR+UcqSf/xRGR8TM2IcnvU xs4sUXttZ+7lj3UvgubTkkiBDQejZsuhgIDt79EL7wQO2c32THzQvobrrCkldSau2z4XGjLu3jXj opFMBragQ0hN+UeqSv+N05E98BK/nkXA5oAbnrbv71wQ6dDSnhEV9vQBas5OlkprLigyOlfvdhCk 5IpFGgqf5pY1xkFDxml4nJ3ZmsGsLaz038s/crogIlGR/mNP216jqq+iSuut0dm5OaMM/xutM6wR EY036QcKZ2eGNbYTsHkHznnLpfYNNDmYY8B7FfamL/rQkEn1roXyhcwGYEtyCKmy9N+0OhL5dQS1 bB2Q+SEU/69pngy9OubBbXpxjS26IWBLFthaDAFbK1DXL49anjM100F7qO86u0/PALBdaZCGNNW7 ltkN2SHBLQ3+kaL030tEcpHJZu3+LAe2QRvcNlqn1I42b6dV0mBvDARsyakiXwZgqzdkhHwT9HPm UrY2yK7h1PA1tr/BvnRFQjSkTu9a5mdrhrM2Ff9IMWvrCCj99xORYE/bdlObc3cW1thkJ3t8iSca Hkw5ubjaPt0TsCVnhv1MzxJ70GvYe7msvNVW1ObSvRy0jaTXwntRa6Ix+xKPpuwo567JpmTriEaG ZSOwDTMkIqmN0z8SvtY3TW3OzYx+yXYFGG5aP+w8BJqqzTXzdsGh4A04FJB4JLmm/Ps6DrYFH2Hu YzX0wT0Djfa7c8zMGp9bFFodAAc0A4NFPy1pylahIXUttEz1rmVuthZDw3YS/pFIR54OX+v3Jjbn CtjofwwvdS7UFbDZ9iKDU4NL4do9Tc4jiXpFfoF5RYaJf2iaZL3fn3t+nwhseDDrG1EZ9hr+N+xJ 57l4Q3rRkDILLZGGlM1dq89pGjLmrC2sf6SqiMTpaXvaxOZcAPFo16KcOK3ii4wgNM/gBO67O+bZ yjICmmRUr1uqe0Ldv7mlDfazn4tZN1L020attDqHh3bqwVE1n/LxhtSlIXUstNx617I3W4sga4vT P1IUkfA9bVdi0dbE5vwA9Hvlykwx/J5IO9UUmBEcXAWnfRpbk9ygzDDG11ibe6RrobUnR02s0SvS kCXZb2E/+qSiN2RQGjKMhVb2ZWsRZW060n+TIhKxp82I4/8dI+fllEP9B2M3Whc3jjcCbCeD2pLG 1iTnOtIUwnXkU3X9WTU4VN9Eer31IwB22OzCvge/gv3oJGFStswbUqaGjIKG9BKNZA+oRdiwrSr9 Nyki4XvavmFic/5yy7SsdTCXboqMduovCl1bsGaXkuQ/idgNB7F/BjHQ8ICbch8If9CYYGcOC39Q UPWPrTNMufof6zIpW8cbMogaMvdEI4azNh3pfxgRiZcTidjTdjJ8rf8M+2CeVTc257IOFB58o21W 6Je6HOis53qWkhFyAvfvy9B3FvS+fa11Zk4d5twnaE8yAWwvS9xGnEnZppqyvWhIXdFI9oBaDFmb KCJxwM1LRKLrRCLraXsk7IO5wu7hWZ9zNRoUfSwubw79Yl8PGS/V2eLflDdUdga6XweXNdnU+yBd Q+u46l4TwPawxG3EbVJ20KbsRsWm7NyiISNo2A7iH6nqRDJPIiIRe9ocOvKrYR/McdDHMuQ+knt9 UFhjCNvbtqisOWfEN2lpzMYsuTKg6OG29jk5n605VCQ+uwaA7TYPmX+YETVR0JDZB2oRZG1Rikj8 etocOvLSsOrI2vwR1r+AOmpXDtJpSMGurRwZclhrgfUk9bPFes/Orx8X6F5NKq6xdo2mmqgj9R9p YCgvM0BWdRvxGlHTpzGiRlcNmU/A5i/9j0tEotLTZqRZ+56O+TmZdeCp9XY4wZto8iU6Mh7hD44K wplpQe7TNdDQTSrWNXaLw/0GXFuYndaFjEGSyfxFGnKWx6TssN6QgWnIvGxZMWRtQcfZqPS08RZb 2Kz9btiN+dz6A3Lyhd/B/PKmloTzy1tS3kL0VgyB1/gf22YGnBZfDC0CK2kwLMt6L22cYIKG/A2T +qvK/EW3kTAjanSbsrMb1AJmbaacSFTG2Wj1tMHXeTHsAzqHOTAM5mit4bvQy1cQ4vRamj/ceqJ7 sS39JwCKVvCwvKI10D06pbYvJ62z3A4IhwW8jkL8G+fm7ybzd3MbCTop2ygNmZdty5D036SIZDK7 6TM4EYnY0/YxOhK+yn1hH1AsxD/fsyxnZetIIx5e1RnqGp5QM4porih71+Dg9TgcHkoDuPkXQR10 yDqODh6Ysb7Wt8pqN1BfyxuanH20ROa/3Efm7+c2EnRSdu5ma4rgZoqO5LM2U8bI4py2L5ho1L6l 9aCcpdNQ+IHAHsZqq66gyHoJRDjU0xZdtrausiPQvcGRRbvGZO/cQa2p2XAd7waGIn+YkeG7X3Rx 8w8q8/dzG6kKWF8jYFPI2nToSDFr0zVG9pvTdhRr1A4tIDkSMpZ9OVwnQvf/Y0Oa6p7fMC6nbZqi 24zXWw+A2CGo0whOdaBs+u/1tc3V3SZA7b9QvCbU13g3/yAyfxNuI0o0ZF62r4BZm4lxNqo9bb4W W/A1fh72QW0bXmJTFLlaXEeq6yHoaysclh/4GjZA1vYiZW3mm+kB2BZBY3Vwmp3cYRwa8lUQ0LTC u24A2HYINlpebv5eMv+g9bVSAjZzWZuOiCTqnrb9dCR8jTtM0JHfbp9tiylyeXjlIaVNoa7hSTV9 1of9GwmUDAod7ho5F6Tpwe7HANCX+0ixuv9a3to2w9TYpoc0bbRUZP4dEcj8cw/UDGZtSfS08RZb n4av8dewD+uaivaclq3jd/9aQDl5HjeA9PudC3L6gGCsHQMyDKyNTSkO1o4BO5gNinQv/v58r6xo MwVs1/rU13Rk/nx9LXKZPwFbOnvaZHQk2mt9EPZhrQDaJpdNfbGnbfvo1dboERXhbMqKqmz3+F3U MxW67nl67ejA9wEbud8Cen0HiUbsd/oFEEhVhZ+/hvE7rO271Nd03fxVh4pWUn3NPLiFFZHo9rTJ 6MhDvCy24Cs8ZuIk9pkcL7Sj+OOMujGhryPJ/4PHdiZy+AZkz2H6C1dXtlPjPHdIMDWHEOK5kPW1 MENFyzTqa7kNahHSkSo9baMEEYmuxZZDR15l4qE9ALKNncyRI1fNYb8eko7EyLcNd2eT1VbAWicy B03Di0PdA3TXeJ+AzX6f34DMtbuwzAiwYYuRpL7mZqMVxM2f6msJZG2m6cgeQxZbx8JX+FXohxYC N/Zc7ml7pvvQ0K7/to1TQbH14+4lOTWh3IRyDylcHOIa9jn+bo5Nh/eS+F9lZvYaxv+BveY4nzE1 Yn3NhJu/Sn2tgIAtHXRkZ0iLLZ6OPMoUHYku6LmatTnfeayBCdtDzcG11utwWib3f7Vrj5vw8Qbm hNVCs/1LvctzcmrFx+rGfeHrxlz8SMNGa1aabLTycnUZpCNNW2zNVrTYutSEOhLjhhweoPme7XIx 0tRGYPdg7WAFfAIw9w0YZfln1441cs1nlNTbhwkaKLrBuq55qqln+W+wx1ymaaM1PWIbLaqvpYCO DGOx5UVHDjgDSOEr7DLxEI8eUfmRDCbXqJvLGiYYAza7laK8zd5ocR4YAZnYhL3W3oDPq+83dr2P s8U7Azl/WMADFap0DV3Xd3CiSAAbrclpsNEiYEuXxdZ0RYsth478pqnN4Urg5XPRIgrrMt+B+oxJ YMPYVN1ti1NodMrH6ccLAw4PdQvMUnJdEYnv7mcbjR7QbveYlr1MU+avY6MVun8tj5YruEVJR5q0 2ELvyD+YeJCbQPzwMtQpco1Cw7oMWmPVhTBFdosTa/tscNtFtKQtEsGs6qIGs6CGLQIPdS60bdJy 9draxt69S+1ao6Hr+nvYW06TTMsOKvOn+loW05FtEjpyjEBHqlhsrRUstp4ytUkcU92Tc1nbIJOc zy9tNA5sGIdXdtp/R65uvNvZd0cK8mgzhrwf9T0tLLU9EXM5M8Zsda3BOjGz0DqGoyGTlPkTsGUQ HWnaYusvJh7o4XD6xTEXuUbrID12rsGajxgImpgN56KPIdbTftq7zJoXUtLvFgfDtd2TwzJ/fKa+ 1T7LbnkwdE3/G/aUsyU0pN+07DAyf6qvZSkdqdPTtkroacOs7QVTGwUKSVCynkv0GdbZsA9qWETA htEBmcXt7XNsEM2F7AJbSNAgGg9KHYaahWVxdFV3ztbXsGyAzdgG5f0YjzPRSBgaMojMXzamhvwh U0pHmrDY8u1pgzgfvsb/mnq4twAlmUsWUVj/eXnUcqshpPuFSj0ILbx2MPoomx1dkH79TMN4qyjE aCC1OubonMyEkdrFZ2hDwIGsLvH/YC85z4eGXCLQkF5u/kFk/qr1NRKOJEBH6jr+ixZbuj1tKP1/ 0tQDjhZR32qbZb3fv8GukeSCAwbOpxsZYWbBx7SSOjtDxI0pm2pvKGJAkPlO+1xrckCXft04o25s TgIb1sKvaJpo+no+g65GXFO2TA2pS0N6uflTfS3ldGTQAaQqPW1KIhLkxeFr/NHUQ94K2ctPepZa 7+aA6AFl6Ei/dsQEbM7hAeeHPduzxN6kMpmeRNoajXexlnZUVVfgeWpB4lxQWeaaATUeiO7vONiI FRwXf4I95CKWrW1KgIak+lpKgC0sHenX0zaN62lTEZEcDV/jn01uGhNLau1MJtstohDY3hi92uoc UR7bhrzfDip/hHVxw4H2CB3coDNp/A0+F/iZfzZqhXUJfIemiKlcWaCLfS4BG2b4/wrXu9v8IexR lq1tFrwhVZqyVWhIFTd/LxqSgC1D6Egviy0dY2THiQQfxlPhq/za5AO/uKzJehs2/mwWPCCwvQW/ dpstwmsF+lVe0zzZ3rRQSYhKv8FU1naG2iOQ/nu2e4ldM2wZXpLYdTsL1Ky5QkU6Pabzy5pMX8df wd5xuiAa2RiwKduNhuTdRsLK/AnYEqQjZY7/bj1tQUUksqzt66Y3j2Nqem36I1stt5zv1ZsgsDmB ILGlpsemmpyaVdKHikEuO8NfH+paaG0CNWJl/vDEr9cR0CeYC6rIXbZF21prWXlLFNfxFtg7trqI RmTekKZoSBWZPw0WTQkdqdrTpiMiUXEicbK2LfBVdph++M+2i/QbstJoFqXp24BybY+xxuYX2How q7Te+lLzVOvndhY3YG/gb8dk9otgPwSsG2z666nuQ63LGidYM0vqLXgBUnOdFkAfW7aPq8GDzW64 FwMV7VFcw22wZxzvIhpZo0FDujVlizSkituISn2NhCMJ05FhRCQqTiS89P9I9nBegsVg0y/B5SDf /rA/+8ANN/DHuhZZxRFL04NGO/TAHVHVaX2lZbpN/znu+DZlCaCDnx/BeTBAJjbIQAwBEwECszKU 678JQP9Y12Lr802TrIPLGq1Ss0IFowrTt7PY2R9rrnig2RKBawuT93+Gy9bcRCNL2YFah4bsdlFD etGQVF/LQDpSV0Ti5kSikrUdA1/l3iiUfAhuuPllEy35Lmwc2Dydxo1bjDKg/w4srrY+AVTgF5om W/d3LrCHpb5mN9WvtUEJ788+O4ayPCf2ssD/j4FAhqCA9cUXepZZd42ca10IKsMVFW02LVuYNyz1 16MXBD+v9a20gT0ba2p4aDnOwMw6l7g/QLamMqImLA1J9bUU0pFBRCSOE0lQ6b8sa9saBSWJ8am6 fnujzBZBCW72t7TNzAhgk4IdZFOo6MShsWsqR1qnQNPy5fXjrasaJ1lfbJ5i3QCZ3k2tM6xb4Tt+ FeIyOJycUNtnra4YaU2BPzMKhCs1EZhAxxEV+QXW89CWkk3m3duZQOctUMriISOia7cTTdQVszVe NCL2rjk0ZL+iN2QkNCQBW3R0pMxiS9bTpuJE4ib9F/0jPbM2pBmQbojixcCN8V1W88mGvqDrW6Zl LLDlchQCffxY9+KsaknBg9aL0BM4MyJ/TYg/MApSlq0NSJxGxIGifqIRrxE1JmhIAjbDwOZHR3r1 tHmJSIJI/92yto1c1oZCkrui2lTQzge96vZmuCoNabnTIMshoMjMuKdjflYYIWOdEGvYj0C9tzc6 IdPfIG6GveEEhWxN5jTiJRqR9a7pNmXLgI1oyBTTkaoiEpn0Xzdrc9xIsNnyWPhKP4tqUzmwqNr6 AdR5PrAVk2szcjPB2tRkoOQIJDIzroJa474Mb9JG5mOIOZhq1RYURXm9fgR7wokQx2lka7zTyAx2 0PYaKNrpMaImDA1JwJYwHakiInGT/gfN2mR9bZvYiex0+Fp7oxQ0XA5ScEehl2mKyKdBfFGSUtUf hX/MBcpuaOZb5lLhOFPucFC+Rnyt3oS94BRGQfJ9a0GzNVE00qMoGqnWyNaIhkyYjjQlItHN2mQK yQHO+f9odjK7IM+wK4kYWOh+adRhGeUEgTTkdc1UX8vkwAkC2K6xO8MOVY7HJo726YveHOA/cAoI l61t8VBC6mRrXk4jbqKRKgK2zKcj/aT/XkNIvbK2OR5ZG+/87whJENw+H5WYJI+bO2ZPBmAuFWmn IfG0fGg0bg4UMcYn68ba898yxekG3w9svD+9bkwcbRU4PPRqiJM4wchmicsIr4TUzdb8JP4y0YgR GpKALVo60k1EInMiMZm1LZB4SMrk/3hCOw6+2i2sgBypawb2WeF0gDQ71+Np+YrGiQQMWRCV+YXW jzoX2krdNB+k9rI2mWugDaMzHqeb/4H3/gYm7ZcJRjZK+tZk9lkq2Zo4dy2saISytZTTkTrSf5Ws Texrczwkeed/qZCEgdvdcWw2tdAbdV79AfZIGHtydErEJdtZpnYvqOnS6jZCEWAaBTSu45SEtB2k HEDDZw6b4KeX1MV1Tf4CcSsDNTcKckDwhOT71lSyNT+Jv59oxM0bkoAtYToyiIgkSNbm5UbCO/87 8n83IQmC2/Hw9X4Q14aD9YPrmqdab/YNjWZJuvcNKdKXe5fHdWKmiHOMDTSf/yIllOQONuUanzcc LLsSatDD4rsWf4W4DSd+MFBzoyDXSQaJii4jOtmajtOI2LtGNGSK6Uhd6T+ftYm1Nl4h6eUhOV8i /1/pIiQ5hp3cToCv+EScmw4C3PkN42yKEgUm7yYwmgWl/fj3rorO0YEiwSgHhe79kIkn5fg/yKT7 eIBD55CbWw+yZpXUJ3Et7magdpKggnSjIHnBiOgy4ldbC5utBaYhCdjipyNNZ239Eud/L/m/GyXp qCQR3E6MG9wwaqAecmRVl3UfbEDOaJZdMWRxu5j33uFVHQQCWRwjQcD0fO8y6/3+DbGCmWNK/Swc 3C5rHG+NKapM4vtj/fxeeLdP4+pqqhSkIxiRuYyEzdZURCO8NyQBW8royDBZm58biSxrcxOSiJQk r5J06m3HM3D756Q2odnQg3RDyzSbGnyXOda/E4Fbu2P4u65yJG3+ORAIKjjTLgp17iAbJYMg9j4D sx/3LLE+D43iC8qa7Kwxoe/9J0Y/nibU1VQpSF7eP9vFE1JVCSlma1Vs/9MVjRANmeVZG+/87yYk 8aIkZfW2rQzcToKvek+SG1FDQZG1FGT3/9A0yXqia7FNGTou9e+OGQIl3YkCO9nIDyzcPwsbz2EV rTm1uWPTedPwEmjBKAMauNyaVlRjzYODxILSJmsxXOulQMcuKW+1ZgNVNgr+fzP83rIsalQvzMu3 NlV326Cz1z406TEDzkgffI7egWfQmYyAQIaTzhE40ZhgYVmzVZH80NXfw3v8FTYJ+xShrsY3YrtR kG6CETdPSDez47DZGtGQKQM2P+m/V9bm5kYiOv97yf+9KMlVHvW2rYyuOBm+7u1MSZXoS1oMm+uU 4lrruJpR9jyw7wFliQ7ujroMNxcHsDATc8JRnjljWXCcyVdbZwCgtSV5ijYWBWw22yRQ/6GL/4m1 fdan68fZ7v3fbp9jfbdjnvUAbLbfh0DF5+NwQHgFNmD083QGqr7D6Fh06tjD4m3YuFFN+DP4vU/B n8Gfg6bQOKLoEvj5OGR2c02vNb+00eqBOmmmgV8VUN9LAcBx0sErwAzsZXPn+FE+zmiffezZcQAM nzm8Lo9DA/ht7bOts+BaYFbWBvchRd/xl/D+/gMDNa+6mhcF6ScY0fGElGVrXhJ/P9EIAVuMwKYr ItHJ2rzmtfHyf5GSnONCSYqN23y9bYsjJmH0Bfa5/SFtmxOOVRk7otJaXdFuby5YlP82bDR3gnz6 e7AR40b+Tfj3a0F9eX5dv3VkdVdGqx4RPBBE5kCGdVrtGBugH+5aCE29K9nctfV2j6AI8nu4QADD 34tZxw57EOna/cNFxfh7ZjI0cNTZ5J2NfmiS9jpb2YoWZHeByu8aoN7Oqu+36V0cmdMCGV/ar2tj QTFkqS3WSXAowOnkX2+fZd3SNsO6oXW69QX49ysgA8PnB4H8UMjExgKl2VJYYhWldzYdjp+5xAPU ZHU1FQrSS97v5Qmpk60RDZlBdGRUWZuqkISnJN0at/nxNpt5MQkDt8/C195FtZq4ZooNhx6sGuto oM2uBrBAt3qclI39f7uZwg6BBrMsBJ/BBPuxdoz+O/g5oLeXjS96ZdRy64edh9iAMVDZkRFAl+Hx Aryr53KgJhOLfIKBGl9XExuxVShIHcGITAmpmq0RDZkBdKRK1ibzkHRr2haHkfpRkmLjtmy8jRu4 fRK++uN5EbuU5Gpg68MnAMhugszzOaBZEbD2sSxpD1dTHMywKQkIvs7kbqxDfb1tpnUUKGD7i6ro vpuL/wtxB7yjZyqAmiMW8aqruakg3QQjorxfxRMyaLZGwJYgHakiIpFlbTIPSVUhiRclyTduu9Xb 3Jq3eXBDddWteRGbJ+dKlOUXWEfAJo81LKT0HAB4OwIVaBpip02ZDuw3xcZMdHN1D4hUiul5CB6D rJ7mBWqbPcQisrqaDgWpkq3VKPatBRaNELBlTtamIv/3oiR5leRMSb1NNErmxSQfcyYRwO0SuASv 0aYSRPAxzKYZz6k/wHqie/H+xvQdGTi7LqwLxxB9OWBTlte2TLVn4OXTM6Iaf84bmqX2KQ9QO9YF 1HixiKyu5kdBjlEANcrWclREouL8ryIk8aMk/eptQcENqcn78iKeDpAt0Qr1pTNB5PIDqDk5bu6Z NqsuSvcXpFzxuny/82DrdBDH9BSW03PjHu/B+3cjxNn4HkYEage5qCBFCjKoYEQnWyugbC2ddKRq X5uXkESHkuQbt73qbYsFMYmolPQDtzMgrkE6hDYbeWAGsqmq23oJZOU4RgXrZbmWnelkcXuYuhOp 2fMhqy3Np4GvXPwO4kE2R+2sgKDGKyBlYhGnrsY3YgelIN3k/Tp9a0RDZhAdWaiYtYlCEhVKUmzc FuttuuB2lAe4ncrA7UwsXmP/DG0+f48pJbXWndBPto/VzQi89OpxCHAPQ7/YrNL6XH+W/hfiJ/Ce XcGoRxHUTvKpqQ0ogBrfrzZNqKuNUwQ1VcGIlxKSaMgszNrchCS6lCQ/AUB0JZGJSXTB7TgZuLGp 3A9B/Fcub0SVINe/smmi3QC9N4Omh6cxnPrjAmgGz9Hn6S02P+1cAdROY44iTp+aqH70AzWZApIX i6jW1VQpSFHeT9lalgFbGCGJGyXpNQHgQKG/zRGTyJSSSzVoSRHcTmcvHPL+n8Oemrwhr7qc2oiw MflRyDJwaClRjqbGCq23tkGrwOSi6lx6lnbBe/QtiPMgzmHv1ZnsEMl7PzrN1zJQW68IarwC0hGL OAbHvLuIrK4WlIJ0E4wQsGVZ1qYjJGnQrLeJYhJRKSmC23IfcOP73E6QgNtZ7HT5BbhEz0D8Nhc2 o0VlzVAbWpXqqc2ZGDgIFvvhfg7gNim7wQ0px23w3nyV1dHOdaEeRVA7RuhTUwW1eRJQk4lFVOpq QSlIytZyLGtToST5uW06YhJHKekFbmLmxqslxSbu4xklcooE3PDlvBwu1QMQ+7J1Uzq8qhMytDWk dIyYlnyhd5nVMyLrFJP/l9XQroe4UAHUeJEIb5PFN1876kc/UJspgNpETVAT62phKEgCthzM2rwo SafepiomkbUBOD1ubuC2VgJujrfkVhfF5JmMQjmHUSoXIL0Cl+wX2bQxraloZ07xRD1GHb8EZSka YWdJH9q7WJOGd+IqBmgXeFCPpwgikWM5Q+OjOJssmaRfB9RUFZBiXY1vxFahIClby0JgiwLcWn3E JDJwmyYBNz5zW+ICbhsFcDtGAm6numRv5zPvyW3ZAGroFI8+jnsoU4ut3oZTCkoyc5wOTsp4D+Ix NlLmMxCfVszSxHoar3w8XGKTtVyifgwLam7jaOoMU5AEbFmStblRkkHrbabAjVdL8k3cvHEyP/JG pe7mgNuFTEH550wGtmOqe2xZOoFOfG0Ar45aaTUVZJwN1xs4KYM5718sABqfpbmBmkg9fkIYPcMb GovN16JQxA3UZObGXmIRcRyNVyO2GwVJ2VoWAJsuJSlr3HYDN1l/m0lwcxxKVgngxrcDuNXd3KhJ fKm/Cpfv3zMR1ODtsvvUSCwSp0vJOut5qLNVFozIJEHIw/CcX8oADbO0izSzNLd6migSEb0fxT41 mVBkokTWL1NAeolF3OpqYShIArYMADZdIYkqJSkTk7gpJVXBTRSUHCKAm2OcvEaimPSqu3llb1fA Jfx5pgFbN4gYcGjnTpL1xxbY6I4CkgqggDPgGfkFPNtfY1majHbka2lBqUde+ei49PM2WfMlfWo6 oKYjFglCQWpnawRsmQNuhYqN2yr1Nj+lpBe48WrJ2QK4LRKmAoiKSVndjacm/bI3bO6+N5Oau0eN qLBnpO0g0UhsgQ3vOFB2WPqfj5ewn1OgHR1xSJAsTUY9rnERiSwUvB9NgpqsCTtIXa2QQC27gU2V kgyilAwKbnwT91wJuMkUk2LdTUZNqmRv18Kl3JEJwFY9bLj1Yu9hNj1GoBNPYOP7kdBakeLn4rfw DH+HAzQ32lFUPLplaZtcpPyrFUQibqAm9qnpgpqqWERsxA4tGCFgyz5K0qu/LSpw470l5wsjb3hR iazuJsveZODmlr2hsCT1kwNuaJm2f74YRfTZ2oOdC9KsiMTm6qt9aMegWZqsP+0wST3tYIlL/zTO JkvWfO0Fai2aoKZaV6NsLUuBTYeSFOttXs3bquDWqwluXqISN2ryCBdqUjV7ux4u6c40A9u0kjrb sX+Q6myR19bQ8X98Op1HfgPxXU3aUdaXJsvSNvpkaYdy1ON8QfkouvS7OYqEBbUKQ6BGwJYDlKSO mEQGbg0BwI33lpzkA25edTe37G2zh7BEVns7l2VvP8gbcmdIJbh9qXmqTZERAEUTeGjAyeIbKzvS du//BvEKa7B2aMcLfGjHoFman5RftZ4m61PTBTU3BWSQuhplazlKSar2t/n1uMnAjW8FkBknT2IU xjRBVCKru4nUpJdqUjd7w5Pv1XBZX01rk/bj3YvJyT+quhr0CV7cOD5t9/0DeCa/7SHf91M7BgW0 JYZBrctF0q8KauUEagRsqpRkUDGJLrjxfW6it6QKNTmfs+FyoyZVsjcv5aRIT96el0JLrgnF1bb0 n7wizZofYyb8T9ArWJg3LC33+o95Q84hl7k0WavQjls9aEc/UFusQD2K9TRe+WgC1FTEIkRBErhJ KUmT4FavAG49AcFtnodqks/e1ofM3nh68jNweR+B+O80gduhZS22QpI8I82AGtKPj3QttBqGF6Xl Hr/OjIr96mheasc4szQ35aPMJotAjZYxYAtbb9Opubn1uTn2W7KpADJRiRs1KVNNqmZvXn1vXvQk jsV5hdU6UuLy32XtYcMxCaCCgxq6ufy4+1CrY3hJGu7re/Cs3aZYR9OlHTdK+tJExaNKlqZCPToi EXFQaJSgFoqCJGAjcNMFN9Fb0qsdQKy7hcne/MBNRVwi0pNfTVPv28k1o6z3x9Kg0aCBKtOXe5db Y6EBPuF7+R8Q9zPnkIs0XUNEF/4gtKNqluZGPfqJRNpcbLII1GjFWm+LCtzaJOAmE5UEpSbDZG+q 9KRTf0vFzLfz6vrt/radREtqZWoIaq9BrXIqtFEkeP9+D/E4Wr0FrKOJTdaqtKNbX5osS/MTiDjU o1hPE5WPKqBWEQGoEQWZY1lbVOBWrQBuomLSr+42yYeaVKm9iX1vvGsJn72J4hI3evIi7ClKg8Dk RMjccKMmZxL1BuyfjVphzSxtSOqeYc32WU6+H6SOpqJ2lNGOMnGIapbmRT2K9TQvUKv16FMLAmqB 62oEbLlDSUYBbn6KSbHuJqMmk87e3OhJFJjclzTAbaDJ2kqxD6jbx7sWWWOSoR/Rn/Q5eGau8aij nR2gjsbTjk4dTZd29MvSHIGITPWoWk/z8n4kUKOVWnCTeUv6tQMEpSZNZm9e4hJVehIBDs2V308K 3BaWNdkzxKjPTdZ8PSTpv7tjvtVQUJQE5fgMAzRdGyw/1xAVtaNIO/LiEDfFo1eWJqoe3ahHmUik xsdRJAyoUV2NgC02cJO1A/hRk70uqsmgwhKd7C0MPXk+27TuhNvwThLgNq6oynqo8xB7Ex8kQNs/ Ww1FNtc1T7FK82P1f/xP1ot2tcfQT7GOdhpXRxPNilXk+6Lakacd3cQhbopH1SxtpGI9rcbH+zE2 UCNgy816W1BwK/MBN5W6W6eLatJPWCJmb17KSRP0pJd68gJGM/0j3IrX8oaGQMa2oZbnD7f+oWmS 9S7U3XKdmsTsFRvat1T3xAloKCz6vjBOxrQNlky+r0s7yvrSvLI0N4GIjHqU1dPclI8EarQyAtzK FcBNh5p0E5aoZm9eriVe4hId9aTjPckD3IVsQ0OT5WchfhsnwK2uaLdeGbXcbkDONUDDFgi0yHqg c4F1YDyGxnh4eYP1oflNsda1wQoj3/ejHR1xiJviUSdL06Eey128H8OAGlGQBG6xgpsoKhHrbjqq SV5Y4ld7i4uelDV3n8PRkxeyU/uV2K/EaMq/xgFu3YXl1h3tc+xN/u0cyd4wS8NM9aKGA63i6EfP IN34NNzbrzD7q0s0aEcVGyw/+b5Xk7Uu7Sj2pXnV0vgsTYd6VBGJEKjRMl5vCwJubvPcyg1Tk17C Er/sba7gOekmLglKT/Lek7L62wUcwOHGdwvcnuchfh01uMENtE6q6bOzt2xu6EYww56+BzoPtubE I+Xfi640DNAuVaAdTcv3RW9HHbWjmzgkTJZmgnokUKOVanAr1QQ3FWpSlr251d74vjcvcYmbqXJY evIMH3rSAbjPwS16EOIvUW/E7cNL7drbDuaPmC3iEmxOR7HMT3qWWpuqu63h8RgZ/5KpHC9lWZpM 7RjUfT+sfN9pslalHfs9+tLCZmm69bRIQI2AjcAtCLjFRU2qZG9efW9+4hJVelJs7ha9J1XaA5zs DTfES+AWPRBX7W1ScY317fbZ0NS9zga4TM3gkFpFivV1EIdcWD/OqisYEZvaEe7ZdUKWxjdZu9GO Ucv3ZU3Wjgu/Cu1oKktToR5VQa2AQI1WHOBWYBDcvKhJU9mb41riJi4RR+KEoSd570mV9oCP0JNw ix6NU1yCdN1NrQfZE6Pfz6Aa3G5Qe+Ln/Zfew+w6Ws+I8jgVj79j9TQvcYhJ930v+b6sjubWZK1L O8aVpelQjwRqtGIBtzioSdXsza3vLYi4RFU9abo94NMoRMiLufetb0SFDRA/7V1m16j2ptB7chfL LvGzPdq1yDq+ZlQSjdb/hUbYEnGIillxEvJ9N9pxjAbtGDZLiwLUhhGo0UojuHlRk2GzN7e+Nzdx SVh6UuY9GdS95EIGbg/nJdDcjVTe4VWd1rfbZtsOJggkGEl4UA4KYPYiZGdfaZluLS9vBaVjfiJ2 WNiXKIhDZN6ObmpHGe0Y1H1/vk8dza3JWod2dOtLC5OlxVZPI1AjcEtD3S2q7M2rNcARl/jRk0Gb u4O2B9j0ZN6QPdef8xKy52ovLLUGKjtsqhIpv3fHDtF/OL8MKUuTdblB1nf2DgMy/Ht2wz//FP7e G1qmWSsq2qz6gkSHgP6K0Y9e4hC3Jmsd2tHNfX+hQh3NTb5/gAKgedGOcWRpRutpBGoEbsMMZ2+F AbO3Cp/srd4ne/NyLXGz5dKhJ8Xmbpn3ZBTuJd+G2/THvISnB9QBqCwtb7EuaBhn3Q49cc92L9nf L4ZqRDQWxn9G8MP6FwKfE+98JOD/w+/B3+cAGP5ZdEh5C+p8j3cvtm4GID2hts+aUVJv1cYnBvGK PcwSS1UcoirfHwgo3w9TR9OlHZPM0gjUaKUK3MJSk2GyN11xiWl60pR7CU9P3gS36Td5KRlumscs u0YXVVirK9ut02tHW1c0TrBuaZtp3TVynvVQxyHWcyC7/wnU634Mvz7dfaj1ZNdi21H/sc6F8P8X WHfC77seMrFz6sZam2t6rSUAmqOgzleUDMXoFa+zHjUVcYhXk3XYoZ9zI6ijBaEdxb40E1kagRqt jAY3kZoMmr151d7C0JNe6km+uVv0ngzSHrBVoT2Apyevhtu0O2WbvrwZHKIaMq0ayPKq8gutCgDB smEFVgmAVnFePvSYpf87sPiJxDkkjDjElPv+NEN1tChpx9izNAI1WibALa3Zm6q4REc9qeI9aaI9 wM+9BAebPpuXOcCQqYHU730eziFePWmqake3oZ867vsTQtbR3NSOfrSj2JeWeJZGoEYrLeDmJiwJ mr3xriVR0JP85ABV78mw7QFu9ORtcKt+RwAUSexmjde64pAgTdZB5ftx1dHC0o5BszSiHmmlDtzi zN5E15I46UmvwaZB2gNU3UscehJtuN4iIDIWaEj9FFM9mhKHqKgdw7jv69bR/AAtCO1IWRotyt5C 1t5UXUuioiejbg84RmgP8KUn4TY9lBfzrLcsDJTyf11RHOKVpR3hQTsuD0k7BrXBUq2jedGOZTGI QwjUaFH25pO9haEnvSYHuA02VXUvWSGhJzeEpCdxE/4K3Kq9BFCBsrSfMtWjCecQ07Sjl3xfFdBa XABNp45mmnYMlaURqNFKCtzSkL2ZoifdvCcne9CT82KmJ3EzPi9vaM7bbwiwlOJtuGY3D9Obk+Y1 +NNNHOLWZB126GdSdTTK0mhR9hZz9haWnvTznjwgIXpSRz15GdyqZyD+ROAljX+HuFtCO3qJQ6LI 0kwO/dSpo9WkoI5GWRotyt5C0pMqzd2tAejJIO4lqvRkEPWk6F7yRbhd2yD+RmA25PMI8QgzLw4z J01nkrWbt6OO2tGUr6NMGBK0jjaCAI0WAVx8rQFJ0ZNRmSsHbe7mAQ5dS17NYYHJ75ja8fNCHc2L dpSJQ3SyND9xiFuTdVj3/SDCkKiarEPX0QjUaGU7uCVBT7Zr0JOmzJVXhKAnZebKvMDkGkZR5kr/ 2y8gHoTvfTkHaDK1Y5ziEDdvRx3asT0A7RgG0Ih2pEUAl0JxSSbSk27N3Uco0pOy4aZnczU4nNS9 L0tVjrsg7hg2NFbGDdD8aEcVCb9blublwK8iDjE5TkZHGJKKOhqBGi0Sl+jRk7rN3bLROCbMlWdF QE+qAhyfwaEa8Ba4bc9D/GcGgxnWED9kdOOXh3106KcXoLkZFpsUh8z0EYeI3o4qtKPXFGuTDdYj CNBo0cp8elIEuKYA9TcT6snFEnpSxXtSbA/wAzjexQTdNr4Gt+85iF9mGJjdyIyKzxNEIX6A5jcn TUXCv1gi4ZcN/tQVh6ioHVXraOURCkOojkaLAC6F9GSlBj3ZYpCeVGnudsveVNSTosDED+DO5oyW L2AN34/nDU0T+K+UANmvIbZDPMyBmZid+QGaWx3NxFgZmYTfTRwi9qRFMcXalDBkOAEaLVpm6UlT 2Vvc7iVhmrvDeE96AZyYwfFtAk4djs/izmVZ0BWMsnwQ4hVWm4ty8OlfGJi+B/EixD3w91/PZPrn c2DmZGd8H5qjcjxNAdBUDYtXKPg7+jmH6IpDVGjHNDRYE6DRInBLMcBF2R4QlJ70G43jVn+TDTeV ARzfJuCVxZ3DAcl5DFgQ7G6GW3sXA7ynIF7OGzJl3skyvXfzhmy+8Nc9LPC/v8NiF8vAXoJ4FOJ7 zK/xS+znX8AB2XkuYCbLznhRyAkegCaro6mIQ1Qk/GHFIX60IzVY06KVo+KSpNxLTNCTqqNx+OZu VYA71gXg+CxOBLmzOECRAZ0TF7C4UDEuEADMATEeyESa0QEzMTs7JQCg8XU0kxL+sOIQXdqRAI0W rRyjJ6Osv6moJ1W9J02MxnHqb14AJxOZnCDJ4kSQE4HubAHseMDjgU8W50riHA7ERCA7U8jMRDAT 6catioCmMlZGR8Kv6xwi60njm6yTnI9GRsW0aGUhPRnl7DcVetJvcjff3K0KcKKKkm/0dgO5UwS6 kgc6EewcwONBzy3O5uIsCYjxQOYFZmJ2tkUQhagAmmyadVgJv5tzSFhxSOqFIbS70SKASxc96TW5 O2p6MshoHLE9wA/gRJHJJglN6QVyfDbHA50jQjlDAD3VOMMFxHggc2hGJzNzy84c2b4oChEBTTYn TUY7mpDwq1hhpY12JECjRSvF2Zvp+ltQejLIaJwpGs3dosBEBDhRRck3ejtZnBfIuQEdn9WdKgCf X4h/hgexkzgg47MyJzNzwEyWnR0hANo6DUDzoh1NSfhNi0NolAwtWkRPGrXnUmnu9vKe7AuhnpTV 33iAEy26eBXlgISmlIHcMRyQbOXARQS7EznQE4HPLU4SAIwHMR7Itgo042YBzI4S6EZe5ShSjjJA c+pobrSjqoQ/rHOIbpZGzvu0aOUIuCXZHmDae3K8h/dkEIATXUx4mtIN5DYJNTk+oxPBjgc81ThO iK3cz94iZGVuYCajG9d41NC8AE13rIxpCb+bOMSLdiRhCC1aOZy9FWQwPSnznpTV32QAJ2sTcGhK L5Bz6EoZ0Ilg5wAeD3oqsUUAsM1cRiYDsiOEzGxAkp2tElSOqoAmUzu6jZWJSsJPtCMtWgRukQJc EHqyxgA96TcaR6y/iQAnZnALJW0Ch0lAbo0AcgNCTU7M6BywcwCPBz2d2MQBGA9iPJAdzoEun5mJ YMbTjUtdamhegCarox1oQByiI+GPYj4a0Y60aBE9mVp6UlZ/8wI4tzYBP5BbzQGHCHQysDuCA6Mj hUyPjyNdggcwPiOTZWVrPMCMz84We4hCZIAm1tHi8ncMm6URoNGiRQAXy/SAsPSkX3O3H8DN8AA4 WRa31AXkVnFAJ2Z06yWAt0EAP7cQf+8AB2A8iPFA5tTMHJrRC8x4+ytVQJPV0XSnWUctDiFfR1q0 CNwSteeKgp4c42PP5QZwsyV1uAVcLY4HuSUcYIhAJwO7NRwI8VmeX4h/hgcwPiPjgewwCc0ogtkC oQ+NVzm6AZpXHS0Jf0dTtCMBGi1aBHBa9Tc3erIiInpSNYObJKgonTYBnqZ0A7mFEtGJLKNbLgE8 HvhWCQAoAtYqAbhWCrQiD2I8kKmAmSw742X7fhmaKqBF4e9ItCMtWgRwkQlMTNOTpkfj8PU3HYDj sziRqhRBjs/mFgu1OR7slgkZngh+sjiMi2UCgIkgJgMyh2Z0A7OZEkCb4lFD65fU0fxoR5k4RCdL MynhJ0CjRYsALhTABVFPmpzcrQtwIk3JZ3EiyM3hgEIGdAs5sBMBTwQ+lRD/7GLh54sZGV8zm+sD ZjK6MSigedGOacnSiHakRYsALhKAk3lPmhqNowJwIkUpNnpPktTieJCbKdTkZEB3sATwHNBbKAE/ t+B/P/9zZCDGA5kKmE2R1M8O1AA0L9oxzPBPU1kaARotWgRuRutvcdKTXvU3FYDr98niJnN1J5Gu 5LM5HujmcvQlD3oi8KnGfAHA3ECMBzIVMJvgAWijJYDmVUfzox2TkvAToNGiRQCXkfSkX/1NBnCj PADOyeJkICfSlSLQzeRAxgE8HvRE8HOLOZKYLQExLyBTBTOxD63PA9Dc6mi6tGMUjdYEaLRo0QoN ckEBLq7J3X4A16uRxcnoSh7oZGDHA94MDohE8HMLEbhEAJvuAWReYOZGN/Z5UI66gBaFC38kWRq9 /bRoEcDp0pNRqiejAjhebCJmcgcKICcDOh7sHMCbJoCRbkwTAEwEMRmQ6YCZI9tXBTQd2lFFHBJ7 lkZvOy1aBHBxi0tU6UmV+psIcO3cpt0VAORk2ZwM7CYJwMMDnwwAp0r+/xTJz5jE/T1+QCYDs9Ec mIl0Y6dPDU0GaDrikMSzNHq7adEigDMJcFFYc3nV39wAjldRumVxbiA3xgPoHLCTAd4EAYx0Y4IA YOO5v8sNyFTBTBfQvNSOOrQjZWm0aNHKuewtKoDjVZQiTekHcqpAx4PdOAnwieAnAywRuEQAc0DM Dcj6JGDWIwGzDg7o3WpoqnU0N3EIZWm0aNHKGYAzMTnAq/4mAzheRemVxamAnAzoeLDjQU8EPtUQ wUsGYl5A1u0CZmJ25gZo9ZqAFsVE63wCNVq0aKUF4KI2Vvarv9V41OD8sjg3kBOBzg3s+gTg4YFP NUZLok8AMRHIVMCsXQJmMpWjCGg1AQCNsjRatGgRPWmYnnQDODeaskUB5GRAJwM7EfDCRK8EwEQQ 8wKyNh8w8wI0nQzNVJZGoEaLFq2szN7C0pO6AOcFcipA1ymAjBvo6UQ3F10eIOYAmSkwq9EAtCgn WpNAhBYtWhkDbibpSRWACwtyfkDXzgFLhwvouYFflwtodUrAyw3ERCDzArOoAC3RAaD0NtKiRSvT qMmwAKeSxXmBnArQOWAnAp4IfDoh+zltLiDWInw+MTNTATOTgBbLvDR6A2nRopVGcDNBT/oBnBtN qQpyKkDXzAFMq0e0KYTXn3cDMa+sTAZmbtmZaUCjLI0WLVqUvUUEcKpZnBvI+QFdIwcwMtCTAaAY zT7R5AFiMiDzAzNZdpYEoBGo0aJFK2ezN9X6mwrAedXiggBdPQcwMtBr9AFCld/f4AJiYkbmRTPq gFkUgEZu/LRo0coJcDNBT4oA51aD88vivEQnbkDnB3hu4QVUblHnAWI1ks/qRjNWcADvl53pAhpl abRo0SKAM0RPFnoAnCrIlXuAnFtGV80BS61C1HmE35+t8QGxKslnVgGz1AIagRotWrRyJXtTATiV LE4H5GRA5wV2buCnEn4/yw3EVIBMB8zCAFpo2pFAjRYtWrkOcLo0pSrI8UCnCnYi6AUNr59dIQkd IAsCZkEAjbI0WrRoEbhFAHAqIKcDdH5gpwN+qqClCmI8kOmAmSqgFUQJaARqtGjRIoAzC3Je2VyJ ABhlHlHuESpgJYbX3+UFYiUCcBfFkJ0RoNGiRYsALiTAhcnieJDzAzo3sBMBTwX4dKNUAcB0gSwM mBnLzgjQaNGiReBmJosLA3Qi2BX7AE1UUawAYipApgNmBGi0aNGilRDA5Sts0Cogpwp0XqBXrAiE Kn/O7+8eoQhkYcGMAI0WLVq0YgI4EyDnB3SFEgBRBT1TMUITxAol3zFWMCNAo0WLFgFcciAnAzoV sPMDvrCh8/frglhkYEaARosWLVrxgly+xqY/3ADgmQy3z1MQEsjyTV1wenpp0aJFKx6AMwV0qsAX RQT5fPlRAxmBGS1atGilB+SG+Wz8YQAviciPC8gI0GjRokUrM0BOB/CSAD7VzxTpoqePFi1atLID 6IKAXpQR26KnixYtWrRyD+iyatHTQ4sWLVoEdgRitGjRokWLQI/AixYtWrRoEQASWNGiZXz9f11e c+JqHT+EAAAAAElFTkSuQmCC "
       preserveAspectRatio="none"
       height="107.53151"
       width="91.810524" />
  </g>
</svg>
